<?xml version="1.0" encoding="UTF-8" standalone="no"?>
<svg
   sodipodi:docname="SUSTechSoc_text_only_converted_to_path.svg"
   inkscape:version="1.1.2 (1:1.1+202202050950+0a00cf5339)"
   id="svg8"
   version="1.1"
   viewBox="0 0 404.15995 29.865684"
   height="1.1758144in"
   width="15.911809in"
   xmlns:inkscape="http://www.inkscape.org/namespaces/inkscape"
   xmlns:sodipodi="http://sodipodi.sourceforge.net/DTD/sodipodi-0.dtd"
   xmlns="http://www.w3.org/2000/svg"
   xmlns:svg="http://www.w3.org/2000/svg"
   xmlns:rdf="http://www.w3.org/1999/02/22-rdf-syntax-ns#"
   xmlns:cc="http://creativecommons.org/ns#"
   xmlns:dc="http://purl.org/dc/elements/1.1/">
  <defs
     id="defs2">
    <rect
       x="21.213203"
       y="507.09656"
       width="247.48737"
       height="108.08632"
       id="rect50857" />
    <rect
       x="-83.842659"
       y="791.95959"
       width="231.32494"
       height="64.649757"
       id="rect28629" />
    <style
       id="style28077">.cls-1{fill:url(#linear-gradient-2);}.cls-2{fill:#fff;}.cls-3{fill:url(#linear-gradient-6);}.cls-4{fill:#464879;}.cls-5{fill:url(#linear-gradient-5);}.cls-6{fill:#c3529e;}.cls-7{fill:url(#linear-gradient-7);}.cls-8{fill:url(#linear-gradient-3);}.cls-9{fill:url(#linear-gradient);}.cls-10{fill:url(#linear-gradient-4);}</style>
    <style
       id="style28137">.cls-1{fill-rule:evenodd;}</style>
    <style
       type="text/css"
       id="style2"><![CDATA[
    .fil1 {fill:none}
    .fil0 {fill:#365795}
   ]]></style>
    <style
       id="style2-3"
       type="text/css"><![CDATA[
    .fil0 {fill:black}
    .fil1 {fill:#010101}
    .fil2 {fill:#FEFEFE}
   ]]></style>
    <marker
       inkscape:stockid="Arrow1Mend"
       orient="auto"
       refY="0"
       refX="0"
       id="marker4578"
       style="overflow:visible"
       inkscape:isstock="true">
      <path
         id="path4580"
         d="M 0,0 5,-5 -12.5,0 5,5 Z"
         style="fill:#ff0000;fill-opacity:1;fill-rule:evenodd;stroke:#ff0000;stroke-width:1pt;stroke-opacity:1"
         transform="matrix(-0.4,0,0,-0.4,-4,0)"
         inkscape:connector-curvature="0" />
    </marker>
    <marker
       inkscape:stockid="Arrow1Mend"
       orient="auto"
       refY="0"
       refX="0"
       id="marker4578-0"
       style="overflow:visible"
       inkscape:isstock="true">
      <path
         id="path4580-62"
         d="M 0,0 5,-5 -12.5,0 5,5 Z"
         style="fill:#ff0000;fill-opacity:1;fill-rule:evenodd;stroke:#ff0000;stroke-width:1pt;stroke-opacity:1"
         transform="matrix(-0.4,0,0,-0.4,-4,0)"
         inkscape:connector-curvature="0" />
    </marker>
    <style
       id="style6536"
       type="text/css"><![CDATA[
    .fil2 {fill:#45698B}
    .fil3 {fill:#537EA0}
    .fil1 {fill:gray}
    .fil0 {fill:#82D5F6}
   ]]></style>
    <style
       id="style28077-7">.cls-1{fill:url(#linear-gradient-2);}.cls-2{fill:#fff;}.cls-3{fill:url(#linear-gradient-6);}.cls-4{fill:#464879;}.cls-5{fill:url(#linear-gradient-5);}.cls-6{fill:#c3529e;}.cls-7{fill:url(#linear-gradient-7);}.cls-8{fill:url(#linear-gradient-3);}.cls-9{fill:url(#linear-gradient);}.cls-10{fill:url(#linear-gradient-4);}</style>
    <style
       id="style28137-5">.cls-1{fill-rule:evenodd;}</style>
    <style
       id="style2-35"
       type="text/css"><![CDATA[
    .fil1 {fill:none}
    .fil0 {fill:#365795}
   ]]></style>
    <style
       type="text/css"
       id="style2-3-6"><![CDATA[
    .fil0 {fill:black}
    .fil1 {fill:#010101}
    .fil2 {fill:#FEFEFE}
   ]]></style>
    <marker
       inkscape:isstock="true"
       style="overflow:visible"
       id="marker4578-2"
       refX="0"
       refY="0"
       orient="auto"
       inkscape:stockid="Arrow1Mend">
      <path
         inkscape:connector-curvature="0"
         transform="matrix(-0.4,0,0,-0.4,-4,0)"
         style="fill:#ff0000;fill-opacity:1;fill-rule:evenodd;stroke:#ff0000;stroke-width:1pt;stroke-opacity:1"
         d="M 0,0 5,-5 -12.5,0 5,5 Z"
         id="path4580-9" />
    </marker>
    <marker
       inkscape:isstock="true"
       style="overflow:visible"
       id="marker4578-0-6"
       refX="0"
       refY="0"
       orient="auto"
       inkscape:stockid="Arrow1Mend">
      <path
         inkscape:connector-curvature="0"
         transform="matrix(-0.4,0,0,-0.4,-4,0)"
         style="fill:#ff0000;fill-opacity:1;fill-rule:evenodd;stroke:#ff0000;stroke-width:1pt;stroke-opacity:1"
         d="M 0,0 5,-5 -12.5,0 5,5 Z"
         id="path4580-62-0" />
    </marker>
    <style
       id="style4338"
       type="text/css"><![CDATA[
    .fil1 {fill:none}
    .fil0 {fill:#768B1F;fill-rule:nonzero}
   ]]></style>
    <style
       id="style4356"
       type="text/css"><![CDATA[
    .fil1 {fill:none}
    .fil0 {fill:white;fill-rule:nonzero}
   ]]></style>
    <style
       id="style28077-75">.cls-1{fill:url(#linear-gradient-2);}.cls-2{fill:#fff;}.cls-3{fill:url(#linear-gradient-6);}.cls-4{fill:#464879;}.cls-5{fill:url(#linear-gradient-5);}.cls-6{fill:#c3529e;}.cls-7{fill:url(#linear-gradient-7);}.cls-8{fill:url(#linear-gradient-3);}.cls-9{fill:url(#linear-gradient);}.cls-10{fill:url(#linear-gradient-4);}</style>
    <style
       id="style28137-3">.cls-1{fill-rule:evenodd;}</style>
    <style
       type="text/css"
       id="style2-5"><![CDATA[
    .fil1 {fill:none}
    .fil0 {fill:#365795}
   ]]></style>
    <style
       id="style2-3-62"
       type="text/css"><![CDATA[
    .fil0 {fill:black}
    .fil1 {fill:#010101}
    .fil2 {fill:#FEFEFE}
   ]]></style>
    <marker
       inkscape:stockid="Arrow1Mend"
       orient="auto"
       refY="0"
       refX="0"
       id="marker4578-27"
       style="overflow:visible"
       inkscape:isstock="true">
      <path
         id="path4580-0"
         d="M 0,0 5,-5 -12.5,0 5,5 Z"
         style="fill:#ff0000;fill-opacity:1;fill-rule:evenodd;stroke:#ff0000;stroke-width:1pt;stroke-opacity:1"
         transform="matrix(-0.4,0,0,-0.4,-4,0)"
         inkscape:connector-curvature="0" />
    </marker>
    <marker
       inkscape:stockid="Arrow1Mend"
       orient="auto"
       refY="0"
       refX="0"
       id="marker4578-0-9"
       style="overflow:visible"
       inkscape:isstock="true">
      <path
         id="path4580-62-3"
         d="M 0,0 5,-5 -12.5,0 5,5 Z"
         style="fill:#ff0000;fill-opacity:1;fill-rule:evenodd;stroke:#ff0000;stroke-width:1pt;stroke-opacity:1"
         transform="matrix(-0.4,0,0,-0.4,-4,0)"
         inkscape:connector-curvature="0" />
    </marker>
  </defs>
  <sodipodi:namedview
     units="in"
     inkscape:window-maximized="1"
     inkscape:window-y="27"
     inkscape:window-x="0"
     inkscape:window-height="656"
     inkscape:window-width="1280"
     showgrid="false"
     inkscape:document-rotation="0"
     inkscape:current-layer="layer1"
     inkscape:document-units="mm"
     inkscape:cy="42.857143"
     inkscape:cx="1120"
     inkscape:zoom="0.175"
     inkscape:pageshadow="2"
     inkscape:pageopacity="0.0"
     borderopacity="1"
     bordercolor="#ffff00"
     pagecolor="#ffffff"
     id="base"
     borderlayer="true"
     scale-x="0.69999998"
     inkscape:pagecheckerboard="0"
     showguides="false"
     inkscape:showpageshadow="false"
     fit-margin-top="0"
     fit-margin-left="0"
     fit-margin-right="0"
     fit-margin-bottom="0" />
  <metadata
     id="metadata5">
    <rdf:RDF>
      <cc:Work
         rdf:about="">
        <dc:format>image/svg+xml</dc:format>
        <dc:type
           rdf:resource="http://purl.org/dc/dcmitype/StillImage" />
      </cc:Work>
    </rdf:RDF>
  </metadata>
  <g
     inkscape:groupmode="layer"
     id="layer2"
     inkscape:label="Layer 2"
     transform="translate(-14.201615,-75.815719)">
    <text
       xml:space="preserve"
       transform="scale(0.26458333)"
       id="text50855"
       style="font-style:normal;font-weight:normal;font-size:40px;line-height:1.25;font-family:sans-serif;white-space:pre;shape-inside:url(#rect50857);fill:#000000;fill-opacity:1;stroke:none" />
  </g>
  <g
     id="layer1"
     inkscape:groupmode="layer"
     inkscape:label="Layer 1"
     transform="translate(-14.201615,-75.815719)">
    <g
       id="rect38502">
      <path
         style="color:#000000;fill:#000000;stroke-width:0.533979;stroke-linecap:round;stroke-linejoin:round;-inkscape-stroke:none"
         d="M 2.1514926,63.65744 H 430.22477 v 56.23488 H 2.1514926 Z"
         id="path9648" />
      <path
         style="color:#000000;fill:#00ff00;stroke-linecap:round;stroke-linejoin:round;-inkscape-stroke:none"
         d="m 2.1523438,63.390625 a 0.2670162,0.2670162 0 0 0 -0.2675782,0.267578 v 56.234377 a 0.2670162,0.2670162 0 0 0 0.2675782,0.26758 H 430.22461 a 0.2670162,0.2670162 0 0 0 0.26758,-0.26758 V 63.658203 a 0.2670162,0.2670162 0 0 0 -0.26758,-0.267578 z m 0.265625,0.533203 H 429.95703 V 119.625 H 2.4179688 Z"
         id="path9650" />
    </g>
    <text
       id="text1063"
       y="87.248192"
       x="476.87009"
       style="font-size:14.1111px;line-height:1.25;font-family:sans-serif;letter-spacing:0px;word-spacing:0px;stroke-width:0.264583"
       xml:space="preserve" />
    <text
       xml:space="preserve"
       style="font-size:7.05556px;line-height:1.25;font-family:sans-serif;letter-spacing:0px;word-spacing:0px;fill:#ffffff;stroke-width:0.264583"
       x="3.4107494"
       y="85.453438"
       id="text949-8" />
    <text
       xml:space="preserve"
       style="font-size:0.517664px;line-height:1.25;font-family:sans-serif;letter-spacing:0px;word-spacing:0px;stroke-width:0.370417;stroke-miterlimit:4;stroke-dasharray:none"
       x="57.655037"
       y="289.07162"
       id="text864-7" />
    <text
       id="text866-3"
       y="289.45731"
       x="44.959167"
       style="font-size:0.517664px;line-height:1.25;font-family:sans-serif;letter-spacing:0px;word-spacing:0px;stroke-width:0.370417;stroke-miterlimit:4;stroke-dasharray:none"
       xml:space="preserve" />
    <text
       id="text870-6"
       y="288.78906"
       x="44.254913"
       style="font-size:0.517664px;line-height:1.25;font-family:sans-serif;letter-spacing:0px;word-spacing:0px;stroke-width:0.370417;stroke-miterlimit:4;stroke-dasharray:none"
       xml:space="preserve" />
    <text
       id="text874-1"
       y="296.39203"
       x="48.156528"
       style="font-size:0.517664px;line-height:1.25;font-family:sans-serif;letter-spacing:0px;word-spacing:0px;stroke-width:0.370417;stroke-miterlimit:4;stroke-dasharray:none"
       xml:space="preserve" />
    <text
       xml:space="preserve"
       transform="scale(0.26458333)"
       id="text28627"
       style="font-style:normal;font-weight:normal;font-size:40px;line-height:1.25;font-family:sans-serif;white-space:pre;shape-inside:url(#rect28629);fill:#000000;fill-opacity:1;stroke:none" />
    <text
       xml:space="preserve"
       style="font-style:normal;font-weight:normal;font-size:8.46665px;line-height:1.25;font-family:sans-serif;letter-spacing:0px;word-spacing:0px;clip-rule:evenodd;fill:#000000;fill-opacity:1;fill-rule:evenodd;stroke:none;stroke-width:0.264584;image-rendering:optimizeQuality;shape-rendering:geometricPrecision;text-rendering:geometricPrecision"
       x="278.29858"
       y="237.09424"
       id="text948" />
    <text
       xml:space="preserve"
       style="font-style:normal;font-weight:normal;font-size:4.23334px;line-height:1.25;font-family:sans-serif;letter-spacing:0px;word-spacing:0px;clip-rule:evenodd;fill:#2f5693;fill-opacity:1;fill-rule:evenodd;stroke:none;stroke-width:0.264584;image-rendering:optimizeQuality;shape-rendering:geometricPrecision;text-rendering:geometricPrecision"
       x="311.72461"
       y="261.38544"
       id="text1249" />
    <text
       id="text864"
       y="120.97472"
       x="-76.837166"
       style="font-size:3.63293px;line-height:1.25;font-family:sans-serif;letter-spacing:0px;word-spacing:0px;stroke-width:0.0681174"
       xml:space="preserve" />
    <text
       xml:space="preserve"
       style="font-size:3.63293px;line-height:1.25;font-family:sans-serif;letter-spacing:0px;word-spacing:0px;stroke-width:0.0681174"
       x="-165.93564"
       y="123.68144"
       id="text866" />
    <text
       xml:space="preserve"
       style="font-size:3.63293px;line-height:1.25;font-family:sans-serif;letter-spacing:0px;word-spacing:0px;stroke-width:0.0681174"
       x="-170.87804"
       y="118.9917"
       id="text870" />
    <text
       xml:space="preserve"
       style="font-size:3.63293px;line-height:1.25;font-family:sans-serif;letter-spacing:0px;word-spacing:0px;stroke-width:0.0681174"
       x="-143.49683"
       y="172.34868"
       id="text874" />
    <circle
       id="path4804"
       style="fill:#000000;stroke:none;stroke-width:0.13527"
       cx="376.98096"
       cy="66.364731"
       r="0" />
    <circle
       id="path4806"
       style="fill:#000000;stroke:none;stroke-width:0.13527"
       cx="376.31165"
       cy="88.789803"
       r="0" />
    <circle
       id="path4808"
       style="fill:#000000;stroke:none;stroke-width:0.13527"
       cx="376.31165"
       cy="88.789803"
       r="0" />
    <circle
       id="path4868"
       style="fill:#000000;stroke:none;stroke-width:0.13527"
       cx="376.98096"
       cy="66.364731"
       r="0" />
    <circle
       id="path4964"
       style="fill:#000000;stroke:none;stroke-width:0.13527"
       cx="376.98096"
       cy="88.65818"
       r="0" />
    <circle
       id="path5024"
       style="fill:#000000;stroke:none;stroke-width:0.13527"
       cx="376.98096"
       cy="88.65818"
       r="0" />
    <circle
       id="path5998"
       style="fill:#000000;stroke:none;stroke-width:0.13527"
       cx="361.38928"
       cy="88.65818"
       r="0" />
    <circle
       id="path6721"
       style="fill:#000000;stroke:none;stroke-width:0.13527"
       cx="371.08725"
       cy="98.928246"
       r="0" />
    <circle
       id="path5255"
       style="fill:#000000;stroke:none;stroke-width:0.13527"
       cx="276.24005"
       cy="272.98447"
       r="0" />
    <circle
       id="path5504"
       style="fill:#000000;stroke:none;stroke-width:0.13527"
       cx="438.86206"
       cy="273.04623"
       r="0" />
    <circle
       id="path6498"
       style="fill:#000000;stroke:none;stroke-width:0.13527"
       cx="438.86206"
       cy="252.16898"
       r="0" />
    <circle
       id="path6661"
       style="fill:#000000;stroke:none;stroke-width:0.13527;marker-end:url(#marker4578)"
       cx="428.88428"
       cy="252.16898"
       r="0" />
    <g
       id="rect5179-5"
       transform="matrix(0.51125791,0,0,0.51125791,427.962,80.365384)" />
    <g
       id="path6393"
       transform="matrix(0.51125791,0,0,0.51125791,464.75754,83.276018)" />
    <circle
       id="path4804-6"
       style="fill:#000000;stroke:none;stroke-width:0.13527"
       cx="968.5047"
       cy="45.756725"
       r="0" />
    <circle
       id="path4806-2"
       style="fill:#000000;stroke:none;stroke-width:0.13527"
       cx="967.83545"
       cy="68.181793"
       r="0" />
    <circle
       id="path4808-7"
       style="fill:#000000;stroke:none;stroke-width:0.13527"
       cx="967.83545"
       cy="68.181793"
       r="0" />
    <circle
       id="path4868-1"
       style="fill:#000000;stroke:none;stroke-width:0.13527"
       cx="968.5047"
       cy="45.756725"
       r="0" />
    <circle
       id="path4964-5"
       style="fill:#000000;stroke:none;stroke-width:0.13527"
       cx="968.5047"
       cy="68.050171"
       r="0" />
    <circle
       id="path5024-8"
       style="fill:#000000;stroke:none;stroke-width:0.13527"
       cx="968.5047"
       cy="68.050171"
       r="0" />
    <circle
       id="path5998-8"
       style="fill:#000000;stroke:none;stroke-width:0.13527"
       cx="952.91302"
       cy="68.050171"
       r="0" />
    <circle
       id="path6721-3"
       style="fill:#000000;stroke:none;stroke-width:0.13527"
       cx="962.61102"
       cy="78.320236"
       r="0" />
    <circle
       id="path5255-9"
       style="fill:#000000;stroke:none;stroke-width:0.13527"
       cx="867.76379"
       cy="252.37646"
       r="0" />
    <circle
       id="path5504-5"
       style="fill:#000000;stroke:none;stroke-width:0.13527"
       cx="1030.3859"
       cy="252.43823"
       r="0" />
    <circle
       id="path6498-7"
       style="fill:#000000;stroke:none;stroke-width:0.13527"
       cx="1030.3859"
       cy="231.56097"
       r="0" />
    <circle
       id="path6661-4"
       style="fill:#000000;stroke:none;stroke-width:0.13527;marker-end:url(#marker4578-0)"
       cx="1020.4081"
       cy="231.56097"
       r="0" />
    <text
       xml:space="preserve"
       style="font-style:normal;font-weight:normal;font-size:2.16432px;line-height:1.25;font-family:sans-serif;letter-spacing:0px;word-spacing:0px;fill:#000000;fill-opacity:1;stroke:none;stroke-width:0.13527"
       x="167.24234"
       y="491.33142"
       id="text10134" />
    <circle
       id="path6632"
       style="fill:#ffffff;stroke:none;stroke-width:0.264583"
       cx="220.56509"
       cy="233.06152"
       r="0" />
    <text
       style="font-style:normal;font-weight:normal;font-size:10.5833px;line-height:1.25;font-family:sans-serif;white-space:pre;shape-inside:url(#rect50857);fill:#000000;fill-opacity:1;stroke:none;stroke-width:0.264583"
       id="text50855-8"
       xml:space="preserve"
       x="-238.21484"
       y="-251.33829" />
    <text
       xml:space="preserve"
       style="font-size:14.1111px;line-height:1.25;font-family:sans-serif;letter-spacing:0px;word-spacing:0px;stroke-width:0.264583"
       x="228.23172"
       y="-53.975037"
       id="text1063-9" />
    <text
       id="text949-8-2"
       y="-55.769791"
       x="-245.22762"
       style="font-size:7.05556px;line-height:1.25;font-family:sans-serif;letter-spacing:0px;word-spacing:0px;fill:#ffffff;stroke-width:0.264583"
       xml:space="preserve" />
    <text
       id="text864-7-0"
       y="147.84839"
       x="-190.98332"
       style="font-size:0.517664px;line-height:1.25;font-family:sans-serif;letter-spacing:0px;word-spacing:0px;stroke-width:0.370417;stroke-miterlimit:4;stroke-dasharray:none"
       xml:space="preserve" />
    <text
       xml:space="preserve"
       style="font-size:0.517664px;line-height:1.25;font-family:sans-serif;letter-spacing:0px;word-spacing:0px;stroke-width:0.370417;stroke-miterlimit:4;stroke-dasharray:none"
       x="-203.6792"
       y="148.23407"
       id="text866-3-2" />
    <text
       xml:space="preserve"
       style="font-size:0.517664px;line-height:1.25;font-family:sans-serif;letter-spacing:0px;word-spacing:0px;stroke-width:0.370417;stroke-miterlimit:4;stroke-dasharray:none"
       x="-204.38345"
       y="147.56583"
       id="text870-6-3" />
    <text
       xml:space="preserve"
       style="font-size:0.517664px;line-height:1.25;font-family:sans-serif;letter-spacing:0px;word-spacing:0px;stroke-width:0.370417;stroke-miterlimit:4;stroke-dasharray:none"
       x="-200.48183"
       y="155.16879"
       id="text874-1-7" />
    <text
       style="font-style:normal;font-weight:normal;font-size:10.5833px;line-height:1.25;font-family:sans-serif;white-space:pre;shape-inside:url(#rect28629);fill:#000000;fill-opacity:1;stroke:none;stroke-width:0.264583"
       id="text28627-5"
       xml:space="preserve"
       x="-248.63837"
       y="-141.22324" />
    <text
       id="text948-9"
       y="95.87101"
       x="29.660225"
       style="font-style:normal;font-weight:normal;font-size:8.46665px;line-height:1.25;font-family:sans-serif;letter-spacing:0px;word-spacing:0px;clip-rule:evenodd;fill:#000000;fill-opacity:1;fill-rule:evenodd;stroke:none;stroke-width:0.264584;image-rendering:optimizeQuality;shape-rendering:geometricPrecision;text-rendering:geometricPrecision"
       xml:space="preserve" />
    <text
       id="text1249-7"
       y="120.16221"
       x="63.08625"
       style="font-style:normal;font-weight:normal;font-size:4.23334px;line-height:1.25;font-family:sans-serif;letter-spacing:0px;word-spacing:0px;clip-rule:evenodd;fill:#2f5693;fill-opacity:1;fill-rule:evenodd;stroke:none;stroke-width:0.264584;image-rendering:optimizeQuality;shape-rendering:geometricPrecision;text-rendering:geometricPrecision"
       xml:space="preserve" />
    <text
       xml:space="preserve"
       style="font-size:3.63293px;line-height:1.25;font-family:sans-serif;letter-spacing:0px;word-spacing:0px;stroke-width:0.0681174"
       x="-325.47552"
       y="-20.248514"
       id="text864-3" />
    <text
       id="text866-6"
       y="-17.541788"
       x="-414.57401"
       style="font-size:3.63293px;line-height:1.25;font-family:sans-serif;letter-spacing:0px;word-spacing:0px;stroke-width:0.0681174"
       xml:space="preserve" />
    <text
       id="text870-1"
       y="-22.231531"
       x="-419.51639"
       style="font-size:3.63293px;line-height:1.25;font-family:sans-serif;letter-spacing:0px;word-spacing:0px;stroke-width:0.0681174"
       xml:space="preserve" />
    <text
       id="text874-2"
       y="31.125448"
       x="-392.13519"
       style="font-size:3.63293px;line-height:1.25;font-family:sans-serif;letter-spacing:0px;word-spacing:0px;stroke-width:0.0681174"
       xml:space="preserve" />
    <circle
       r="0"
       cy="-74.858498"
       cx="128.34259"
       style="fill:#000000;stroke:none;stroke-width:0.13527"
       id="path4804-9" />
    <circle
       r="0"
       cy="-52.433426"
       cx="127.67329"
       style="fill:#000000;stroke:none;stroke-width:0.13527"
       id="path4806-3" />
    <circle
       r="0"
       cy="-52.433426"
       cx="127.67329"
       style="fill:#000000;stroke:none;stroke-width:0.13527"
       id="path4808-1" />
    <circle
       r="0"
       cy="-74.858498"
       cx="128.34259"
       style="fill:#000000;stroke:none;stroke-width:0.13527"
       id="path4868-9" />
    <circle
       r="0"
       cy="-52.565048"
       cx="128.34259"
       style="fill:#000000;stroke:none;stroke-width:0.13527"
       id="path4964-4" />
    <circle
       r="0"
       cy="-52.565048"
       cx="128.34259"
       style="fill:#000000;stroke:none;stroke-width:0.13527"
       id="path5024-7" />
    <circle
       r="0"
       cy="-52.565048"
       cx="112.75092"
       style="fill:#000000;stroke:none;stroke-width:0.13527"
       id="path5998-84" />
    <circle
       r="0"
       cy="-42.294983"
       cx="122.44889"
       style="fill:#000000;stroke:none;stroke-width:0.13527"
       id="path6721-5" />
    <circle
       r="0"
       cy="131.76123"
       cx="27.601692"
       style="fill:#000000;stroke:none;stroke-width:0.13527"
       id="path5255-0" />
    <circle
       r="0"
       cy="131.823"
       cx="190.22369"
       style="fill:#000000;stroke:none;stroke-width:0.13527"
       id="path5504-3" />
    <circle
       r="0"
       cy="110.94575"
       cx="190.22369"
       style="fill:#000000;stroke:none;stroke-width:0.13527"
       id="path6498-6" />
    <circle
       r="0"
       cy="110.94575"
       cx="180.24591"
       style="fill:#000000;stroke:none;stroke-width:0.13527;marker-end:url(#marker4578-2)"
       id="path6661-1" />
    <g
       transform="matrix(0.51125791,0,0,0.51125791,179.32364,-60.857846)"
       id="rect5179-5-0" />
    <g
       transform="matrix(0.51125791,0,0,0.51125791,216.11918,-57.947212)"
       id="path6393-6" />
    <circle
       r="0"
       cy="-95.466507"
       cx="719.86633"
       style="fill:#000000;stroke:none;stroke-width:0.13527"
       id="path4804-6-1" />
    <circle
       r="0"
       cy="-73.041435"
       cx="719.19708"
       style="fill:#000000;stroke:none;stroke-width:0.13527"
       id="path4806-2-5" />
    <circle
       r="0"
       cy="-73.041435"
       cx="719.19708"
       style="fill:#000000;stroke:none;stroke-width:0.13527"
       id="path4808-7-5" />
    <circle
       r="0"
       cy="-95.466507"
       cx="719.86633"
       style="fill:#000000;stroke:none;stroke-width:0.13527"
       id="path4868-1-4" />
    <circle
       r="0"
       cy="-73.173058"
       cx="719.86633"
       style="fill:#000000;stroke:none;stroke-width:0.13527"
       id="path4964-5-7" />
    <circle
       r="0"
       cy="-73.173058"
       cx="719.86633"
       style="fill:#000000;stroke:none;stroke-width:0.13527"
       id="path5024-8-6" />
    <circle
       r="0"
       cy="-73.173058"
       cx="704.27466"
       style="fill:#000000;stroke:none;stroke-width:0.13527"
       id="path5998-8-5" />
    <circle
       r="0"
       cy="-62.902992"
       cx="713.97266"
       style="fill:#000000;stroke:none;stroke-width:0.13527"
       id="path6721-3-6" />
    <circle
       r="0"
       cy="111.15324"
       cx="619.12543"
       style="fill:#000000;stroke:none;stroke-width:0.13527"
       id="path5255-9-9" />
    <circle
       r="0"
       cy="111.215"
       cx="781.7475"
       style="fill:#000000;stroke:none;stroke-width:0.13527"
       id="path5504-5-3" />
    <circle
       r="0"
       cy="90.337746"
       cx="781.7475"
       style="fill:#000000;stroke:none;stroke-width:0.13527"
       id="path6498-7-7" />
    <circle
       r="0"
       cy="90.337746"
       cx="771.76971"
       style="fill:#000000;stroke:none;stroke-width:0.13527;marker-end:url(#marker4578-0-6)"
       id="path6661-4-4" />
    <text
       id="text10134-5"
       y="350.10818"
       x="-81.396019"
       style="font-style:normal;font-weight:normal;font-size:2.16432px;line-height:1.25;font-family:sans-serif;letter-spacing:0px;word-spacing:0px;fill:#000000;fill-opacity:1;stroke:none;stroke-width:0.13527"
       xml:space="preserve" />
    <circle
       r="0"
       cy="91.838295"
       cx="-28.073265"
       style="fill:#ffffff;stroke:none;stroke-width:0.264583"
       id="path6632-2" />
    <text
       xml:space="preserve"
       style="font-size:1.52129px;line-height:1.25;font-family:sans-serif;letter-spacing:0px;word-spacing:0px;fill:#ffffff;stroke-width:0.19016"
       x="-134.78909"
       y="203.90459"
       id="text860-3"
       transform="rotate(-90)" />
    <g
       id="g38290"
       transform="translate(0.64084544,59.556454)">
      <g
         id="g38260">
        <g
           aria-label="Sustainable"
           id="text13958-6-1-6"
           style="font-size:18.6453px;letter-spacing:0px;word-spacing:0px;fill:#1852ff;stroke-width:0.484691">
          <path
             d="m 42.885079,24.129363 v 2.876911 q -1.11981,-0.500728 -2.184996,-0.755644 -1.065185,-0.254916 -2.012017,-0.254916 -1.256373,0 -1.857247,0.345958 -0.600874,0.345957 -0.600874,1.074289 0,0.546249 0.400583,0.85579 0.409687,0.300437 1.474872,0.518937 l 1.493081,0.300437 q 2.266933,0.455207 3.222869,1.383831 0.955936,0.928623 0.955936,2.640203 0,2.248726 -1.33831,3.350328 -1.329206,1.092498 -4.069555,1.092498 -1.29279,0 -2.594683,-0.245812 -1.301894,-0.245812 -2.603787,-0.728332 v -2.958849 q 1.301893,0.691915 2.512745,1.046977 1.219957,0.345958 2.348871,0.345958 1.147123,0 1.757101,-0.382375 0.609978,-0.382374 0.609978,-1.092498 0,-0.63729 -0.418791,-0.983248 -0.409686,-0.345958 -1.647851,-0.619082 l -1.356518,-0.300437 q -2.03933,-0.436999 -2.986162,-1.392935 -0.937727,-0.955936 -0.937727,-2.576475 0,-2.030225 1.310998,-3.122723 1.310997,-1.092498 3.769118,-1.092498 1.11981,0 2.30335,0.172979 1.183539,0.163874 2.449016,0.500728 z"
             style="-inkscape-font-specification:'sans-serif Bold'"
             id="path9569" />
          <path
             d="m 46.599572,33.324555 v -6.227239 h 3.277494 v 1.019665 q 0,0.828478 -0.0091,2.08485 -0.0091,1.247269 -0.0091,1.66606 0,1.22906 0.06373,1.775309 0.06373,0.537145 0.2185,0.782957 0.200291,0.318645 0.518936,0.491624 0.32775,0.172979 0.746541,0.172979 1.019664,0 1.60233,-0.782957 0.582666,-0.782957 0.582666,-2.175892 v -5.034595 h 3.259285 V 37.293964 H 53.59156 v -1.474872 q -0.737437,0.892207 -1.565914,1.320102 -0.819374,0.418791 -1.811726,0.418791 -1.766205,0 -2.694829,-1.083394 -0.919519,-1.083394 -0.919519,-3.150036 z"
             style="-inkscape-font-specification:'sans-serif Bold'"
             id="path9571" />
          <path
             d="m 67.948805,27.415961 v 2.476329 q -1.046977,-0.436999 -2.021121,-0.655499 -0.974145,-0.218499 -1.839039,-0.218499 -0.928623,0 -1.383831,0.236708 -0.446103,0.227603 -0.446103,0.710123 0,0.391479 0.336854,0.600874 0.345957,0.209396 1.22906,0.309541 l 0.573561,0.08194 q 2.503642,0.318645 3.368536,1.046977 0.864894,0.728332 0.864894,2.285142 0,1.629643 -1.201748,2.449016 -1.201748,0.819374 -3.587035,0.819374 -1.010561,0 -2.093954,-0.163875 -1.07429,-0.154771 -2.212309,-0.473416 v -2.476329 q 0.974144,0.473416 1.993809,0.710124 1.028769,0.236708 2.08485,0.236708 0.955936,0 1.438456,-0.26402 0.48252,-0.264021 0.48252,-0.782957 0,-0.437 -0.336854,-0.646395 -0.327749,-0.2185 -1.320101,-0.336854 l -0.573562,-0.07283 q -2.175892,-0.273124 -3.04989,-1.01056 -0.873999,-0.737437 -0.873999,-2.239621 0,-1.620539 1.110707,-2.403496 1.110706,-0.782957 3.404952,-0.782957 0.901311,0 1.893663,0.136562 0.992353,0.136562 2.157684,0.427895 z"
             style="-inkscape-font-specification:'sans-serif Bold'"
             id="path9573" />
          <path
             d="m 74.640354,24.202196 v 2.89512 h 3.359431 v 2.330662 h -3.359431 v 4.324472 q 0,0.710124 0.282228,0.96504 0.282229,0.245812 1.119811,0.245812 h 1.675164 v 2.330662 h -2.794975 q -1.930079,0 -2.740349,-0.801165 -0.801165,-0.810269 -0.801165,-2.740349 v -4.324472 h -1.620539 v -2.330662 h 1.620539 v -2.89512 z"
             style="-inkscape-font-specification:'sans-serif Bold'"
             id="path9575" />
          <path
             d="m 84.563878,32.705473 q -1.019665,0 -1.538601,0.345957 -0.509833,0.345958 -0.509833,1.019665 0,0.619082 0.409687,0.974144 0.418791,0.345958 1.156227,0.345958 0.91952,0 1.547706,-0.655499 0.628186,-0.664603 0.628186,-1.656955 v -0.37327 z m 4.979971,-1.229061 v 5.817552 H 86.25725 v -1.511289 q -0.655499,0.928624 -1.474872,1.356519 -0.819374,0.418791 -1.993809,0.418791 -1.584122,0 -2.576475,-0.919519 -0.983248,-0.928624 -0.983248,-2.403496 0,-1.793518 1.22906,-2.6311 1.238165,-0.837581 3.878369,-0.837581 h 1.920975 v -0.254917 q 0,-0.773852 -0.609978,-1.128914 -0.609978,-0.364166 -1.902767,-0.364166 -1.046978,0 -1.948288,0.209395 -0.901311,0.209396 -1.675164,0.628187 v -2.485433 q 1.046977,-0.254917 2.103059,-0.382375 1.056081,-0.136562 2.112163,-0.136562 2.758557,0 3.978513,1.092498 1.229061,1.083394 1.229061,3.53241 z"
             style="-inkscape-font-specification:'sans-serif Bold'"
             id="path9577" />
          <path
             d="m 92.575531,27.097316 h 3.259286 v 10.196648 h -3.259286 z m 0,-3.96941 h 3.259286 v 2.658412 h -3.259286 z"
             style="-inkscape-font-specification:'sans-serif Bold'"
             id="path9579" />
          <path
             d="m 109.21792,31.084934 v 6.20903 h -3.27749 v -1.01056 -3.741806 q 0,-1.320102 -0.0637,-1.82083 -0.0546,-0.500728 -0.20029,-0.737436 -0.19119,-0.318646 -0.51894,-0.491624 -0.32775,-0.182083 -0.74654,-0.182083 -1.01967,0 -1.60233,0.792061 -0.58267,0.782957 -0.58267,2.175892 v 5.016386 H 98.966648 V 27.097316 h 3.259282 v 1.493081 q 0.73744,-0.892207 1.56592,-1.310998 0.82848,-0.427895 1.82993,-0.427895 1.76621,0 2.67662,1.083394 0.91952,1.083394 0.91952,3.150036 z"
             style="-inkscape-font-specification:'sans-serif Bold'"
             id="path9581" />
          <path
             d="m 116.81078,32.705473 q -1.01966,0 -1.5386,0.345957 -0.50983,0.345958 -0.50983,1.019665 0,0.619082 0.40968,0.974144 0.41879,0.345958 1.15623,0.345958 0.91952,0 1.54771,-0.655499 0.62818,-0.664603 0.62818,-1.656955 v -0.37327 z m 4.97997,-1.229061 v 5.817552 h -3.2866 v -1.511289 q -0.6555,0.928624 -1.47487,1.356519 -0.81937,0.418791 -1.99381,0.418791 -1.58412,0 -2.57647,-0.919519 -0.98325,-0.928624 -0.98325,-2.403496 0,-1.793518 1.22906,-2.6311 1.23816,-0.837581 3.87837,-0.837581 h 1.92097 v -0.254917 q 0,-0.773852 -0.60998,-1.128914 -0.60997,-0.364166 -1.90276,-0.364166 -1.04698,0 -1.94829,0.209395 -0.90131,0.209396 -1.67516,0.628187 v -2.485433 q 1.04697,-0.254917 2.10305,-0.382375 1.05609,-0.136562 2.11217,-0.136562 2.75855,0 3.97851,1.092498 1.22906,1.083394 1.22906,3.53241 z"
             style="-inkscape-font-specification:'sans-serif Bold'"
             id="path9583" />
          <path
             d="m 130.2485,35.190906 q 1.04698,0 1.59323,-0.764749 0.55535,-0.764749 0.55535,-2.221413 0,-1.456664 -0.55535,-2.221412 -0.54625,-0.764749 -1.59323,-0.764749 -1.04697,0 -1.61143,0.773853 -0.55535,0.764748 -0.55535,2.212308 0,1.44756 0.55535,2.221413 0.56446,0.764749 1.61143,0.764749 z m -2.16678,-6.600509 q 0.6737,-0.892207 1.49308,-1.310998 0.81937,-0.427895 1.88455,-0.427895 1.88456,0 3.09542,1.502185 1.21085,1.49308 1.21085,3.851055 0,2.357975 -1.21085,3.86016 -1.21086,1.493081 -3.09542,1.493081 -1.06518,0 -1.88455,-0.418791 -0.81938,-0.427895 -1.49308,-1.320102 v 1.474872 h -3.25929 V 23.127906 h 3.25929 z"
             style="-inkscape-font-specification:'sans-serif Bold'"
             id="path9585" />
          <path
             d="m 138.16912,23.127906 h 3.25928 v 14.166058 h -3.25928 z"
             style="-inkscape-font-specification:'sans-serif Bold'"
             id="path9587" />
          <path
             d="m 154.73867,32.168328 v 0.928623 h -7.62017 q 0.11835,1.147123 0.82847,1.720684 0.71013,0.573562 1.98471,0.573562 1.02877,0 2.10306,-0.300437 1.08339,-0.309541 2.22141,-0.928623 v 2.512745 q -1.15623,0.436999 -2.31245,0.655499 -1.15623,0.227604 -2.31246,0.227604 -2.76766,0 -4.30626,-1.402039 -1.5295,-1.411144 -1.5295,-3.951202 0,-2.494537 1.50219,-3.923888 1.51129,-1.429352 4.15149,-1.429352 2.40349,0 3.84195,1.44756 1.44756,1.44756 1.44756,3.869264 z m -3.35033,-1.083394 q 0,-0.928623 -0.54625,-1.493081 -0.53714,-0.573561 -1.41114,-0.573561 -0.94683,0 -1.5386,0.537145 -0.59177,0.52804 -0.73744,1.529497 z"
             style="-inkscape-font-specification:'sans-serif Bold'"
             id="path9589" />
        </g>
        <g
           aria-label="Technology"
           id="text15612-5-7-5"
           style="font-size:18.6453px;letter-spacing:0px;word-spacing:0px;fill:#00cb00;stroke-width:0.484691">
          <path
             d="m 176.68174,23.202872 h 12.52731 v 2.649307 h -4.50655 v 10.943189 h -3.5051 V 25.852179 h -4.51566 z"
             style="-inkscape-font-specification:'sans-serif Bold'"
             id="path9592" />
          <path
             d="m 198.57722,31.669732 v 0.928623 h -7.62017 q 0.11835,1.147123 0.82848,1.720684 0.71012,0.573562 1.9847,0.573562 1.02877,0 2.10306,-0.300437 1.08339,-0.309541 2.22141,-0.928624 v 2.512746 q -1.15623,0.436999 -2.31245,0.655499 -1.15623,0.227604 -2.31246,0.227604 -2.76766,0 -4.30626,-1.40204 -1.5295,-1.411143 -1.5295,-3.951201 0,-2.494537 1.50219,-3.923889 1.51129,-1.429351 4.15149,-1.429351 2.4035,0 3.84195,1.44756 1.44756,1.44756 1.44756,3.869264 z m -3.35033,-1.083394 q 0,-0.928624 -0.54624,-1.493081 -0.53715,-0.573561 -1.41115,-0.573561 -0.94683,0 -1.5386,0.537144 -0.59177,0.528041 -0.73744,1.529498 z"
             style="-inkscape-font-specification:'sans-serif Bold'"
             id="path9594" />
          <path
             d="m 209.2837,26.917365 v 2.658412 q -0.6646,-0.455208 -1.33831,-0.673707 -0.6646,-0.2185 -1.38383,-0.2185 -1.36562,0 -2.13037,0.801165 -0.75564,0.792062 -0.75564,2.221413 0,1.429352 0.75564,2.230517 0.76475,0.792061 2.13037,0.792061 0.76475,0 1.44756,-0.227604 0.69192,-0.227603 1.27458,-0.673707 v 2.667516 q -0.76475,0.282229 -1.55681,0.418791 -0.78295,0.145667 -1.57502,0.145667 -2.75855,0 -4.31536,-1.411144 -1.55681,-1.420247 -1.55681,-3.942097 0,-2.521849 1.55681,-3.932993 1.55681,-1.420247 4.31536,-1.420247 0.80117,0 1.57502,0.145666 0.78296,0.136562 1.55681,0.418791 z"
             style="-inkscape-font-specification:'sans-serif Bold'"
             id="path9596" />
          <path
             d="m 222.34816,30.586338 v 6.20903 h -3.2775 v -1.01056 -3.723598 q 0,-1.33831 -0.0637,-1.839038 -0.0546,-0.500729 -0.2003,-0.737437 -0.19118,-0.318645 -0.51893,-0.491624 -0.32775,-0.182083 -0.74654,-0.182083 -1.01967,0 -1.60233,0.792061 -0.58267,0.782957 -0.58267,2.175892 v 5.016387 h -3.25928 V 22.62931 h 3.25928 v 5.46249 q 0.73744,-0.892206 1.56592,-1.310997 0.82847,-0.427895 1.82993,-0.427895 1.7662,0 2.67662,1.083394 0.91952,1.083394 0.91952,3.150036 z"
             style="-inkscape-font-specification:'sans-serif Bold'"
             id="path9598" />
          <path
             d="m 235.62201,30.586338 v 6.20903 h -3.27749 v -1.01056 -3.741806 q 0,-1.320102 -0.0637,-1.82083 -0.0546,-0.500729 -0.20029,-0.737437 -0.19119,-0.318645 -0.51894,-0.491624 -0.32775,-0.182083 -0.74654,-0.182083 -1.01966,0 -1.60233,0.792061 -0.58267,0.782957 -0.58267,2.175892 v 5.016387 h -3.25928 V 26.59872 h 3.25928 v 1.49308 q 0.73744,-0.892206 1.56592,-1.310997 0.82848,-0.427895 1.82993,-0.427895 1.76621,0 2.67662,1.083394 0.91952,1.083394 0.91952,3.150036 z"
             style="-inkscape-font-specification:'sans-serif Bold'"
             id="path9600" />
          <path
             d="m 243.4971,28.68357 q -1.08339,0 -1.65696,0.782957 -0.56445,0.773853 -0.56445,2.239621 0,1.465768 0.56445,2.248725 0.57357,0.773853 1.65696,0.773853 1.06519,0 1.62964,-0.773853 0.56446,-0.782957 0.56446,-2.248725 0,-1.465768 -0.56446,-2.239621 -0.56445,-0.782957 -1.62964,-0.782957 z m 0,-2.330662 q 2.6311,0 4.10597,1.420247 1.48398,1.420248 1.48398,3.932993 0,2.512746 -1.48398,3.932993 -1.47487,1.420248 -4.10597,1.420248 -2.6402,0 -4.13328,-1.420248 -1.48398,-1.420247 -1.48398,-3.932993 0,-2.512745 1.48398,-3.932993 1.49308,-1.420247 4.13328,-1.420247 z"
             style="-inkscape-font-specification:'sans-serif Bold'"
             id="path9602" />
          <path
             d="m 251.45413,22.62931 h 3.25928 v 14.166058 h -3.25928 z"
             style="-inkscape-font-specification:'sans-serif Bold'"
             id="path9604" />
          <path
             d="m 262.69775,28.68357 q -1.08339,0 -1.65695,0.782957 -0.56446,0.773853 -0.56446,2.239621 0,1.465768 0.56446,2.248725 0.57356,0.773853 1.65695,0.773853 1.06519,0 1.62965,-0.773853 0.56445,-0.782957 0.56445,-2.248725 0,-1.465768 -0.56445,-2.239621 -0.56446,-0.782957 -1.62965,-0.782957 z m 0,-2.330662 q 2.6311,0 4.10598,1.420247 1.48397,1.420248 1.48397,3.932993 0,2.512746 -1.48397,3.932993 -1.47488,1.420248 -4.10598,1.420248 -2.6402,0 -4.13328,-1.420248 -1.48398,-1.420247 -1.48398,-3.932993 0,-2.512745 1.48398,-3.932993 1.49308,-1.420247 4.13328,-1.420247 z"
             style="-inkscape-font-specification:'sans-serif Bold'"
             id="path9606" />
          <path
             d="m 277.59214,35.06558 q -0.6737,0.892206 -1.48397,1.310997 -0.81027,0.418791 -1.87546,0.418791 -1.86635,0 -3.0863,-1.465768 -1.21996,-1.474872 -1.21996,-3.75091 0,-2.285142 1.21996,-3.741806 1.21995,-1.465768 3.0863,-1.465768 1.06519,0 1.87546,0.418791 0.81027,0.418791 1.48397,1.320102 V 26.59872 h 3.2775 v 9.167879 q 0,2.458121 -1.55681,3.75091 -1.54771,1.301894 -4.49745,1.301894 -0.95594,0 -1.84814,-0.145667 -0.89221,-0.145666 -1.79352,-0.446103 v -2.540058 q 0.85579,0.491624 1.67516,0.728332 0.81937,0.245812 1.64785,0.245812 1.60233,0 2.34887,-0.70102 0.74654,-0.701019 0.74654,-2.1941 z m -2.14858,-6.345593 q -1.01056,0 -1.57501,0.74654 -0.56446,0.74654 -0.56446,2.112163 0,1.402039 0.54625,2.130371 0.54625,0.719228 1.59322,0.719228 1.01967,0 1.58413,-0.74654 0.56445,-0.746541 0.56445,-2.103059 0,-1.365623 -0.56445,-2.112163 -0.56446,-0.74654 -1.58413,-0.74654 z"
             style="-inkscape-font-specification:'sans-serif Bold'"
             id="path9608" />
          <path
             d="m 282.66316,26.59872 h 3.25928 l 2.74035,6.919154 2.33067,-6.919154 h 3.25928 l -4.28805,11.161688 q -0.6464,1.702476 -1.51129,2.376183 -0.85579,0.682812 -2.26694,0.682812 h -1.88455 v -2.139476 h 1.01966 q 0.82848,0 1.20175,-0.26402 0.38237,-0.26402 0.59177,-0.946832 l 0.091,-0.282228 z"
             style="-inkscape-font-specification:'sans-serif Bold'"
             id="path9610" />
        </g>
        <g
           aria-label="Society"
           transform="scale(1.0217277,0.97873435)"
           id="text17508-5-9-5"
           style="font-size:19.0504px;letter-spacing:0px;word-spacing:0px;fill:#f60000;stroke-width:0.495222">
          <path
             d="m 321.3444,24.144263 v 2.939417 q -1.14414,-0.511608 -2.23246,-0.772062 -1.08833,-0.260455 -2.05574,-0.260455 -1.28367,0 -1.89759,0.353474 -0.61393,0.353475 -0.61393,1.097631 0,0.558117 0.40928,0.874383 0.41859,0.306965 1.50692,0.530212 l 1.52552,0.306964 q 2.31619,0.465098 3.29289,1.413897 0.97671,0.948799 0.97671,2.697566 0,2.297583 -1.36739,3.423119 -1.35809,1.116234 -4.15797,1.116234 -1.32088,0 -2.65106,-0.251152 -1.33018,-0.251153 -2.66036,-0.744157 V 33.8462 q 1.33018,0.706948 2.56734,1.069724 1.24646,0.353475 2.3999,0.353475 1.17205,0 1.79528,-0.390683 0.62323,-0.390682 0.62323,-1.116234 0,-0.651137 -0.42789,-1.004611 -0.41859,-0.353474 -1.68365,-0.632533 l -1.38599,-0.306964 q -2.08364,-0.446494 -3.05104,-1.423199 -0.9581,-0.976705 -0.9581,-2.632453 0,-2.074335 1.33948,-3.190569 1.33948,-1.116235 3.85101,-1.116235 1.14414,0 2.35339,0.176737 1.20925,0.167435 2.50222,0.511608 z"
             style="-inkscape-font-specification:'sans-serif Bold'"
             id="path9613" />
          <path
             d="m 330.20917,29.306847 q -1.10694,0 -1.69296,0.799968 -0.57672,0.790666 -0.57672,2.28828 0,1.497614 0.57672,2.297582 0.58602,0.790666 1.69296,0.790666 1.08832,0 1.66505,-0.790666 0.57672,-0.799968 0.57672,-2.297582 0,-1.497614 -0.57672,-2.28828 -0.57673,-0.799968 -1.66505,-0.799968 z m 0,-2.3813 q 2.68826,0 4.19518,1.451104 1.51622,1.451105 1.51622,4.018444 0,2.567339 -1.51622,4.018444 -1.50692,1.451104 -4.19518,1.451104 -2.69757,0 -4.22309,-1.451104 -1.51622,-1.451105 -1.51622,-4.018444 0,-2.567339 1.51622,-4.018444 1.52552,-1.451104 4.22309,-1.451104 z"
             style="-inkscape-font-specification:'sans-serif Bold'"
             id="path9615" />
          <path
             d="m 346.75734,27.502268 v 2.71617 q -0.67904,-0.465098 -1.36739,-0.688344 -0.67904,-0.223247 -1.41389,-0.223247 -1.3953,0 -2.17666,0.818572 -0.77206,0.809269 -0.77206,2.269676 0,1.460407 0.77206,2.278979 0.78136,0.809269 2.17666,0.809269 0.78136,0 1.47901,-0.232548 0.70694,-0.232549 1.30227,-0.688345 v 2.725472 q -0.78136,0.288361 -1.59063,0.42789 -0.79997,0.148831 -1.60924,0.148831 -2.81849,0 -4.40913,-1.441802 -1.59063,-1.451105 -1.59063,-4.027746 0,-2.576641 1.59063,-4.018444 1.59064,-1.451104 4.40913,-1.451104 0.81857,0 1.60924,0.148831 0.79996,0.139529 1.59063,0.42789 z"
             style="-inkscape-font-specification:'sans-serif Bold'"
             id="path9617" />
          <path
             d="m 349.63164,27.176699 h 3.3301 v 10.418188 h -3.3301 z m 0,-4.055651 h 3.3301 v 2.71617 h -3.3301 z"
             style="-inkscape-font-specification:'sans-serif Bold'"
             id="path9619" />
          <path
             d="m 366.5612,32.357887 v 0.948799 h -7.78574 q 0.12093,1.172047 0.84648,1.75807 0.72555,0.586023 2.02783,0.586023 1.05112,0 2.14875,-0.306965 1.10693,-0.316266 2.26968,-0.948799 v 2.567339 q -1.18135,0.446494 -2.3627,0.669741 -1.18135,0.232548 -2.3627,0.232548 -2.82779,0 -4.39982,-1.4325 -1.56273,-1.441803 -1.56273,-4.037048 0,-2.548735 1.53482,-4.009142 1.54413,-1.460406 4.24169,-1.460406 2.45572,0 3.92543,1.47901 1.47901,1.479011 1.47901,3.95333 z m -3.42312,-1.106932 q 0,-0.948799 -0.55812,-1.52552 -0.54881,-0.586024 -1.4418,-0.586024 -0.9674,0 -1.57203,0.548816 -0.60463,0.539513 -0.75346,1.562728 z"
             style="-inkscape-font-specification:'sans-serif Bold'"
             id="path9621" />
          <path
             d="m 372.71909,24.218678 v 2.958021 h 3.43242 v 2.3813 h -3.43242 v 4.418428 q 0,0.725552 0.28836,0.986007 0.28836,0.251153 1.14414,0.251153 h 1.71156 v 2.3813 h -2.8557 q -1.97201,0 -2.79988,-0.818572 -0.81858,-0.827874 -0.81858,-2.799888 v -4.418428 h -1.65574 v -2.3813 h 1.65574 v -2.958021 z"
             style="-inkscape-font-specification:'sans-serif Bold'"
             id="path9623" />
          <path
             d="m 376.82126,27.176699 h 3.33009 l 2.79989,7.069485 2.3813,-7.069485 h 3.3301 l -4.38122,11.404195 q -0.66044,1.739465 -1.54412,2.42781 -0.87439,0.697646 -2.31619,0.697646 h -1.9255 v -2.185959 h 1.04182 q 0.84647,0 1.22785,-0.269757 0.39069,-0.269756 0.60463,-0.967403 l 0.093,-0.28836 z"
             style="-inkscape-font-specification:'sans-serif Bold'"
             id="path9625" />
        </g>
      </g>
      <g
         id="g38271">
        <g
           id="g38248">
          <g
             id="path4534-2-6-6-7-2-5">
            <path
               style="color:#000000;fill:#00ffff;fill-rule:evenodd;-inkscape-stroke:none"
               d="m 157.16602,26.357422 -0.002,0.998047 14.22071,0.03711 0.002,-0.998047 z"
               id="path9720" />
            <g
               id="g9710">
              <g
                 id="path9712">
                <path
                   style="color:#000000;fill:#00ffff;fill-rule:evenodd;stroke-width:0.399263pt;-inkscape-stroke:none"
                   d="m 167.39265,26.882866 -2.00163,1.990983 6.99239,-1.977674 -6.98175,-2.01494 z"
                   id="path9716" />
                <path
                   style="color:#000000;fill:#00ffff;fill-rule:evenodd;-inkscape-stroke:none"
                   d="m 164.48828,24.339844 2.52734,2.541015 -2.54101,2.529297 8.87695,-2.511719 z m 1.82617,1.082031 5.09961,1.472656 -5.10547,1.44336 1.46094,-1.453125 -0.1875,-0.189454 z"
                   id="path9718" />
              </g>
            </g>
          </g>
          <g
             id="path4534-2-9-1-2-5-3-9">
            <path
               style="color:#000000;fill:#00ffff;fill-rule:evenodd;stroke-width:0.998157;-inkscape-stroke:none"
               d="m 176.81048,34.750822 -16.56343,0.03792"
               id="path9734" />
            <path
               style="color:#000000;fill:#00ffff;fill-rule:evenodd;-inkscape-stroke:none"
               d="m 176.80859,34.251953 -16.5625,0.03711 0.002,0.998047 L 176.8125,35.25 Z"
               id="path9736" />
            <g
               id="g9724">
              <g
                 id="path9726">
                <path
                   style="color:#000000;fill:#00ffff;fill-rule:evenodd;stroke-width:0.399263pt;-inkscape-stroke:none"
                   d="m 164.23967,34.779601 1.99174,-2.000879 -6.98251,2.012305 6.99165,1.980313 z"
                   id="path9730" />
                <path
                   style="color:#000000;fill:#00ffff;fill-rule:evenodd;-inkscape-stroke:none"
                   d="m 167.14453,32.238281 -8.86523,2.554688 8.87695,2.513672 -2.54102,-2.527344 z m -1.82617,1.080078 -1.45508,1.462891 0.18945,0.1875 1.27149,1.267578 -5.10742,-1.447266 z"
                   id="path9732" />
              </g>
            </g>
          </g>
        </g>
        <g
           id="g38244">
          <g
             id="path4534-2-9-1-2-5-7-5-9">
            <path
               style="color:#000000;fill:#ffff00;fill-rule:evenodd;-inkscape-stroke:none"
               d="m 314.5957,34.251953 -16.82226,0.03906 0.004,0.998046 16.82032,-0.03906 z"
               id="path9750" />
            <g
               id="g9740">
              <g
                 id="path9742">
                <path
                   style="color:#000000;fill:#ffff00;fill-rule:evenodd;stroke-width:0.399263pt;-inkscape-stroke:none"
                   d="m 301.76804,34.780778 1.99181,-2.000809 -6.98258,2.01206 6.99158,1.980558 z"
                   id="path9746" />
                <path
                   style="color:#000000;fill:#ffff00;fill-rule:evenodd;-inkscape-stroke:none"
                   d="m 304.67383,32.240234 -8.86524,2.554688 8.87696,2.513672 -2.54102,-2.527344 z m -1.82813,1.080078 -1.45312,1.460938 0.1875,0.1875 1.27344,1.267578 -5.10743,-1.447266 z"
                   id="path9748" />
              </g>
            </g>
          </g>
          <g
             id="path4534-2-6-6-7-9-7-2">
            <path
               style="color:#000000;fill:#ffff00;fill-rule:evenodd;-inkscape-stroke:none"
               d="m 297.83984,26.357422 -0.002,0.998047 14.71289,0.03711 0.002,-0.998047 z"
               id="path9764" />
            <g
               id="g9754">
              <g
                 id="path9756">
                <path
                   style="color:#000000;fill:#ffff00;fill-rule:evenodd;stroke-width:0.399263pt;-inkscape-stroke:none"
                   d="m 308.55882,26.883883 -2.00146,1.991162 6.99222,-1.978299 -6.98193,-2.014316 z"
                   id="path9760" />
                <path
                   style="color:#000000;fill:#ffff00;fill-rule:evenodd;-inkscape-stroke:none"
                   d="m 305.6543,24.341797 2.52734,2.541015 -2.54102,2.527344 8.87696,-2.511719 z m 1.82617,1.082031 5.09961,1.470703 -5.10742,1.445313 1.46289,-1.455078 -0.1875,-0.189454 z"
                   id="path9762" />
              </g>
            </g>
          </g>
        </g>
        <g
           id="g38252">
          <g
             id="path4534-2-9-1-2-5-7-6-5-0-20">
            <path
               style="color:#000000;fill:#ff00ff;fill-rule:evenodd;-inkscape-stroke:none"
               d="m 30.337891,34.1875 -16.777344,0.0098 V 46.125 H 417.7207 V 34.199219 h -18.29687 v 0.998047 h 17.29883 v 9.929687 H 14.558594 v -9.931641 l 15.78125,-0.0098 z"
               id="path9778" />
            <g
               id="g9768">
              <g
                 id="path9770">
                <path
                   style="color:#000000;fill:#ff00ff;fill-rule:evenodd;stroke-width:0.399263pt;-inkscape-stroke:none"
                   d="m 403.41622,34.698378 1.99631,-1.996314 -6.9871,1.996314 6.9871,1.996314 z"
                   id="path9774" />
                <path
                   style="color:#000000;fill:#ff00ff;fill-rule:evenodd;-inkscape-stroke:none"
                   d="m 406.32617,32.164062 -8.86914,2.535157 8.86914,2.533203 -2.5332,-2.533203 z m -1.82812,1.076172 -1.45899,1.458985 0.18946,0.1875 1.27148,1.271484 -5.10742,-1.458984 z"
                   id="path9776" />
              </g>
            </g>
          </g>
          <g
             id="path4534-2-9-1-2-5-7-6-5-0-2-6">
            <path
               style="color:#000000;fill:#ff00ff;fill-rule:evenodd;-inkscape-stroke:none"
               d="M 13.820313,16.259766 V 27.339844 H 28.486328 V 26.341797 H 14.818359 V 17.257812 H 416.57617 v 9.085938 l -15.79101,0.0098 v 0.998046 l 16.78906,-0.0098 V 16.259766 Z"
               id="path9792" />
            <g
               id="g9782">
              <g
                 id="path9784">
                <path
                   style="color:#000000;fill:#ff00ff;fill-rule:evenodd;stroke-width:0.399263pt;-inkscape-stroke:none"
                   d="M 24.494295,26.841044 22.497981,28.837358 29.48508,26.841044 22.497981,24.84473 Z"
                   id="path9788" />
                <path
                   style="color:#000000;fill:#ff00ff;fill-rule:evenodd;-inkscape-stroke:none"
                   d="m 21.583984,24.306641 2.533203,2.533203 -2.533203,2.535156 8.869141,-2.533203 z m 1.828125,1.076171 5.103516,1.458985 -5.105469,1.458984 1.460938,-1.458984 -0.189453,-0.189453 z"
                   id="path9790" />
              </g>
            </g>
          </g>
        </g>
      </g>
    </g>
    <text
       id="text1063-92"
       y="261.20132"
       x="311.92914"
       style="font-size:14.1111px;line-height:1.25;font-family:sans-serif;letter-spacing:0px;word-spacing:0px;stroke-width:0.264583"
       xml:space="preserve" />
    <text
       xml:space="preserve"
       style="font-size:7.05556px;line-height:1.25;font-family:sans-serif;letter-spacing:0px;word-spacing:0px;fill:#ffffff;stroke-width:0.264583"
       x="-161.53021"
       y="259.40656"
       id="text949-8-28" />
    <text
       xml:space="preserve"
       style="font-size:0.517664px;line-height:1.25;font-family:sans-serif;letter-spacing:0px;word-spacing:0px;stroke-width:0.370417;stroke-miterlimit:4;stroke-dasharray:none"
       x="-107.28593"
       y="463.02475"
       id="text864-7-9" />
    <text
       id="text866-3-7"
       y="463.41043"
       x="-119.9818"
       style="font-size:0.517664px;line-height:1.25;font-family:sans-serif;letter-spacing:0px;word-spacing:0px;stroke-width:0.370417;stroke-miterlimit:4;stroke-dasharray:none"
       xml:space="preserve" />
    <text
       id="text870-6-36"
       y="462.74219"
       x="-120.68605"
       style="font-size:0.517664px;line-height:1.25;font-family:sans-serif;letter-spacing:0px;word-spacing:0px;stroke-width:0.370417;stroke-miterlimit:4;stroke-dasharray:none"
       xml:space="preserve" />
    <text
       id="text874-1-1"
       y="470.34515"
       x="-116.78443"
       style="font-size:0.517664px;line-height:1.25;font-family:sans-serif;letter-spacing:0px;word-spacing:0px;stroke-width:0.370417;stroke-miterlimit:4;stroke-dasharray:none"
       xml:space="preserve" />
    <text
       xml:space="preserve"
       transform="matrix(0.26458333,0,0,0.26458333,-164.94096,173.95312)"
       id="text28627-2"
       style="font-style:normal;font-weight:normal;font-size:40px;line-height:1.25;font-family:sans-serif;white-space:pre;shape-inside:url(#rect28629);fill:#000000;fill-opacity:1;stroke:none" />
    <text
       xml:space="preserve"
       style="font-style:normal;font-weight:normal;font-size:8.46665px;line-height:1.25;font-family:sans-serif;letter-spacing:0px;word-spacing:0px;clip-rule:evenodd;fill:#000000;fill-opacity:1;fill-rule:evenodd;stroke:none;stroke-width:0.264584;image-rendering:optimizeQuality;shape-rendering:geometricPrecision;text-rendering:geometricPrecision"
       x="113.35762"
       y="411.04736"
       id="text948-1" />
    <text
       xml:space="preserve"
       style="font-style:normal;font-weight:normal;font-size:4.23334px;line-height:1.25;font-family:sans-serif;letter-spacing:0px;word-spacing:0px;clip-rule:evenodd;fill:#2f5693;fill-opacity:1;fill-rule:evenodd;stroke:none;stroke-width:0.264584;image-rendering:optimizeQuality;shape-rendering:geometricPrecision;text-rendering:geometricPrecision"
       x="146.78365"
       y="435.33856"
       id="text1249-9" />
    <text
       id="text864-4"
       y="294.92783"
       x="-241.77812"
       style="font-size:3.63293px;line-height:1.25;font-family:sans-serif;letter-spacing:0px;word-spacing:0px;stroke-width:0.0681174"
       xml:space="preserve" />
    <text
       xml:space="preserve"
       style="font-size:3.63293px;line-height:1.25;font-family:sans-serif;letter-spacing:0px;word-spacing:0px;stroke-width:0.0681174"
       x="-330.87659"
       y="297.63455"
       id="text866-7" />
    <text
       xml:space="preserve"
       style="font-size:3.63293px;line-height:1.25;font-family:sans-serif;letter-spacing:0px;word-spacing:0px;stroke-width:0.0681174"
       x="-335.819"
       y="292.94482"
       id="text870-8" />
    <text
       xml:space="preserve"
       style="font-size:3.63293px;line-height:1.25;font-family:sans-serif;letter-spacing:0px;word-spacing:0px;stroke-width:0.0681174"
       x="-308.43777"
       y="346.30179"
       id="text874-4" />
    <circle
       id="path4804-5"
       style="fill:#000000;stroke:none;stroke-width:0.13527"
       cx="212.03999"
       cy="240.31786"
       r="0" />
    <circle
       id="path4806-0"
       style="fill:#000000;stroke:none;stroke-width:0.13527"
       cx="211.37068"
       cy="262.74292"
       r="0" />
    <circle
       id="path4808-3"
       style="fill:#000000;stroke:none;stroke-width:0.13527"
       cx="211.37068"
       cy="262.74292"
       r="0" />
    <circle
       id="path4868-6"
       style="fill:#000000;stroke:none;stroke-width:0.13527"
       cx="212.03999"
       cy="240.31786"
       r="0" />
    <circle
       id="path4964-1"
       style="fill:#000000;stroke:none;stroke-width:0.13527"
       cx="212.03999"
       cy="262.6113"
       r="0" />
    <circle
       id="path5024-0"
       style="fill:#000000;stroke:none;stroke-width:0.13527"
       cx="212.03999"
       cy="262.6113"
       r="0" />
    <circle
       id="path5998-6"
       style="fill:#000000;stroke:none;stroke-width:0.13527"
       cx="196.44832"
       cy="262.6113"
       r="0" />
    <circle
       id="path6721-32"
       style="fill:#000000;stroke:none;stroke-width:0.13527"
       cx="206.14629"
       cy="272.88138"
       r="0" />
    <circle
       id="path5255-06"
       style="fill:#000000;stroke:none;stroke-width:0.13527"
       cx="111.29909"
       cy="446.93759"
       r="0" />
    <circle
       id="path5504-1"
       style="fill:#000000;stroke:none;stroke-width:0.13527"
       cx="273.92111"
       cy="446.99936"
       r="0" />
    <circle
       id="path6498-5"
       style="fill:#000000;stroke:none;stroke-width:0.13527"
       cx="273.92111"
       cy="426.1221"
       r="0" />
    <circle
       id="path6661-5"
       style="fill:#000000;stroke:none;stroke-width:0.13527;marker-end:url(#marker4578-27)"
       cx="263.94333"
       cy="426.1221"
       r="0" />
    <circle
       id="path4804-6-6"
       style="fill:#000000;stroke:none;stroke-width:0.13527"
       cx="803.56372"
       cy="219.70984"
       r="0" />
    <circle
       id="path4806-2-56"
       style="fill:#000000;stroke:none;stroke-width:0.13527"
       cx="802.89447"
       cy="242.13492"
       r="0" />
    <circle
       id="path4808-7-9"
       style="fill:#000000;stroke:none;stroke-width:0.13527"
       cx="802.89447"
       cy="242.13492"
       r="0" />
    <circle
       id="path4868-1-3"
       style="fill:#000000;stroke:none;stroke-width:0.13527"
       cx="803.56372"
       cy="219.70984"
       r="0" />
    <circle
       id="path4964-5-74"
       style="fill:#000000;stroke:none;stroke-width:0.13527"
       cx="803.56372"
       cy="242.0033"
       r="0" />
    <circle
       id="path5024-8-5"
       style="fill:#000000;stroke:none;stroke-width:0.13527"
       cx="803.56372"
       cy="242.0033"
       r="0" />
    <circle
       id="path5998-8-2"
       style="fill:#000000;stroke:none;stroke-width:0.13527"
       cx="787.97205"
       cy="242.0033"
       r="0" />
    <circle
       id="path6721-3-5"
       style="fill:#000000;stroke:none;stroke-width:0.13527"
       cx="797.67004"
       cy="252.27336"
       r="0" />
    <circle
       id="path5255-9-4"
       style="fill:#000000;stroke:none;stroke-width:0.13527"
       cx="702.82281"
       cy="426.32959"
       r="0" />
    <circle
       id="path5504-5-7"
       style="fill:#000000;stroke:none;stroke-width:0.13527"
       cx="865.44489"
       cy="426.39136"
       r="0" />
    <circle
       id="path6498-7-4"
       style="fill:#000000;stroke:none;stroke-width:0.13527"
       cx="865.44489"
       cy="405.5141"
       r="0" />
    <circle
       id="path6661-4-43"
       style="fill:#000000;stroke:none;stroke-width:0.13527;marker-end:url(#marker4578-0-9)"
       cx="855.4671"
       cy="405.5141"
       r="0" />
    <text
       xml:space="preserve"
       style="font-style:normal;font-weight:normal;font-size:2.16432px;line-height:1.25;font-family:sans-serif;letter-spacing:0px;word-spacing:0px;fill:#000000;fill-opacity:1;stroke:none;stroke-width:0.13527"
       x="2.3013802"
       y="665.28455"
       id="text10134-1" />
    <circle
       id="path6632-5"
       style="fill:#ffffff;stroke:none;stroke-width:0.264583"
       cx="55.624134"
       cy="407.01465"
       r="0" />
    <circle
       id="path19510"
       style="fill:#000000;stroke:#00ff00;stroke-width:0.264583;stroke-opacity:1"
       cx="240.15889"
       cy="58.270054"
       r="0" />
  </g>
  <style
     type="text/css"
     id="style669">
	.st0{fill:#032A3E;}
	.st1{filter:url(#Adobe_OpacityMaskFilter);}
	.st2{fill:#FFFFFF;}
	.st3{mask:url(#mask-2_1_);fill:#032A3E;}
	.st4{filter:url(#Adobe_OpacityMaskFilter_1_);}
	.st5{mask:url(#mask-4_1_);fill:#032A3E;}
</style>
  <style
     id="style669-5"
     type="text/css">
	.st0{fill:#032A3E;}
	.st1{filter:url(#Adobe_OpacityMaskFilter);}
	.st2{fill:#FFFFFF;}
	.st3{mask:url(#mask-2_1_);fill:#032A3E;}
	.st4{filter:url(#Adobe_OpacityMaskFilter_1_);}
	.st5{mask:url(#mask-4_1_);fill:#032A3E;}
</style>
  <style
     type="text/css"
     id="style669-9">
	.st0{fill:#032A3E;}
	.st1{filter:url(#Adobe_OpacityMaskFilter);}
	.st2{fill:#FFFFFF;}
	.st3{mask:url(#mask-2_1_);fill:#032A3E;}
	.st4{filter:url(#Adobe_OpacityMaskFilter_1_);}
	.st5{mask:url(#mask-4_1_);fill:#032A3E;}
</style>
</svg>
