<?xml version="1.0" encoding="UTF-8" standalone="no"?>
<svg
   style="fill-opacity:1; color-rendering:auto; color-interpolation:auto; text-rendering:auto; stroke:black; stroke-linecap:square; stroke-miterlimit:10; shape-rendering:auto; stroke-opacity:1; fill:black; stroke-dasharray:none; font-weight:normal; stroke-width:1; font-family:'Dialog'; font-style:normal; stroke-linejoin:miter; font-size:12px; stroke-dashoffset:0; image-rendering:auto;"
   width="560"
   height="420"
   version="1.1"
   id="svg172"
   sodipodi:docname="lab3-scatterplot.svg"
   inkscape:version="1.4 (e7c3feb1, 2024-10-09)"
   xmlns:inkscape="http://www.inkscape.org/namespaces/inkscape"
   xmlns:sodipodi="http://sodipodi.sourceforge.net/DTD/sodipodi-0.dtd"
   xmlns="http://www.w3.org/2000/svg"
   xmlns:svg="http://www.w3.org/2000/svg">
  <sodipodi:namedview
     id="namedview172"
     pagecolor="#ffffff"
     bordercolor="#000000"
     borderopacity="0.25"
     inkscape:showpageshadow="2"
     inkscape:pageopacity="0.0"
     inkscape:pagecheckerboard="0"
     inkscape:deskcolor="#d1d1d1"
     inkscape:zoom="1.4007449"
     inkscape:cx="280.92197"
     inkscape:cy="207.38966"
     inkscape:window-width="1512"
     inkscape:window-height="916"
     inkscape:window-x="0"
     inkscape:window-y="38"
     inkscape:window-maximized="1"
     inkscape:current-layer="g117" />
  <!--Generated by the Batik Graphics2D SVG Generator-->
  <defs
     id="genericDefs" />
  <g
     id="g172">
    <defs
       id="defs1">
      <clipPath
         clipPathUnits="userSpaceOnUse"
         id="clipPath1">
        <path
           d="M0 0 L560 0 L560 420 L0 420 L0 0 Z"
           id="path1" />
      </clipPath>
      <font
         horiz-adv-x="50.0"
         id="font1">
        <font-face
           ascent="95.200005"
           descent="21.3"
           units-per-em="100"
           style="font-style:normal; font-family:Helvetica Neue; font-weight:normal;"
           id="font-face1" />
        <missing-glyph
           horiz-adv-x="50.0"
           d="M40.9 66.6 L10.2 66.6 L10.2 4.7 L40.9 4.7 ZM46 71.2 L46 0.1 L5.1 0.1 L5.1 71.2 Z"
           id="missing-glyph1" />
        <glyph
           unicode="0"
           horiz-adv-x="55.6"
           d="M13.2 34.9 Q13.2 37.5 13.25 40.65 Q13.3 43.8 13.75 46.95 Q14.2 50.1 15.05 53.1 Q15.9 56.1 17.55 58.35 Q19.2 60.6 21.7 62 Q24.2 63.4 27.8 63.4 Q31.4 63.4 33.9 62 Q36.4 60.6 38.05 58.35 Q39.7 56.1 40.55 53.1 Q41.4 50.1 41.85 46.95 Q42.3 43.8 42.35 40.65 Q42.4 37.5 42.4 34.9 Q42.4 30.9 42.15 25.95 Q41.9 21 40.55 16.65 Q39.2 12.3 36.2 9.3 Q33.2 6.3 27.8 6.3 Q22.4 6.3 19.4 9.3 Q16.4 12.3 15.05 16.65 Q13.7 21 13.45 25.95 Q13.2 30.9 13.2 34.9 ZM4.2 34.8 Q4.2 30.9 4.4 26.7 Q4.6 22.5 5.4 18.5 Q6.2 14.5 7.7 10.95 Q9.2 7.4 11.8 4.7 Q14.4 2 18.35 0.45 Q22.3 -1.1 27.8 -1.1 Q33.4 -1.1 37.3 0.45 Q41.2 2 43.8 4.7 Q46.4 7.4 47.9 10.95 Q49.4 14.5 50.2 18.5 Q51 22.5 51.2 26.7 Q51.4 30.9 51.4 34.8 Q51.4 38.7 51.2 42.9 Q51 47.1 50.2 51.1 Q49.4 55.1 47.9 58.7 Q46.4 62.3 43.8 65 Q41.2 67.7 37.25 69.3 Q33.3 70.9 27.8 70.9 Q22.3 70.9 18.35 69.3 Q14.4 67.7 11.8 65 Q9.2 62.3 7.7 58.7 Q6.2 55.1 5.4 51.1 Q4.6 47.1 4.4 42.9 Q4.2 38.7 4.2 34.8 Z"
           id="glyph1" />
        <glyph
           unicode="2"
           horiz-adv-x="55.6"
           d="M4.4 45.8 L12.9 45.8 Q12.8 49 13.55 52.15 Q14.3 55.3 16 57.8 Q17.7 60.3 20.35 61.85 Q23 63.4 26.7 63.4 Q29.5 63.4 32 62.5 Q34.5 61.6 36.35 59.9 Q38.2 58.2 39.3 55.85 Q40.4 53.5 40.4 50.6 Q40.4 46.9 39.25 44.1 Q38.1 41.3 35.85 38.9 Q33.6 36.5 30.2 34.15 Q26.8 31.8 22.3 29 Q18.6 26.8 15.2 24.3 Q11.8 21.8 9.1 18.5 Q6.4 15.2 4.65 10.75 Q2.9 6.3 2.4 0 L48.7 0 L48.7 7.5 L12.3 7.5 Q12.9 10.8 14.85 13.35 Q16.8 15.9 19.55 18.1 Q22.3 20.3 25.6 22.25 Q28.9 24.2 32.2 26.2 Q35.5 28.3 38.6 30.6 Q41.7 32.9 44.1 35.75 Q46.5 38.6 47.95 42.2 Q49.4 45.8 49.4 50.5 Q49.4 55.5 47.65 59.3 Q45.9 63.1 42.9 65.65 Q39.9 68.2 35.85 69.55 Q31.8 70.9 27.2 70.9 Q21.6 70.9 17.2 69 Q12.8 67.1 9.85 63.75 Q6.9 60.4 5.5 55.8 Q4.1 51.2 4.4 45.8 Z"
           id="glyph2" />
        <glyph
           unicode="3"
           horiz-adv-x="55.6"
           d="M21.8 40.5 L21.8 33.3 Q24.2 33.6 26.9 33.6 Q30.1 33.6 32.85 32.75 Q35.6 31.9 37.6 30.15 Q39.6 28.4 40.8 25.85 Q42 23.3 42 20 Q42 16.8 40.75 14.25 Q39.5 11.7 37.4 9.95 Q35.3 8.2 32.5 7.25 Q29.7 6.3 26.6 6.3 Q19.3 6.3 15.5 10.65 Q11.7 15 11.5 21.9 L3 21.9 Q2.9 16.4 4.55 12.1 Q6.2 7.8 9.3 4.85 Q12.4 1.9 16.8 0.4 Q21.2 -1.1 26.6 -1.1 Q31.6 -1.1 36.05 0.25 Q40.5 1.6 43.8 4.3 Q47.1 7 49.05 11.05 Q51 15.1 51 20.4 Q51 26.8 47.85 31.5 Q44.7 36.2 38.2 37.6 L38.2 37.8 Q42.4 39.7 45.2 43.4 Q48 47.1 48 51.9 Q48 56.8 46.35 60.4 Q44.7 64 41.8 66.3 Q38.9 68.6 34.95 69.75 Q31 70.9 26.4 70.9 Q21.1 70.9 17.05 69.2 Q13 67.5 10.3 64.5 Q7.6 61.5 6.15 57.3 Q4.7 53.1 4.5 48 L13 48 Q13 51.1 13.8 53.9 Q14.6 56.7 16.25 58.8 Q17.9 60.9 20.45 62.15 Q23 63.4 26.4 63.4 Q31.8 63.4 35.4 60.55 Q39 57.7 39 52 Q39 49.2 37.9 47 Q36.8 44.8 34.95 43.35 Q33.1 41.9 30.65 41.15 Q28.2 40.4 25.5 40.4 L23.7 40.4 Q23.2 40.4 22.7 40.4 Q22.3 40.4 21.8 40.5 Z"
           id="glyph3" />
        <glyph
           unicode="4"
           horiz-adv-x="55.6"
           d="M33.9 24.1 L10.1 24.1 L33.7 58.8 L33.9 58.8 ZM41.9 24.1 L41.9 70.9 L35.1 70.9 L2.8 24.8 L2.8 16.6 L33.9 16.6 L33.9 0 L41.9 0 L41.9 16.6 L51.5 16.6 L51.5 24.1 Z"
           id="glyph4" />
        <glyph
           unicode="5"
           horiz-adv-x="55.6"
           d="M47 62.2 L47 69.7 L12 69.7 L5.4 32.9 L12.7 32.5 Q15.2 35.5 18.45 37.35 Q21.7 39.2 25.9 39.2 Q29.5 39.2 32.45 38 Q35.4 36.8 37.5 34.65 Q39.6 32.5 40.75 29.55 Q41.9 26.6 41.9 23.1 Q41.9 18.9 40.7 15.75 Q39.5 12.6 37.45 10.5 Q35.4 8.4 32.65 7.35 Q29.9 6.3 26.9 6.3 Q23.7 6.3 21.05 7.25 Q18.4 8.2 16.45 9.95 Q14.5 11.7 13.35 14.05 Q12.2 16.4 12 19.1 L3.5 19.1 Q3.6 14.3 5.4 10.5 Q7.2 6.7 10.3 4.15 Q13.4 1.6 17.45 0.25 Q21.5 -1.1 26.1 -1.1 Q32.3 -1.1 36.95 0.85 Q41.6 2.8 44.7 6.1 Q47.8 9.4 49.35 13.65 Q50.9 17.9 50.9 22.4 Q50.9 28.5 49.1 33.05 Q47.3 37.6 44.2 40.65 Q41.1 43.7 36.9 45.2 Q32.7 46.7 28 46.7 Q24.4 46.7 20.75 45.45 Q17.1 44.2 14.8 41.6 L14.6 41.8 L18.4 62.2 Z"
           id="glyph5" />
        <glyph
           unicode="6"
           horiz-adv-x="55.6"
           d="M41.4 52.8 L49.9 52.8 Q49.1 61.6 43.9 66.25 Q38.7 70.9 29.9 70.9 Q22.3 70.9 17.3 67.7 Q12.3 64.5 9.3 59.2 Q6.3 53.9 5.05 47.05 Q3.8 40.2 3.8 32.9 Q3.8 27.3 4.65 21.3 Q5.5 15.3 8.1 10.3 Q10.7 5.3 15.5 2.1 Q20.3 -1.1 28.2 -1.1 Q34.9 -1.1 39.45 1.15 Q44 3.4 46.75 6.85 Q49.5 10.3 50.7 14.5 Q51.9 18.7 51.9 22.6 Q51.9 27.5 50.4 31.7 Q48.9 35.9 46.15 39 Q43.4 42.1 39.35 43.85 Q35.3 45.6 30.2 45.6 Q24.4 45.6 19.95 43.4 Q15.5 41.2 12.5 36.3 L12.3 36.5 Q12.4 40.6 13.1 45.3 Q13.8 50 15.65 54.05 Q17.5 58.1 20.8 60.75 Q24.1 63.4 29.5 63.4 Q34.6 63.4 37.7 60.5 Q40.8 57.6 41.4 52.8 ZM28.6 38.1 Q32.2 38.1 34.9 36.8 Q37.6 35.5 39.4 33.35 Q41.2 31.2 42.05 28.25 Q42.9 25.3 42.9 22 Q42.9 18.9 41.95 16.05 Q41 13.2 39.2 11 Q37.4 8.8 34.75 7.55 Q32.1 6.3 28.6 6.3 Q25.1 6.3 22.35 7.55 Q19.6 8.8 17.75 10.9 Q15.9 13 14.9 15.9 Q13.9 18.8 13.9 22.1 Q13.9 25.4 14.85 28.35 Q15.8 31.3 17.7 33.45 Q19.6 35.6 22.3 36.85 Q25 38.1 28.6 38.1 Z"
           id="glyph6" />
        <glyph
           unicode="7"
           horiz-adv-x="55.6"
           d="M50.9 62.4 L50.9 69.7 L5 69.7 L5 61.7 L42.2 61.7 Q36.6 55.8 31.75 48.8 Q26.9 41.8 23.2 33.95 Q19.5 26.1 17.15 17.55 Q14.8 9 14.2 0 L23.7 0 Q24.2 8.3 26.5 17.1 Q28.8 25.9 32.45 34.2 Q36.1 42.5 40.8 49.8 Q45.5 57.1 50.9 62.4 Z"
           id="glyph7" />
        <glyph
           unicode="8"
           horiz-adv-x="55.6"
           d="M15.5 52.5 Q15.5 55.2 16.5 57.2 Q17.5 59.2 19.15 60.6 Q20.8 62 23.1 62.7 Q25.4 63.4 27.9 63.4 Q33.1 63.4 36.45 60.65 Q39.8 57.9 39.8 52.5 Q39.8 47.1 36.5 44.1 Q33.2 41.1 28.1 41.1 Q25.5 41.1 23.2 41.8 Q20.9 42.5 19.2 43.9 Q17.5 45.3 16.5 47.45 Q15.5 49.6 15.5 52.5 ZM6.5 52.8 Q6.5 48 9.2 43.95 Q11.9 39.9 16.4 38.1 Q10.4 36 7.2 31.35 Q4 26.7 4 20.4 Q4 15 5.85 10.95 Q7.7 6.9 10.95 4.2 Q14.2 1.5 18.6 0.2 Q23 -1.1 28.1 -1.1 Q33 -1.1 37.3 0.3 Q41.6 1.7 44.75 4.45 Q47.9 7.2 49.75 11.2 Q51.6 15.2 51.6 20.4 Q51.6 27 48.5 31.55 Q45.4 36.1 39 38.1 Q43.5 40.1 46.15 44.05 Q48.8 48 48.8 52.8 Q48.8 56.2 47.6 59.45 Q46.4 62.7 43.85 65.25 Q41.3 67.8 37.2 69.35 Q33.1 70.9 27.3 70.9 Q23.2 70.9 19.45 69.7 Q15.7 68.5 12.8 66.2 Q9.9 63.9 8.2 60.55 Q6.5 57.2 6.5 52.8 ZM13 20 Q13 23.1 14.15 25.6 Q15.3 28.1 17.35 29.9 Q19.4 31.7 22.15 32.65 Q24.9 33.6 28 33.6 Q31 33.6 33.65 32.55 Q36.3 31.5 38.3 29.7 Q40.3 27.9 41.45 25.45 Q42.6 23 42.6 20.1 Q42.6 17.1 41.55 14.6 Q40.5 12.1 38.55 10.25 Q36.6 8.4 33.95 7.35 Q31.3 6.3 28.1 6.3 Q21.5 6.3 17.25 9.95 Q13 13.6 13 20 Z"
           id="glyph8" />
        <glyph
           unicode="9"
           horiz-adv-x="55.6"
           d="M13.4 17.1 L4.9 17.1 Q5.7 7.9 11.6 3.4 Q17.5 -1.1 26.4 -1.1 Q39.3 -1.1 45.15 8.75 Q51 18.6 51 37 Q51 47.1 49.05 53.65 Q47.1 60.2 43.8 64 Q40.5 67.8 36.1 69.35 Q31.7 70.9 26.7 70.9 Q21.6 70.9 17.3 69.2 Q13 67.5 9.9 64.45 Q6.8 61.4 5.1 57.15 Q3.4 52.9 3.4 47.8 Q3.4 42.6 4.85 38.2 Q6.3 33.8 9.15 30.7 Q12 27.6 16.2 25.85 Q20.4 24.1 25.8 24.1 Q31 24.1 35.4 26.75 Q39.8 29.4 42.2 33.9 L42.4 33.7 Q42 19.8 38.1 13.05 Q34.2 6.3 26.4 6.3 Q21.3 6.3 17.6 9.1 Q13.9 11.9 13.4 17.1 ZM40.9 47.2 Q40.9 44.1 39.9 41.25 Q38.9 38.4 37 36.25 Q35.1 34.1 32.4 32.85 Q29.7 31.6 26.4 31.6 Q23.3 31.6 20.75 32.85 Q18.2 34.1 16.35 36.2 Q14.5 38.3 13.45 41 Q12.4 43.7 12.4 46.6 Q12.4 49.9 13.15 52.9 Q13.9 55.9 15.55 58.25 Q17.2 60.6 19.85 62 Q22.5 63.4 26.3 63.4 Q29.9 63.4 32.6 62.1 Q35.3 60.8 37.15 58.55 Q39 56.3 39.95 53.4 Q40.9 50.5 40.9 47.2 Z"
           id="glyph9" />
        <glyph
           unicode="1"
           horiz-adv-x="55.6"
           d="M35.6 0 L35.6 70.9 L29.1 70.9 Q28.4 66.9 26.5 64.3 Q24.6 61.7 21.85 60.2 Q19.1 58.7 15.7 58.15 Q12.3 57.6 8.7 57.6 L8.7 50.8 L27.1 50.8 L27.1 0 Z"
           id="glyph10" />
        <glyph
           unicode=")"
           horiz-adv-x="25.9"
           d="M-0.9 -19.7 L5.5 -19.7 Q13.3 -9.4 17.25 2.55 Q21.2 14.5 21.2 26.3 Q21.2 32.9 20.1 38.9 Q19 44.9 16.95 50.65 Q14.9 56.4 12 61.95 Q9.1 67.5 5.5 73.1 L-0.9 73.1 Q6.1 61.6 9.15 50.25 Q12.2 38.9 12.2 26.3 Q12.2 14.1 9.2 2.85 Q6.2 -8.4 -0.9 -19.7 Z"
           id="glyph11" />
        <glyph
           unicode="q"
           horiz-adv-x="59.3"
           d="M12.6 25.4 Q12.6 29.2 13.4 32.8 Q14.2 36.4 16 39.2 Q17.8 42 20.8 43.7 Q23.8 45.4 28.1 45.4 Q32.5 45.4 35.6 43.75 Q38.7 42.1 40.65 39.4 Q42.6 36.7 43.5 33.15 Q44.4 29.6 44.4 25.8 Q44.4 22.2 43.55 18.7 Q42.7 15.2 40.8 12.45 Q38.9 9.7 35.9 8 Q32.9 6.3 28.6 6.3 Q24.5 6.3 21.45 7.9 Q18.4 9.5 16.45 12.2 Q14.5 14.9 13.55 18.35 Q12.6 21.8 12.6 25.4 ZM52.6 -19.7 L52.6 51.7 L44.1 51.7 L44.1 44.8 L43.9 44.8 Q42.5 47.1 40.45 48.65 Q38.4 50.2 36.1 51.15 Q33.8 52.1 31.5 52.5 Q29.2 52.9 27.2 52.9 Q21.3 52.9 16.85 50.75 Q12.4 48.6 9.45 44.95 Q6.5 41.3 5.05 36.4 Q3.6 31.5 3.6 26 Q3.6 20.5 5.1 15.6 Q6.6 10.7 9.55 7 Q12.5 3.3 16.95 1.1 Q21.4 -1.1 27.4 -1.1 Q32.8 -1.1 37.3 0.8 Q41.8 2.7 43.9 7 L44.1 7 L44.1 -19.7 Z"
           id="glyph12" />
        <glyph
           unicode="("
           horiz-adv-x="25.9"
           d="M20.4 -19.7 L26.9 -19.7 Q19.8 -8.2 16.75 3.1 Q13.7 14.4 13.7 27 Q13.7 39.3 16.7 50.5 Q19.7 61.7 26.9 73.1 L20.4 73.1 Q12.6 62.8 8.65 50.8 Q4.7 38.8 4.7 27 Q4.7 20.4 5.8 14.4 Q6.9 8.4 8.95 2.7 Q11 -3 13.9 -8.55 Q16.8 -14.1 20.4 -19.7 Z"
           id="glyph13" />
        <glyph
           unicode="f"
           horiz-adv-x="29.6"
           d="M9.9 44.2 L9.9 0 L18.4 0 L18.4 44.2 L28.4 44.2 L28.4 51.7 L18.4 51.7 L18.4 58.9 Q18.4 62.3 20.1 63.5 Q21.8 64.7 24.9 64.7 Q26 64.7 27.3 64.55 Q28.6 64.4 29.7 64 L29.7 71.4 Q28.5 71.8 26.95 72 Q25.4 72.2 24.2 72.2 Q17.2 72.2 13.55 68.95 Q9.9 65.7 9.9 59.4 L9.9 51.7 L1.2 51.7 L1.2 44.2 Z"
           id="glyph14" />
        <glyph
           unicode="="
           horiz-adv-x="60.0"
           d="M4.8 18.6 L4.8 11.8 L55.2 11.8 L55.2 18.6 ZM55.2 32 L55.2 38.8 L4.8 38.8 L4.8 32 Z"
           id="glyph15" />
        <glyph
           unicode=" "
           horiz-adv-x="27.8"
           d=""
           id="glyph16" />
        <glyph
           unicode="g"
           horiz-adv-x="57.4"
           d="M51 4.4 L51 51.7 L43 51.7 L43 44.3 L42.9 44.3 Q40.6 48.6 36.5 50.75 Q32.4 52.9 27.5 52.9 Q20.8 52.9 16.2 50.35 Q11.6 47.8 8.8 43.85 Q6 39.9 4.8 35.05 Q3.6 30.2 3.6 25.6 Q3.6 20.3 5.05 15.55 Q6.5 10.8 9.4 7.25 Q12.3 3.7 16.6 1.6 Q20.9 -0.5 26.7 -0.5 Q31.7 -0.5 36.15 1.75 Q40.6 4 42.8 8.8 L43 8.8 L43 5.4 Q43 1.1 42.15 -2.5 Q41.3 -6.1 39.4 -8.65 Q37.5 -11.2 34.6 -12.65 Q31.7 -14.1 27.5 -14.1 Q25.4 -14.1 23.1 -13.65 Q20.8 -13.2 18.85 -12.2 Q16.9 -11.2 15.55 -9.6 Q14.2 -8 14.1 -5.7 L5.6 -5.7 Q5.8 -9.9 7.8 -12.8 Q9.8 -15.7 12.85 -17.5 Q15.9 -19.3 19.65 -20.1 Q23.4 -20.9 27 -20.9 Q39.4 -20.9 45.2 -14.6 Q51 -8.3 51 4.4 ZM27.2 6.9 Q23 6.9 20.2 8.65 Q17.4 10.4 15.7 13.25 Q14 16.1 13.3 19.6 Q12.6 23.1 12.6 26.6 Q12.6 30.3 13.45 33.7 Q14.3 37.1 16.15 39.7 Q18 42.3 20.9 43.85 Q23.8 45.4 27.9 45.4 Q31.9 45.4 34.7 43.8 Q37.5 42.2 39.25 39.55 Q41 36.9 41.8 33.6 Q42.6 30.3 42.6 26.9 Q42.6 23.3 41.75 19.7 Q40.9 16.1 39.1 13.25 Q37.3 10.4 34.35 8.65 Q31.4 6.9 27.2 6.9 Z"
           id="glyph17" />
        <glyph
           unicode="D"
           horiz-adv-x="70.4"
           d="M17.3 8 L17.3 63.4 L33.3 63.4 Q39.9 63.4 44.4 61.55 Q48.9 59.7 51.75 56.15 Q54.6 52.6 55.85 47.55 Q57.1 42.5 57.1 36.1 Q57.1 29.5 55.75 24.85 Q54.4 20.2 52.3 17.1 Q50.2 14 47.55 12.2 Q44.9 10.4 42.2 9.45 Q39.5 8.5 37.1 8.25 Q34.7 8 33.1 8 ZM7.8 71.4 L7.8 0 L32.3 0 Q41.2 0 47.7 2.5 Q54.2 5 58.4 9.75 Q62.6 14.5 64.6 21.45 Q66.6 28.4 66.6 37.4 Q66.6 54.6 57.7 63 Q48.8 71.4 32.3 71.4 Z"
           id="glyph18" />
        <glyph
           unicode="E"
           horiz-adv-x="61.1"
           d="M7.8 71.4 L7.8 0 L57.4 0 L57.4 8 L17.3 8 L17.3 32.7 L54.4 32.7 L54.4 40.7 L17.3 40.7 L17.3 63.4 L57.1 63.4 L57.1 71.4 Z"
           id="glyph19" />
        <glyph
           unicode="L"
           horiz-adv-x="55.6"
           d="M7.8 71.4 L7.8 0 L55.1 0 L55.1 8 L17.3 8 L17.3 71.4 Z"
           id="glyph20" />
        <glyph
           unicode="d"
           horiz-adv-x="59.3"
           d="M12.6 25.4 Q12.6 29.2 13.4 32.8 Q14.2 36.4 16 39.2 Q17.8 42 20.8 43.7 Q23.8 45.4 28.1 45.4 Q32.5 45.4 35.6 43.75 Q38.7 42.1 40.65 39.4 Q42.6 36.7 43.5 33.15 Q44.4 29.6 44.4 25.8 Q44.4 22.2 43.55 18.7 Q42.7 15.2 40.8 12.45 Q38.9 9.7 35.9 8 Q32.9 6.3 28.6 6.3 Q24.5 6.3 21.45 7.9 Q18.4 9.5 16.45 12.2 Q14.5 14.9 13.55 18.35 Q12.6 21.8 12.6 25.4 ZM52.6 0 L52.6 71.4 L44.1 71.4 L44.1 44.8 L43.9 44.8 Q42.5 47.1 40.45 48.65 Q38.4 50.2 36.1 51.15 Q33.8 52.1 31.5 52.5 Q29.2 52.9 27.2 52.9 Q21.3 52.9 16.85 50.75 Q12.4 48.6 9.45 44.95 Q6.5 41.3 5.05 36.4 Q3.6 31.5 3.6 26 Q3.6 20.5 5.1 15.6 Q6.6 10.7 9.55 7 Q12.5 3.3 16.95 1.1 Q21.4 -1.1 27.4 -1.1 Q32.8 -1.1 37.3 0.8 Q41.8 2.7 43.9 7 L44.1 7 L44.1 0 Z"
           id="glyph21" />
        <glyph
           unicode="e"
           horiz-adv-x="53.7"
           d="M42.3 30.8 L12.6 30.8 Q12.8 33.8 13.9 36.45 Q15 39.1 16.9 41.1 Q18.8 43.1 21.45 44.25 Q24.1 45.4 27.4 45.4 Q30.6 45.4 33.25 44.25 Q35.9 43.1 37.85 41.15 Q39.8 39.2 40.95 36.5 Q42.1 33.8 42.3 30.8 ZM50.5 16.4 L42.1 16.4 Q41 11.3 37.55 8.8 Q34.1 6.3 28.7 6.3 Q24.5 6.3 21.4 7.7 Q18.3 9.1 16.3 11.45 Q14.3 13.8 13.4 16.85 Q12.5 19.9 12.6 23.3 L51.3 23.3 Q51.5 28 50.45 33.2 Q49.4 38.4 46.65 42.8 Q43.9 47.2 39.35 50.05 Q34.8 52.9 27.9 52.9 Q22.6 52.9 18.15 50.9 Q13.7 48.9 10.45 45.3 Q7.2 41.7 5.4 36.8 Q3.6 31.9 3.6 26 Q3.8 20.1 5.35 15.1 Q6.9 10.1 10 6.5 Q13.1 2.9 17.65 0.9 Q22.2 -1.1 28.4 -1.1 Q37.2 -1.1 43 3.3 Q48.8 7.7 50.5 16.4 Z"
           id="glyph22" />
        <glyph
           unicode="R"
           horiz-adv-x="68.5"
           d="M7.8 71.4 L7.8 0 L17.3 0 L17.3 30.5 L40.5 30.5 Q44 30.5 46.1 29.45 Q48.2 28.4 49.5 26.65 Q50.8 24.9 51.4 22.55 Q52 20.2 52.4 17.6 Q52.9 15 53 12.3 Q53.1 9.6 53.2 7.25 Q53.3 4.9 53.65 3 Q54 1.1 55 0 L65.6 0 Q64.1 1.8 63.35 4.15 Q62.6 6.5 62.2 9.1 Q61.8 11.7 61.7 14.4 Q61.6 17.1 61.4 19.7 Q61.1 22.3 60.55 24.7 Q60 27.1 58.85 29.05 Q57.7 31 55.75 32.4 Q53.8 33.8 50.7 34.4 L50.7 34.6 Q57.2 36.4 60.15 41.3 Q63.1 46.2 63.1 52.7 Q63.1 61.4 57.35 66.4 Q51.6 71.4 41.4 71.4 ZM37.1 38.5 L17.3 38.5 L17.3 63.4 L40.9 63.4 Q47.6 63.4 50.6 60 Q53.6 56.6 53.6 51.2 Q53.6 47.3 52.25 44.85 Q50.9 42.4 48.65 40.95 Q46.4 39.5 43.4 39 Q40.4 38.5 37.1 38.5 Z"
           id="glyph23" />
        <glyph
           unicode="u"
           horiz-adv-x="55.6"
           d="M49.2 0 L49.2 51.7 L40.7 51.7 L40.7 22.5 Q40.7 19 39.75 16.05 Q38.8 13.1 36.9 10.9 Q35 8.7 32.15 7.5 Q29.3 6.3 25.4 6.3 Q20.5 6.3 17.7 9.1 Q14.9 11.9 14.9 16.7 L14.9 51.7 L6.4 51.7 L6.4 17.7 Q6.4 13.5 7.25 10.05 Q8.1 6.6 10.2 4.1 Q12.3 1.6 15.7 0.25 Q19.1 -1.1 24.2 -1.1 Q29.9 -1.1 34.1 1.15 Q38.3 3.4 41 8.2 L41.2 8.2 L41.2 0 Z"
           id="glyph24" />
        <glyph
           unicode="l"
           horiz-adv-x="22.2"
           d="M6.9 71.4 L6.9 0 L15.4 0 L15.4 71.4 Z"
           id="glyph25" />
        <glyph
           unicode="B"
           horiz-adv-x="68.5"
           d="M17.3 40.7 L17.3 63.4 L36.3 63.4 Q39.4 63.4 42.15 63.05 Q44.9 62.7 47 61.5 Q49.1 60.3 50.3 58.1 Q51.5 55.9 51.5 52.1 Q51.5 46.4 47.95 43.55 Q44.4 40.7 36.3 40.7 ZM7.8 71.4 L7.8 0 L42.3 0 Q47.6 0 51.65 1.75 Q55.7 3.5 58.45 6.35 Q61.2 9.2 62.6 12.9 Q64 16.6 64 20.5 Q64 27.1 60.5 31.7 Q57 36.3 50.4 37.7 L50.4 37.9 Q55.5 39.9 58.25 44.05 Q61 48.2 61 53.9 Q61 59.3 58.55 63 Q56.1 66.7 52.6 68.8 Q51 69.8 48.75 70.3 Q46.5 70.8 43.9 71.05 Q41.3 71.3 38.65 71.35 Q36 71.4 33.7 71.4 ZM17.3 8 L17.3 32.7 L39 32.7 Q42 32.7 44.8 32.15 Q47.6 31.6 49.75 30.25 Q51.9 28.9 53.2 26.6 Q54.5 24.3 54.5 20.8 Q54.5 14.8 50.95 11.4 Q47.4 8 41.1 8 Z"
           id="glyph26" />
        <glyph
           unicode="n"
           horiz-adv-x="55.6"
           d="M6.4 51.7 L6.4 0 L14.9 0 L14.9 29.2 Q14.9 32.7 15.85 35.65 Q16.8 38.6 18.7 40.8 Q20.6 43 23.45 44.2 Q26.3 45.4 30.2 45.4 Q35.1 45.4 37.9 42.6 Q40.7 39.8 40.7 35 L40.7 0 L49.2 0 L49.2 34 Q49.2 38.2 48.35 41.65 Q47.5 45.1 45.4 47.6 Q43.3 50.1 39.9 51.5 Q36.5 52.9 31.4 52.9 Q19.9 52.9 14.6 43.5 L14.4 43.5 L14.4 51.7 Z"
           id="glyph27" />
        <glyph
           unicode="r"
           horiz-adv-x="33.3"
           d="M6.1 51.7 L6.1 0 L14.6 0 L14.6 23 Q14.6 28 15.6 31.85 Q16.6 35.7 18.8 38.4 Q21 41.1 24.6 42.5 Q28.2 43.9 33.3 43.9 L33.3 52.9 Q26.4 53.1 21.9 50.1 Q17.4 47.1 14.3 40.8 L14.1 40.8 L14.1 51.7 Z"
           id="glyph28" />
        <glyph
           unicode="G"
           horiz-adv-x="75.9"
           d="M61.2 8.9 L63.7 0 L69.7 0 L69.7 37.6 L38.4 37.6 L38.4 29.6 L61.2 29.6 Q61.4 24.7 59.9 20.45 Q58.4 16.2 55.45 13.05 Q52.5 9.9 48.2 8.1 Q43.9 6.3 38.3 6.3 Q32.3 6.3 27.75 8.65 Q23.2 11 20.1 14.95 Q17 18.9 15.4 24.05 Q13.8 29.2 13.8 34.8 Q13.8 40.5 15.2 45.95 Q16.6 51.4 19.55 55.65 Q22.5 59.9 27.15 62.5 Q31.8 65.1 38.3 65.1 Q42.3 65.1 45.85 64.15 Q49.4 63.2 52.2 61.3 Q55 59.4 56.9 56.45 Q58.8 53.5 59.5 49.4 L69 49.4 Q68 55.7 65.25 60.15 Q62.5 64.6 58.45 67.5 Q54.4 70.4 49.25 71.75 Q44.1 73.1 38.3 73.1 Q29.8 73.1 23.45 69.95 Q17.1 66.8 12.85 61.5 Q8.6 56.2 6.45 49.15 Q4.3 42.1 4.3 34.3 Q4.3 27.3 6.6 20.8 Q8.9 14.3 13.3 9.3 Q17.7 4.3 24 1.35 Q30.3 -1.6 38.3 -1.6 Q44.6 -1.6 50.8 0.85 Q57 3.3 61.2 8.9 Z"
           id="glyph29" />
        <glyph
           unicode="t"
           horiz-adv-x="31.5"
           d="M18.2 51.7 L18.2 67.2 L9.7 67.2 L9.7 51.7 L0.9 51.7 L0.9 44.2 L9.7 44.2 L9.7 11.3 Q9.7 7.7 10.4 5.5 Q11.1 3.3 12.55 2.1 Q14 0.9 16.35 0.45 Q18.7 0 22 0 L28.5 0 L28.5 7.5 L24.6 7.5 Q22.6 7.5 21.35 7.65 Q20.1 7.8 19.4 8.3 Q18.7 8.8 18.45 9.7 Q18.2 10.6 18.2 12.1 L18.2 44.2 L28.5 44.2 L28.5 51.7 Z"
           id="glyph30" />
        <glyph
           unicode="i"
           horiz-adv-x="22.2"
           d="M15.4 61 L15.4 71.4 L6.9 71.4 L6.9 61 ZM6.9 51.7 L6.9 0 L15.4 0 L15.4 51.7 Z"
           id="glyph31" />
        <glyph
           unicode="h"
           horiz-adv-x="55.6"
           d="M6.4 71.4 L6.4 0 L14.9 0 L14.9 29.2 Q14.9 32.7 15.85 35.65 Q16.8 38.6 18.7 40.8 Q20.6 43 23.45 44.2 Q26.3 45.4 30.2 45.4 Q35.1 45.4 37.9 42.6 Q40.7 39.8 40.7 35 L40.7 0 L49.2 0 L49.2 34 Q49.2 38.2 48.35 41.65 Q47.5 45.1 45.4 47.6 Q43.3 50.1 39.9 51.5 Q36.5 52.9 31.4 52.9 Q29.1 52.9 26.65 52.4 Q24.2 51.9 21.95 50.85 Q19.7 49.8 17.9 48.15 Q16.1 46.5 15.1 44.1 L14.9 44.1 L14.9 71.4 Z"
           id="glyph32" />
        <glyph
           unicode="W"
           horiz-adv-x="92.6"
           d="M72.3 0 L91.4 71.4 L81.9 71.4 L67.4 12 L67.2 12 L51.4 71.4 L41.1 71.4 L25.1 12 L24.9 12 L10.9 71.4 L1.2 71.4 L19.5 0 L29.4 0 L45.9 60 L46.1 60 L62.4 0 Z"
           id="glyph33" />
      </font>
      <font
         horiz-adv-x="50.0"
         id="font2">
        <font-face
           ascent="97.5"
           descent="21.699999"
           units-per-em="100"
           style="font-style:normal; font-family:Helvetica Neue; font-weight:bold;"
           id="font-face33" />
        <missing-glyph
           horiz-adv-x="50.0"
           d="M39.1 60.7 L11.1 60.7 L11.1 9.5 L39.1 9.5 ZM48.2 69.8 L48.2 0.3 L1.7 0.3 L1.7 69.8 Z"
           id="missing-glyph33" />
        <glyph
           unicode="D"
           horiz-adv-x="74.1"
           d="M22.6 13.2 L22.6 58.2 L33.8 58.2 Q39.6 58.2 43.55 56.55 Q47.5 54.9 49.9 51.8 Q52.3 48.7 53.35 44.35 Q54.4 40 54.4 34.6 Q54.4 28.7 52.9 24.6 Q51.4 20.5 48.9 17.95 Q46.4 15.4 43.2 14.3 Q40 13.2 36.6 13.2 ZM6.9 71.4 L6.9 0 L37.7 0 Q45.9 0 51.95 2.75 Q58 5.5 62.05 10.3 Q66.1 15.1 68.1 21.7 Q70.1 28.3 70.1 36.1 Q70.1 45 67.65 51.6 Q65.2 58.2 60.85 62.6 Q56.5 67 50.55 69.2 Q44.6 71.4 37.7 71.4 Z"
           id="glyph34" />
        <glyph
           unicode="E"
           horiz-adv-x="64.8"
           d="M6.9 71.4 L6.9 0 L61.1 0 L61.1 13.2 L22.6 13.2 L22.6 30.7 L57.2 30.7 L57.2 42.9 L22.6 42.9 L22.6 58.2 L60.3 58.2 L60.3 71.4 Z"
           id="glyph35" />
        <glyph
           unicode="L"
           horiz-adv-x="59.3"
           d="M6.9 71.4 L6.9 0 L57.4 0 L57.4 13.2 L22.6 13.2 L22.6 71.4 Z"
           id="glyph36" />
        <glyph
           unicode="f"
           horiz-adv-x="33.3"
           d="M8.5 42.2 L8.5 0 L22.7 0 L22.7 42.2 L32.5 42.2 L32.5 51.7 L22.7 51.7 L22.7 54.8 Q22.7 58 23.95 59.35 Q25.2 60.7 28.1 60.7 Q30.8 60.7 33.3 60.4 L33.3 71 Q31.5 71.1 29.6 71.25 Q27.7 71.4 25.8 71.4 Q17.1 71.4 12.8 67 Q8.5 62.6 8.5 55.7 L8.5 51.7 L0 51.7 L0 42.2 Z"
           id="glyph37" />
        <glyph
           unicode="o"
           horiz-adv-x="61.1"
           d="M18 25.8 Q18 28.9 18.6 31.9 Q19.2 34.9 20.65 37.2 Q22.1 39.5 24.5 40.95 Q26.9 42.4 30.5 42.4 Q34.1 42.4 36.55 40.95 Q39 39.5 40.45 37.2 Q41.9 34.9 42.5 31.9 Q43.1 28.9 43.1 25.8 Q43.1 22.7 42.5 19.75 Q41.9 16.8 40.45 14.45 Q39 12.1 36.55 10.7 Q34.1 9.3 30.5 9.3 Q26.9 9.3 24.5 10.7 Q22.1 12.1 20.65 14.45 Q19.2 16.8 18.6 19.75 Q18 22.7 18 25.8 ZM3.8 25.8 Q3.8 19.6 5.7 14.6 Q7.6 9.6 11.1 6.05 Q14.6 2.5 19.5 0.6 Q24.4 -1.3 30.5 -1.3 Q36.6 -1.3 41.55 0.6 Q46.5 2.5 50 6.05 Q53.5 9.6 55.4 14.6 Q57.3 19.6 57.3 25.8 Q57.3 32 55.4 37.05 Q53.5 42.1 50 45.65 Q46.5 49.2 41.55 51.15 Q36.6 53.1 30.5 53.1 Q24.4 53.1 19.5 51.15 Q14.6 49.2 11.1 45.65 Q7.6 42.1 5.7 37.05 Q3.8 32 3.8 25.8 Z"
           id="glyph38" />
        <glyph
           unicode="l"
           horiz-adv-x="25.8"
           d="M5.8 71.4 L5.8 0 L20 0 L20 71.4 Z"
           id="glyph39" />
        <glyph
           unicode="P"
           horiz-adv-x="66.7"
           d="M22.6 37.8 L22.6 59.2 L34.8 59.2 Q37.5 59.2 40 58.8 Q42.5 58.4 44.4 57.25 Q46.3 56.1 47.45 54 Q48.6 51.9 48.6 48.5 Q48.6 45.1 47.45 43 Q46.3 40.9 44.4 39.75 Q42.5 38.6 40 38.2 Q37.5 37.8 34.8 37.8 ZM6.9 71.4 L6.9 0 L22.6 0 L22.6 25.6 L39.1 25.6 Q45.8 25.6 50.5 27.55 Q55.2 29.5 58.15 32.7 Q61.1 35.9 62.45 40.05 Q63.8 44.2 63.8 48.5 Q63.8 52.9 62.45 57 Q61.1 61.1 58.15 64.3 Q55.2 67.5 50.5 69.45 Q45.8 71.4 39.1 71.4 Z"
           id="glyph40" />
        <glyph
           unicode=" "
           horiz-adv-x="27.8"
           d=""
           id="glyph41" />
        <glyph
           unicode="r"
           horiz-adv-x="38.9"
           d="M5.4 51.7 L5.4 0 L19.6 0 L19.6 23.3 Q19.6 26.8 20.3 29.8 Q21 32.8 22.65 35.05 Q24.3 37.3 27 38.6 Q29.7 39.9 33.6 39.9 Q34.9 39.9 36.3 39.75 Q37.7 39.6 38.7 39.4 L38.7 52.6 Q37 53.1 35.6 53.1 Q32.9 53.1 30.4 52.3 Q27.9 51.5 25.7 50.05 Q23.5 48.6 21.8 46.55 Q20.1 44.5 19.1 42.1 L18.9 42.1 L18.9 51.7 Z"
           id="glyph42" />
        <glyph
           unicode="e"
           horiz-adv-x="57.4"
           d="M40.2 31.4 L17.1 31.4 Q17.2 32.9 17.75 34.8 Q18.3 36.7 19.65 38.4 Q21 40.1 23.25 41.25 Q25.5 42.4 28.9 42.4 Q34.1 42.4 36.65 39.6 Q39.2 36.8 40.2 31.4 ZM17.1 22.4 L54.4 22.4 Q54.8 28.4 53.4 33.9 Q52 39.4 48.85 43.7 Q45.7 48 40.8 50.55 Q35.9 53.1 29.3 53.1 Q23.4 53.1 18.55 51 Q13.7 48.9 10.2 45.25 Q6.7 41.6 4.8 36.6 Q2.9 31.6 2.9 25.8 Q2.9 19.8 4.75 14.8 Q6.6 9.8 10 6.2 Q13.4 2.6 18.3 0.65 Q23.2 -1.3 29.3 -1.3 Q38.1 -1.3 44.3 2.7 Q50.5 6.7 53.5 16 L41 16 Q40.3 13.6 37.2 11.45 Q34.1 9.3 29.8 9.3 Q23.8 9.3 20.6 12.4 Q17.4 15.5 17.1 22.4 Z"
           id="glyph43" />
        <glyph
           unicode="t"
           horiz-adv-x="35.2"
           d="M23.4 51.7 L23.4 67.2 L9.2 67.2 L9.2 51.7 L0.6 51.7 L0.6 42.2 L9.2 42.2 L9.2 11.7 Q9.2 7.8 10.5 5.4 Q11.8 3 14.05 1.7 Q16.3 0.4 19.25 -0.05 Q22.2 -0.5 25.5 -0.5 Q27.6 -0.5 29.8 -0.4 Q32 -0.3 33.8 0 L33.8 11 Q32.8 10.8 31.7 10.7 Q30.6 10.6 29.4 10.6 Q25.8 10.6 24.6 11.8 Q23.4 13 23.4 16.6 L23.4 42.2 L33.8 42.2 L33.8 51.7 Z"
           id="glyph44" />
        <glyph
           unicode="a"
           horiz-adv-x="57.4"
           d="M4.8 35.8 Q5.1 40.8 7.3 44.1 Q9.5 47.4 12.9 49.4 Q16.3 51.4 20.55 52.25 Q24.8 53.1 29.1 53.1 Q33 53.1 37 52.55 Q41 52 44.3 50.4 Q47.6 48.8 49.7 45.95 Q51.8 43.1 51.8 38.4 L51.8 11.5 Q51.8 8 52.2 4.8 Q52.6 1.6 53.6 0 L39.2 0 Q38.8 1.2 38.55 2.45 Q38.3 3.7 38.2 5 Q34.8 1.5 30.2 0.1 Q25.6 -1.3 20.8 -1.3 Q17.1 -1.3 13.9 -0.4 Q10.7 0.5 8.3 2.4 Q5.9 4.3 4.55 7.2 Q3.2 10.1 3.2 14.1 Q3.2 18.5 4.75 21.35 Q6.3 24.2 8.75 25.9 Q11.2 27.6 14.35 28.45 Q17.5 29.3 20.7 29.8 Q23.9 30.3 27 30.6 Q30.1 30.9 32.5 31.5 Q34.9 32.1 36.3 33.25 Q37.7 34.4 37.6 36.6 Q37.6 38.9 36.85 40.25 Q36.1 41.6 34.85 42.35 Q33.6 43.1 31.95 43.35 Q30.3 43.6 28.4 43.6 Q24.2 43.6 21.8 41.8 Q19.4 40 19 35.8 ZM37.6 25.3 Q36.7 24.5 35.35 24.05 Q34 23.6 32.45 23.3 Q30.9 23 29.2 22.8 Q27.5 22.6 25.8 22.3 Q24.2 22 22.65 21.5 Q21.1 21 19.95 20.15 Q18.8 19.3 18.1 18 Q17.4 16.7 17.4 14.7 Q17.4 12.8 18.1 11.5 Q18.8 10.2 20 9.45 Q21.2 8.7 22.8 8.4 Q24.4 8.1 26.1 8.1 Q30.3 8.1 32.6 9.5 Q34.9 10.9 36 12.85 Q37.1 14.8 37.35 16.8 Q37.6 18.8 37.6 20 Z"
           id="glyph45" />
        <glyph
           unicode="c"
           horiz-adv-x="57.4"
           d="M40.6 33.5 L54.5 33.5 Q54.2 38.5 52.1 42.15 Q50 45.8 46.65 48.25 Q43.3 50.7 39.05 51.9 Q34.8 53.1 30.2 53.1 Q23.9 53.1 19 51 Q14.1 48.9 10.7 45.15 Q7.3 41.4 5.55 36.25 Q3.8 31.1 3.8 25.1 Q3.8 19.3 5.7 14.45 Q7.6 9.6 11 6.1 Q14.4 2.6 19.25 0.65 Q24.1 -1.3 29.9 -1.3 Q40.2 -1.3 46.8 4.1 Q53.4 9.5 54.8 19.8 L41.1 19.8 Q40.4 15 37.65 12.15 Q34.9 9.3 29.8 9.3 Q26.5 9.3 24.2 10.8 Q21.9 12.3 20.55 14.65 Q19.2 17 18.6 19.9 Q18 22.8 18 25.6 Q18 28.5 18.6 31.45 Q19.2 34.4 20.65 36.85 Q22.1 39.3 24.4 40.85 Q26.7 42.4 30.1 42.4 Q39.2 42.4 40.6 33.5 Z"
           id="glyph46" />
        <glyph
           unicode="S"
           horiz-adv-x="64.9"
           d="M17.6 23.7 L2.4 23.7 Q2.3 17.1 4.8 12.3 Q7.3 7.5 11.55 4.4 Q15.8 1.3 21.35 -0.15 Q26.9 -1.6 32.8 -1.6 Q40.1 -1.6 45.65 0.1 Q51.2 1.8 54.95 4.85 Q58.7 7.9 60.6 12.1 Q62.5 16.3 62.5 21.2 Q62.5 27.2 59.95 31.05 Q57.4 34.9 53.9 37.2 Q50.4 39.5 46.85 40.55 Q43.3 41.6 41.3 42 Q34.6 43.7 30.45 44.8 Q26.3 45.9 23.95 47 Q21.6 48.1 20.8 49.4 Q20 50.7 20 52.8 Q20 55.1 21 56.6 Q22 58.1 23.55 59.1 Q25.1 60.1 27 60.5 Q28.9 60.9 30.8 60.9 Q33.7 60.9 36.15 60.4 Q38.6 59.9 40.5 58.7 Q42.4 57.5 43.55 55.4 Q44.7 53.3 44.9 50.1 L60.1 50.1 Q60.1 56.3 57.75 60.65 Q55.4 65 51.4 67.8 Q47.4 70.6 42.25 71.85 Q37.1 73.1 31.5 73.1 Q26.7 73.1 21.9 71.8 Q17.1 70.5 13.3 67.8 Q9.5 65.1 7.15 61.05 Q4.8 57 4.8 51.5 Q4.8 46.6 6.65 43.15 Q8.5 39.7 11.5 37.4 Q14.5 35.1 18.3 33.65 Q22.1 32.2 26.1 31.2 Q30 30.1 33.8 29.2 Q37.6 28.3 40.6 27.1 Q43.6 25.9 45.45 24.1 Q47.3 22.3 47.3 19.4 Q47.3 16.7 45.9 14.95 Q44.5 13.2 42.4 12.2 Q40.3 11.2 37.9 10.85 Q35.5 10.5 33.4 10.5 Q30.3 10.5 27.4 11.25 Q24.5 12 22.35 13.55 Q20.2 15.1 18.9 17.6 Q17.6 20.1 17.6 23.7 Z"
           id="glyph47" />
      </font>
    </defs>
    <g
       style="fill:white; stroke:white;"
       id="g47">
      <rect
         x="0"
         y="0"
         width="560"
         style="clip-path:url(#clipPath1); stroke:none;"
         height="420"
         clip-path="url(#clipPath1)"
         id="rect47" />
    </g>
    <g
       style="fill:white; text-rendering:optimizeSpeed; color-rendering:optimizeSpeed; image-rendering:optimizeSpeed; shape-rendering:crispEdges; stroke:white; color-interpolation:sRGB;"
       id="g48">
      <rect
         x="0"
         width="560"
         height="420"
         y="0"
         style="stroke:none;"
         id="rect48" />
      <path
         style="stroke:none;"
         d="M118.75 374 L461.25 374 L461.25 31.5 L118.75 31.5 Z"
         id="path48" />
    </g>
    <g
       style="stroke-linecap:butt; fill-opacity:0.149; fill:rgb(38,38,38); text-rendering:geometricPrecision; image-rendering:optimizeQuality; color-rendering:optimizeQuality; stroke-linejoin:round; stroke:rgb(38,38,38); color-interpolation:linearRGB; stroke-width:0.5; stroke-opacity:0.149;"
       id="g81">
      <line
         y2="31.5"
         style="fill:none;"
         x1="128.1462"
         x2="128.1462"
         y1="374"
         id="line48" />
      <line
         y2="31.5"
         style="fill:none;"
         x1="159.7405"
         x2="159.7405"
         y1="374"
         id="line49" />
      <line
         y2="31.5"
         style="fill:none;"
         x1="191.3349"
         x2="191.3349"
         y1="374"
         id="line50" />
      <line
         y2="31.5"
         style="fill:none;"
         x1="222.9293"
         x2="222.9293"
         y1="374"
         id="line51" />
      <line
         y2="31.5"
         style="fill:none;"
         x1="254.5236"
         x2="254.5236"
         y1="374"
         id="line52" />
      <line
         y2="31.5"
         style="fill:none;"
         x1="286.118"
         x2="286.118"
         y1="374"
         id="line53" />
      <line
         y2="31.5"
         style="fill:none;"
         x1="317.7124"
         x2="317.7124"
         y1="374"
         id="line54" />
      <line
         y2="31.5"
         style="fill:none;"
         x1="349.3067"
         x2="349.3067"
         y1="374"
         id="line55" />
      <line
         y2="31.5"
         style="fill:none;"
         x1="380.9011"
         x2="380.9011"
         y1="374"
         id="line56" />
      <line
         y2="31.5"
         style="fill:none;"
         x1="412.4955"
         x2="412.4955"
         y1="374"
         id="line57" />
      <line
         y2="31.5"
         style="fill:none;"
         x1="444.0898"
         x2="444.0898"
         y1="374"
         id="line58" />
      <line
         y2="364.6038"
         style="fill:none;"
         x1="461.25"
         x2="118.75"
         y1="364.6038"
         id="line59" />
      <line
         y2="333.0095"
         style="fill:none;"
         x1="461.25"
         x2="118.75"
         y1="333.0095"
         id="line60" />
      <line
         y2="301.4151"
         style="fill:none;"
         x1="461.25"
         x2="118.75"
         y1="301.4151"
         id="line61" />
      <line
         y2="269.8207"
         style="fill:none;"
         x1="461.25"
         x2="118.75"
         y1="269.8207"
         id="line62" />
      <line
         y2="238.2264"
         style="fill:none;"
         x1="461.25"
         x2="118.75"
         y1="238.2264"
         id="line63" />
      <line
         y2="206.632"
         style="fill:none;"
         x1="461.25"
         x2="118.75"
         y1="206.632"
         id="line64" />
      <line
         y2="175.0376"
         style="fill:none;"
         x1="461.25"
         x2="118.75"
         y1="175.0376"
         id="line65" />
      <line
         y2="143.4433"
         style="fill:none;"
         x1="461.25"
         x2="118.75"
         y1="143.4433"
         id="line66" />
      <line
         y2="111.8489"
         style="fill:none;"
         x1="461.25"
         x2="118.75"
         y1="111.8489"
         id="line67" />
      <line
         y2="80.2545"
         style="fill:none;"
         x1="461.25"
         x2="118.75"
         y1="80.2545"
         id="line68" />
      <line
         y2="48.6602"
         style="fill:none;"
         x1="461.25"
         x2="118.75"
         y1="48.6602"
         id="line69" />
      <line
         x1="118.75"
         x2="461.25"
         y1="374"
         style="stroke-linecap:square; fill-opacity:1; fill:none; stroke-opacity:1;"
         y2="374"
         id="line70" />
      <line
         x1="128.1462"
         x2="128.1462"
         y1="374"
         style="stroke-linecap:square; fill-opacity:1; fill:none; stroke-opacity:1;"
         y2="370.575"
         id="line71" />
      <line
         x1="159.7405"
         x2="159.7405"
         y1="374"
         style="stroke-linecap:square; fill-opacity:1; fill:none; stroke-opacity:1;"
         y2="370.575"
         id="line72" />
      <line
         x1="191.3349"
         x2="191.3349"
         y1="374"
         style="stroke-linecap:square; fill-opacity:1; fill:none; stroke-opacity:1;"
         y2="370.575"
         id="line73" />
      <line
         x1="222.9293"
         x2="222.9293"
         y1="374"
         style="stroke-linecap:square; fill-opacity:1; fill:none; stroke-opacity:1;"
         y2="370.575"
         id="line74" />
      <line
         x1="254.5236"
         x2="254.5236"
         y1="374"
         style="stroke-linecap:square; fill-opacity:1; fill:none; stroke-opacity:1;"
         y2="370.575"
         id="line75" />
      <line
         x1="286.118"
         x2="286.118"
         y1="374"
         style="stroke-linecap:square; fill-opacity:1; fill:none; stroke-opacity:1;"
         y2="370.575"
         id="line76" />
      <line
         x1="317.7124"
         x2="317.7124"
         y1="374"
         style="stroke-linecap:square; fill-opacity:1; fill:none; stroke-opacity:1;"
         y2="370.575"
         id="line77" />
      <line
         x1="349.3067"
         x2="349.3067"
         y1="374"
         style="stroke-linecap:square; fill-opacity:1; fill:none; stroke-opacity:1;"
         y2="370.575"
         id="line78" />
      <line
         x1="380.9011"
         x2="380.9011"
         y1="374"
         style="stroke-linecap:square; fill-opacity:1; fill:none; stroke-opacity:1;"
         y2="370.575"
         id="line79" />
      <line
         x1="412.4955"
         x2="412.4955"
         y1="374"
         style="stroke-linecap:square; fill-opacity:1; fill:none; stroke-opacity:1;"
         y2="370.575"
         id="line80" />
      <line
         x1="444.0898"
         x2="444.0898"
         y1="374"
         style="stroke-linecap:square; fill-opacity:1; fill:none; stroke-opacity:1;"
         y2="370.575"
         id="line81" />
    </g>
    <g
       transform="translate(128.1462,378)"
       style="font-size:10px; fill:rgb(38,38,38); text-rendering:geometricPrecision; image-rendering:optimizeQuality; color-rendering:optimizeQuality; font-family:'Helvetica Neue'; stroke:rgb(38,38,38); color-interpolation:linearRGB;"
       id="g82">
      <text
         x="-11.5"
         xml:space="preserve"
         y="10"
         style="stroke:none;"
         id="text81">2000</text>
    </g>
    <g
       transform="translate(159.7405,378)"
       style="font-size:10px; fill:rgb(38,38,38); text-rendering:geometricPrecision; image-rendering:optimizeQuality; color-rendering:optimizeQuality; font-family:'Helvetica Neue'; stroke:rgb(38,38,38); color-interpolation:linearRGB;"
       id="g83">
      <text
         x="-11.5"
         xml:space="preserve"
         y="10"
         style="stroke:none;"
         id="text82">3000</text>
    </g>
    <g
       transform="translate(191.3349,378)"
       style="font-size:10px; fill:rgb(38,38,38); text-rendering:geometricPrecision; image-rendering:optimizeQuality; color-rendering:optimizeQuality; font-family:'Helvetica Neue'; stroke:rgb(38,38,38); color-interpolation:linearRGB;"
       id="g84">
      <text
         x="-11.5"
         xml:space="preserve"
         y="10"
         style="stroke:none;"
         id="text83">4000</text>
    </g>
    <g
       transform="translate(222.9293,378)"
       style="font-size:10px; fill:rgb(38,38,38); text-rendering:geometricPrecision; image-rendering:optimizeQuality; color-rendering:optimizeQuality; font-family:'Helvetica Neue'; stroke:rgb(38,38,38); color-interpolation:linearRGB;"
       id="g85">
      <text
         x="-11.5"
         xml:space="preserve"
         y="10"
         style="stroke:none;"
         id="text84">5000</text>
    </g>
    <g
       transform="translate(254.5236,378)"
       style="font-size:10px; fill:rgb(38,38,38); text-rendering:geometricPrecision; image-rendering:optimizeQuality; color-rendering:optimizeQuality; font-family:'Helvetica Neue'; stroke:rgb(38,38,38); color-interpolation:linearRGB;"
       id="g86">
      <text
         x="-11.5"
         xml:space="preserve"
         y="10"
         style="stroke:none;"
         id="text85">6000</text>
    </g>
    <g
       transform="translate(286.118,378)"
       style="font-size:10px; fill:rgb(38,38,38); text-rendering:geometricPrecision; image-rendering:optimizeQuality; color-rendering:optimizeQuality; font-family:'Helvetica Neue'; stroke:rgb(38,38,38); color-interpolation:linearRGB;"
       id="g87">
      <text
         x="-11.5"
         xml:space="preserve"
         y="10"
         style="stroke:none;"
         id="text86">7000</text>
    </g>
    <g
       transform="translate(317.7124,378)"
       style="font-size:10px; fill:rgb(38,38,38); text-rendering:geometricPrecision; image-rendering:optimizeQuality; color-rendering:optimizeQuality; font-family:'Helvetica Neue'; stroke:rgb(38,38,38); color-interpolation:linearRGB;"
       id="g88">
      <text
         x="-11.5"
         xml:space="preserve"
         y="10"
         style="stroke:none;"
         id="text87">8000</text>
    </g>
    <g
       transform="translate(349.3067,378)"
       style="font-size:10px; fill:rgb(38,38,38); text-rendering:geometricPrecision; image-rendering:optimizeQuality; color-rendering:optimizeQuality; font-family:'Helvetica Neue'; stroke:rgb(38,38,38); color-interpolation:linearRGB;"
       id="g89">
      <text
         x="-11.5"
         xml:space="preserve"
         y="10"
         style="stroke:none;"
         id="text88">9000</text>
    </g>
    <g
       transform="translate(380.9011,378)"
       style="font-size:10px; fill:rgb(38,38,38); text-rendering:geometricPrecision; image-rendering:optimizeQuality; color-rendering:optimizeQuality; font-family:'Helvetica Neue'; stroke:rgb(38,38,38); color-interpolation:linearRGB;"
       id="g90">
      <text
         x="-14"
         xml:space="preserve"
         y="10"
         style="stroke:none;"
         id="text89">10000</text>
    </g>
    <g
       transform="translate(412.4955,378)"
       style="font-size:10px; fill:rgb(38,38,38); text-rendering:geometricPrecision; image-rendering:optimizeQuality; color-rendering:optimizeQuality; font-family:'Helvetica Neue'; stroke:rgb(38,38,38); color-interpolation:linearRGB;"
       id="g91">
      <text
         x="-14"
         xml:space="preserve"
         y="10"
         style="stroke:none;"
         id="text90">11000</text>
    </g>
    <g
       transform="translate(444.0898,378)"
       style="font-size:10px; fill:rgb(38,38,38); text-rendering:geometricPrecision; image-rendering:optimizeQuality; color-rendering:optimizeQuality; font-family:'Helvetica Neue'; stroke:rgb(38,38,38); color-interpolation:linearRGB;"
       id="g92">
      <text
         x="-14"
         xml:space="preserve"
         y="10"
         style="stroke:none;"
         id="text91">12000</text>
    </g>
    <g
       transform="translate(290.0002,391.5)"
       style="font-size:11px; fill:rgb(38,38,38); text-rendering:geometricPrecision; image-rendering:optimizeQuality; color-rendering:optimizeQuality; font-family:'Helvetica Neue'; stroke:rgb(38,38,38); color-interpolation:linearRGB;"
       id="g93">
      <text
         x="-8"
         xml:space="preserve"
         y="11"
         style="stroke:none;"
         id="text92">f(q)</text>
    </g>
    <g
       style="fill:rgb(38,38,38); text-rendering:geometricPrecision; image-rendering:optimizeQuality; color-rendering:optimizeQuality; stroke-linejoin:round; stroke:rgb(38,38,38); color-interpolation:linearRGB; stroke-width:0.5;"
       id="g104">
      <line
         y2="31.5"
         style="fill:none;"
         x1="118.75"
         x2="118.75"
         y1="374"
         id="line93" />
      <line
         y2="364.6038"
         style="fill:none;"
         x1="118.75"
         x2="122.175"
         y1="364.6038"
         id="line94" />
      <line
         y2="333.0095"
         style="fill:none;"
         x1="118.75"
         x2="122.175"
         y1="333.0095"
         id="line95" />
      <line
         y2="301.4151"
         style="fill:none;"
         x1="118.75"
         x2="122.175"
         y1="301.4151"
         id="line96" />
      <line
         y2="269.8207"
         style="fill:none;"
         x1="118.75"
         x2="122.175"
         y1="269.8207"
         id="line97" />
      <line
         y2="238.2264"
         style="fill:none;"
         x1="118.75"
         x2="122.175"
         y1="238.2264"
         id="line98" />
      <line
         y2="206.632"
         style="fill:none;"
         x1="118.75"
         x2="122.175"
         y1="206.632"
         id="line99" />
      <line
         y2="175.0376"
         style="fill:none;"
         x1="118.75"
         x2="122.175"
         y1="175.0376"
         id="line100" />
      <line
         y2="143.4433"
         style="fill:none;"
         x1="118.75"
         x2="122.175"
         y1="143.4433"
         id="line101" />
      <line
         y2="111.8489"
         style="fill:none;"
         x1="118.75"
         x2="122.175"
         y1="111.8489"
         id="line102" />
      <line
         y2="80.2545"
         style="fill:none;"
         x1="118.75"
         x2="122.175"
         y1="80.2545"
         id="line103" />
      <line
         y2="48.6602"
         style="fill:none;"
         x1="118.75"
         x2="122.175"
         y1="48.6602"
         id="line104" />
    </g>
    <g
       transform="translate(114.75,364.6038)"
       style="font-size:10px; fill:rgb(38,38,38); text-rendering:geometricPrecision; image-rendering:optimizeQuality; color-rendering:optimizeQuality; font-family:'Helvetica Neue'; stroke:rgb(38,38,38); color-interpolation:linearRGB;"
       id="g105">
      <text
         x="-23"
         xml:space="preserve"
         y="3.5"
         style="stroke:none;"
         id="text104">2000</text>
    </g>
    <g
       transform="translate(114.75,333.0095)"
       style="font-size:10px; fill:rgb(38,38,38); text-rendering:geometricPrecision; image-rendering:optimizeQuality; color-rendering:optimizeQuality; font-family:'Helvetica Neue'; stroke:rgb(38,38,38); color-interpolation:linearRGB;"
       id="g106">
      <text
         x="-23"
         xml:space="preserve"
         y="3.5"
         style="stroke:none;"
         id="text105">3000</text>
    </g>
    <g
       transform="translate(114.75,301.4151)"
       style="font-size:10px; fill:rgb(38,38,38); text-rendering:geometricPrecision; image-rendering:optimizeQuality; color-rendering:optimizeQuality; font-family:'Helvetica Neue'; stroke:rgb(38,38,38); color-interpolation:linearRGB;"
       id="g107">
      <text
         x="-23"
         xml:space="preserve"
         y="3.5"
         style="stroke:none;"
         id="text106">4000</text>
    </g>
    <g
       transform="translate(114.75,269.8207)"
       style="font-size:10px; fill:rgb(38,38,38); text-rendering:geometricPrecision; image-rendering:optimizeQuality; color-rendering:optimizeQuality; font-family:'Helvetica Neue'; stroke:rgb(38,38,38); color-interpolation:linearRGB;"
       id="g108">
      <text
         x="-23"
         xml:space="preserve"
         y="3.5"
         style="stroke:none;"
         id="text107">5000</text>
    </g>
    <g
       transform="translate(114.75,238.2264)"
       style="font-size:10px; fill:rgb(38,38,38); text-rendering:geometricPrecision; image-rendering:optimizeQuality; color-rendering:optimizeQuality; font-family:'Helvetica Neue'; stroke:rgb(38,38,38); color-interpolation:linearRGB;"
       id="g109">
      <text
         x="-23"
         xml:space="preserve"
         y="3.5"
         style="stroke:none;"
         id="text108">6000</text>
    </g>
    <g
       transform="translate(114.75,206.632)"
       style="font-size:10px; fill:rgb(38,38,38); text-rendering:geometricPrecision; image-rendering:optimizeQuality; color-rendering:optimizeQuality; font-family:'Helvetica Neue'; stroke:rgb(38,38,38); color-interpolation:linearRGB;"
       id="g110">
      <text
         x="-23"
         xml:space="preserve"
         y="3.5"
         style="stroke:none;"
         id="text109">7000</text>
    </g>
    <g
       transform="translate(114.75,175.0376)"
       style="font-size:10px; fill:rgb(38,38,38); text-rendering:geometricPrecision; image-rendering:optimizeQuality; color-rendering:optimizeQuality; font-family:'Helvetica Neue'; stroke:rgb(38,38,38); color-interpolation:linearRGB;"
       id="g111">
      <text
         x="-23"
         xml:space="preserve"
         y="3.5"
         style="stroke:none;"
         id="text110">8000</text>
    </g>
    <g
       transform="translate(114.75,143.4433)"
       style="font-size:10px; fill:rgb(38,38,38); text-rendering:geometricPrecision; image-rendering:optimizeQuality; color-rendering:optimizeQuality; font-family:'Helvetica Neue'; stroke:rgb(38,38,38); color-interpolation:linearRGB;"
       id="g112">
      <text
         x="-23"
         xml:space="preserve"
         y="3.5"
         style="stroke:none;"
         id="text111">9000</text>
    </g>
    <g
       transform="translate(114.75,111.8489)"
       style="font-size:10px; fill:rgb(38,38,38); text-rendering:geometricPrecision; image-rendering:optimizeQuality; color-rendering:optimizeQuality; font-family:'Helvetica Neue'; stroke:rgb(38,38,38); color-interpolation:linearRGB;"
       id="g113">
      <text
         x="-28"
         xml:space="preserve"
         y="3.5"
         style="stroke:none;"
         id="text112">10000</text>
    </g>
    <g
       transform="translate(114.75,80.2545)"
       style="font-size:10px; fill:rgb(38,38,38); text-rendering:geometricPrecision; image-rendering:optimizeQuality; color-rendering:optimizeQuality; font-family:'Helvetica Neue'; stroke:rgb(38,38,38); color-interpolation:linearRGB;"
       id="g114">
      <text
         x="-28"
         xml:space="preserve"
         y="3.5"
         style="stroke:none;"
         id="text113">11000</text>
    </g>
    <g
       transform="translate(114.75,48.6602)"
       style="font-size:10px; fill:rgb(38,38,38); text-rendering:geometricPrecision; image-rendering:optimizeQuality; color-rendering:optimizeQuality; font-family:'Helvetica Neue'; stroke:rgb(38,38,38); color-interpolation:linearRGB;"
       id="g115">
      <text
         x="-28"
         xml:space="preserve"
         y="3.5"
         style="stroke:none;"
         id="text114">12000</text>
    </g>
    <g
       transform="translate(83.75,202.7498) rotate(-90)"
       style="font-size:11px; fill:rgb(38,38,38); text-rendering:geometricPrecision; image-rendering:optimizeQuality; color-rendering:optimizeQuality; font-family:'Helvetica Neue'; stroke:rgb(38,38,38); color-interpolation:linearRGB;"
       id="g116">
      <text
         x="-20.5"
         xml:space="preserve"
         y="-3"
         style="stroke:none;"
         id="text115">g = f(2q)</text>
    </g>
    <g
       transform="translate(290.0003,30.125)"
       style="font-size:11px; text-rendering:geometricPrecision; image-rendering:optimizeQuality; color-rendering:optimizeQuality; font-family:'Helvetica Neue'; color-interpolation:linearRGB; font-weight:bold;"
       id="g117">
      <text
         x="-159.23578"
         xml:space="preserve"
         y="-8.4370079"
         style="font-size:17.2937px;stroke:none;stroke-width:1.57216"
         id="text116"
         transform="scale(0.88227629,1.1334318)">Photoresistor Data Based on LED strip </text>
    </g>
    <g
       transform="translate(227.428,370.3246)"
       style="fill:red; text-rendering:geometricPrecision; color-rendering:optimizeQuality; image-rendering:optimizeQuality; color-interpolation:linearRGB; stroke:red;"
       id="g160">
      <circle
         r="3"
         style="stroke:none;"
         cx="0"
         cy="0"
         id="circle117" />
      <circle
         r="3"
         style="stroke:none;"
         cx="0"
         transform="translate(-61.6845,-192.5051)"
         cy="0"
         id="circle118" />
      <circle
         r="3"
         style="stroke:none;"
         cx="0"
         transform="translate(-88.3315,-54.4712)"
         cy="0"
         id="circle119" />
      <circle
         r="3"
         style="stroke:none;"
         cx="0"
         transform="translate(-97.711,-23.9457)"
         cy="0"
         id="circle120" />
      <circle
         r="3"
         style="stroke:none;"
         cx="0"
         transform="translate(-101.483,-13.2949)"
         cy="0"
         id="circle121" />
      <circle
         r="3"
         style="stroke:none;"
         cx="0"
         transform="translate(-104.0169,-8.7763)"
         cy="0"
         id="circle122" />
      <circle
         r="3"
         style="stroke:none;"
         cx="0"
         transform="translate(-104.7859,-4.8579)"
         cy="0"
         id="circle123" />
      <circle
         r="3"
         style="stroke:none;"
         cx="0"
         transform="translate(-105.855,-2.8103)"
         cy="0"
         id="circle124" />
      <circle
         r="3"
         style="stroke:none;"
         cx="0"
         transform="translate(-105.9602,-1.6587)"
         cy="0"
         id="circle125" />
      <circle
         r="3"
         style="stroke:none;"
         cx="0"
         transform="translate(-106.6866,-1.2085)"
         cy="0"
         id="circle126" />
      <circle
         r="3"
         style="stroke:none;"
         cx="0"
         transform="translate(-106.8913,0)"
         cy="0"
         id="circle127" />
      <circle
         transform="translate(141.114,-126.2217)"
         style="fill:blue; stroke:none;"
         r="3"
         cx="0"
         cy="0"
         id="circle128" />
      <circle
         transform="translate(125.743,-338.8246)"
         style="fill:blue; stroke:none;"
         r="3"
         cx="0"
         cy="0"
         id="circle129" />
      <circle
         transform="translate(129.9789,-276.5051)"
         style="fill:blue; stroke:none;"
         r="3"
         cx="0"
         cy="0"
         id="circle130" />
      <circle
         transform="translate(108.0603,-253.1998)"
         style="fill:blue; stroke:none;"
         r="3"
         cx="0"
         cy="0"
         id="circle131" />
      <circle
         transform="translate(94.0125,-234.9815)"
         style="fill:blue; stroke:none;"
         r="3"
         cx="0"
         cy="0"
         id="circle132" />
      <circle
         transform="translate(76.8429,-222.6193)"
         style="fill:blue; stroke:none;"
         r="3"
         cx="0"
         cy="0"
         id="circle133" />
      <circle
         transform="translate(69.748,-197.3574)"
         style="fill:blue; stroke:none;"
         r="3"
         cx="0"
         cy="0"
         id="circle134" />
      <circle
         transform="translate(43.8823,-186.305)"
         style="fill:blue; stroke:none;"
         r="3"
         cx="0"
         cy="0"
         id="circle135" />
      <circle
         transform="translate(38.5167,-165.4692)"
         style="fill:blue; stroke:none;"
         r="3"
         cx="0"
         cy="0"
         id="circle136" />
      <circle
         transform="translate(24.8139,-159.2628)"
         style="fill:blue; stroke:none;"
         r="3"
         cx="0"
         cy="0"
         id="circle137" />
      <circle
         transform="translate(13.59,-130.7359)"
         style="fill:blue; stroke:none;"
         r="3"
         cx="0"
         cy="0"
         id="circle138" />
      <circle
         transform="translate(55.475,-48.1533)"
         style="fill:lime; stroke:none;"
         r="3"
         cx="0"
         cy="0"
         id="circle139" />
      <circle
         transform="translate(46.1057,-218.7199)"
         style="fill:lime; stroke:none;"
         r="3"
         cx="0"
         cy="0"
         id="circle140" />
      <circle
         transform="translate(23.9027,-189.3678)"
         style="fill:lime; stroke:none;"
         r="3"
         cx="0"
         cy="0"
         id="circle141" />
      <circle
         transform="translate(-0.6973,-141.4464)"
         style="fill:lime; stroke:none;"
         r="3"
         cx="0"
         cy="0"
         id="circle142" />
      <circle
         transform="translate(-20.9199,-121.9081)"
         style="fill:lime; stroke:none;"
         r="3"
         cx="0"
         cy="0"
         id="circle143" />
      <circle
         transform="translate(-36.0201,-101.5721)"
         style="fill:lime; stroke:none;"
         r="3"
         cx="0"
         cy="0"
         id="circle144" />
      <circle
         transform="translate(-43.0928,-83.0085)"
         style="fill:lime; stroke:none;"
         r="3"
         cx="0"
         cy="0"
         id="circle145" />
      <circle
         transform="translate(-54.2703,-74.9336)"
         style="fill:lime; stroke:none;"
         r="3"
         cx="0"
         cy="0"
         id="circle146" />
      <circle
         transform="translate(-59.0154,-66.8233)"
         style="fill:lime; stroke:none;"
         r="3"
         cx="0"
         cy="0"
         id="circle147" />
      <circle
         transform="translate(-64.2314,-58.4534)"
         style="fill:lime; stroke:none;"
         r="3"
         cx="0"
         cy="0"
         id="circle148" />
      <circle
         transform="translate(-68.9904,-51.7291)"
         style="fill:lime; stroke:none;"
         r="3"
         cx="0"
         cy="0"
         id="circle149" />
      <circle
         transform="translate(-14.7283,2.0922)"
         style="fill:black; stroke:none;"
         r="3"
         cx="0"
         cy="0"
         id="circle150" />
      <circle
         transform="translate(-81.4503,-180.3934)"
         style="fill:black; stroke:none;"
         r="3"
         cx="0"
         cy="0"
         id="circle151" />
      <circle
         transform="translate(-97.5783,-33.7857)"
         style="fill:black; stroke:none;"
         r="3"
         cx="0"
         cy="0"
         id="circle152" />
      <circle
         transform="translate(-103.0024,-12.8346)"
         style="fill:black; stroke:none;"
         r="3"
         cx="0"
         cy="0"
         id="circle153" />
      <circle
         transform="translate(-105.7498,-6.2475)"
         style="fill:black; stroke:none;"
         r="3"
         cx="0"
         cy="0"
         id="circle154" />
      <circle
         transform="translate(-107.0948,-3.2817)"
         style="fill:black; stroke:none;"
         r="3"
         cx="0"
         cy="0"
         id="circle155" />
      <circle
         transform="translate(-108.4843,2.695)"
         style="fill:black; stroke:none;"
         r="3"
         cx="0"
         cy="0"
         id="circle156" />
      <circle
         transform="translate(-108.2894,0)"
         style="fill:black; stroke:none;"
         r="3"
         cx="0"
         cy="0"
         id="circle157" />
      <circle
         transform="translate(-108.4843,0.5352)"
         style="fill:black; stroke:none;"
         r="3"
         cx="0"
         cy="0"
         id="circle158" />
      <circle
         transform="translate(-107.896,0.8524)"
         style="fill:black; stroke:none;"
         r="3"
         cx="0"
         cy="0"
         id="circle159" />
      <circle
         transform="translate(-108.678,2.0922)"
         style="fill:black; stroke:none;"
         r="3"
         cx="0"
         cy="0"
         id="circle160" />
    </g>
    <g
       style="stroke-linecap:butt; text-rendering:geometricPrecision; image-rendering:optimizeQuality; color-rendering:optimizeQuality; stroke-linejoin:bevel; stroke-dasharray:10,6; color-interpolation:linearRGB; stroke-width:1.5; stroke-miterlimit:1;"
       id="g161">
      <line
         y2="31.5"
         style="fill:none;"
         x1="118.75"
         x2="461.25"
         y1="374"
         id="line160" />
    </g>
    <g
       style="fill:white; text-rendering:optimizeSpeed; color-rendering:optimizeSpeed; image-rendering:optimizeSpeed; shape-rendering:crispEdges; stroke:white; color-interpolation:sRGB;"
       id="g162">
      <path
         style="stroke:none;"
         d="M453 89 L453 39.5 L368 39.5 L368 89 Z"
         id="path161" />
    </g>
    <g
       transform="translate(405,47)"
       style="font-size:9px; text-rendering:geometricPrecision; color-rendering:optimizeQuality; image-rendering:optimizeQuality; font-family:'Helvetica Neue'; color-interpolation:linearRGB;"
       id="g163">
      <text
         x="0"
         xml:space="preserve"
         y="3.5"
         style="stroke:none;"
         id="text162">Red LED</text>
    </g>
    <g
       transform="translate(387,47)"
       style="fill:red; text-rendering:geometricPrecision; color-rendering:optimizeQuality; image-rendering:optimizeQuality; color-interpolation:linearRGB; stroke:red;"
       id="g164">
      <circle
         r="3"
         style="stroke:none;"
         cx="0"
         cy="0"
         id="circle163" />
    </g>
    <g
       transform="translate(405,58.5)"
       style="font-size:9px; text-rendering:geometricPrecision; color-rendering:optimizeQuality; image-rendering:optimizeQuality; font-family:'Helvetica Neue'; color-interpolation:linearRGB;"
       id="g165">
      <text
         x="0"
         xml:space="preserve"
         y="3.5"
         style="stroke:none;"
         id="text164">Blue LED</text>
    </g>
    <g
       transform="translate(387,58.5)"
       style="fill:blue; text-rendering:geometricPrecision; color-rendering:optimizeQuality; image-rendering:optimizeQuality; color-interpolation:linearRGB; stroke:blue;"
       id="g166">
      <circle
         r="3"
         style="stroke:none;"
         cx="0"
         cy="0"
         id="circle165" />
    </g>
    <g
       transform="translate(405,70)"
       style="font-size:9px; text-rendering:geometricPrecision; color-rendering:optimizeQuality; image-rendering:optimizeQuality; font-family:'Helvetica Neue'; color-interpolation:linearRGB;"
       id="g167">
      <text
         x="0"
         xml:space="preserve"
         y="3.5"
         style="stroke:none;"
         id="text166">Green LED</text>
    </g>
    <g
       transform="translate(387,70)"
       style="fill:lime; text-rendering:geometricPrecision; color-rendering:optimizeQuality; image-rendering:optimizeQuality; color-interpolation:linearRGB; stroke:lime;"
       id="g168">
      <circle
         r="3"
         style="stroke:none;"
         cx="0"
         cy="0"
         id="circle167" />
    </g>
    <g
       transform="translate(405,81.5)"
       style="font-size:9px; text-rendering:geometricPrecision; color-rendering:optimizeQuality; image-rendering:optimizeQuality; font-family:'Helvetica Neue'; color-interpolation:linearRGB;"
       id="g169">
      <text
         x="0"
         xml:space="preserve"
         y="3.5"
         style="stroke:none;"
         id="text168">White LED</text>
    </g>
    <g
       style="text-rendering:geometricPrecision; color-rendering:optimizeQuality; color-interpolation:linearRGB; image-rendering:optimizeQuality;"
       transform="translate(387,81.5)"
       id="g170">
      <circle
         r="3"
         style="stroke:none;"
         cx="0"
         cy="0"
         id="circle169" />
    </g>
    <g
       style="stroke-linecap:butt; fill:rgb(38,38,38); text-rendering:geometricPrecision; color-rendering:optimizeQuality; image-rendering:optimizeQuality; stroke:rgb(38,38,38); color-interpolation:linearRGB; stroke-width:0.5;"
       id="g171">
      <path
         d="M368 89 L368 39.5 L453 39.5 L453 89 Z"
         style="fill:none; fill-rule:evenodd;"
         id="path170" />
    </g>
  </g>
</svg>
