<?xml version="1.0" encoding="UTF-8" standalone="no"?>
<svg
   xmlns:dc="http://purl.org/dc/elements/1.1/"
   xmlns:cc="http://creativecommons.org/ns#"
   xmlns:rdf="http://www.w3.org/1999/02/22-rdf-syntax-ns#"
   xmlns:svg="http://www.w3.org/2000/svg"
   xmlns="http://www.w3.org/2000/svg"
   xmlns:xlink="http://www.w3.org/1999/xlink"
   xmlns:sodipodi="http://sodipodi.sourceforge.net/DTD/sodipodi-0.dtd"
   xmlns:inkscape="http://www.inkscape.org/namespaces/inkscape"
   width="298.85294mm"
   height="257.01428mm"
   viewBox="0 0 298.85294 257.01428"
   version="1.1"
   id="svg8"
   inkscape:version="0.92.5 (2060ec1f9f, 2020-04-08)"
   sodipodi:docname="waterhci3axes_003.svg">
  <defs
     id="defs2">
    <marker
       inkscape:isstock="true"
       style="overflow:visible"
       id="Arrow1Mend"
       refX="0"
       refY="0"
       orient="auto"
       inkscape:stockid="Arrow1Mend">
      <path
         transform="matrix(-0.4,0,0,-0.4,-4,0)"
         style="fill:#000000;fill-opacity:1;fill-rule:evenodd;stroke:#000000;stroke-width:1pt;stroke-opacity:1"
         d="M 0,0 5,-5 -12.5,0 5,5 Z"
         id="path1115" />
    </marker>
    <marker
       inkscape:isstock="true"
       style="overflow:visible"
       id="marker1628"
       refX="0"
       refY="0"
       orient="auto"
       inkscape:stockid="Arrow1Mend">
      <path
         transform="matrix(-0.4,0,0,-0.4,-4,0)"
         style="fill:#000000;fill-opacity:1;fill-rule:evenodd;stroke:#000000;stroke-width:1pt;stroke-opacity:1"
         d="M 0,0 5,-5 -12.5,0 5,5 Z"
         id="path1626" />
    </marker>
    <marker
       inkscape:isstock="true"
       style="overflow:visible"
       id="marker1662"
       refX="0"
       refY="0"
       orient="auto"
       inkscape:stockid="Arrow1Mend">
      <path
         transform="matrix(-0.4,0,0,-0.4,-4,0)"
         style="fill:#000000;fill-opacity:1;fill-rule:evenodd;stroke:#000000;stroke-width:1pt;stroke-opacity:1"
         d="M 0,0 5,-5 -12.5,0 5,5 Z"
         id="path1660" />
    </marker>
    <inkscape:path-effect
       lpeversion="1"
       is_visible="true"
       id="path-effect1566"
       effect="spiro" />
    <marker
       inkscape:collect="always"
       inkscape:stockid="Arrow1Mend"
       orient="auto"
       refY="0"
       refX="0"
       id="marker1388"
       style="overflow:visible"
       inkscape:isstock="true">
      <path
         id="path1386"
         d="M 0,0 5,-5 -12.5,0 5,5 Z"
         style="fill:#000000;fill-opacity:1;fill-rule:evenodd;stroke:#000000;stroke-width:1pt;stroke-opacity:1"
         transform="matrix(-0.4,0,0,-0.4,-4,0)" />
    </marker>
    <marker
       inkscape:stockid="Arrow1Mend"
       orient="auto"
       refY="0"
       refX="0"
       id="marker1378"
       style="overflow:visible"
       inkscape:isstock="true">
      <path
         id="path1376"
         d="M 0,0 5,-5 -12.5,0 5,5 Z"
         style="fill:#000000;fill-opacity:1;fill-rule:evenodd;stroke:#000000;stroke-width:1pt;stroke-opacity:1"
         transform="matrix(-0.4,0,0,-0.4,-4,0)" />
    </marker>
    <inkscape:path-effect
       effect="spiro"
       id="path-effect1104"
       is_visible="true"
       lpeversion="1" />
    <inkscape:path-effect
       lpeversion="1"
       is_visible="true"
       id="path-effect1081"
       effect="spiro" />
    <inkscape:path-effect
       lpeversion="1"
       is_visible="true"
       id="path-effect1046"
       effect="spiro" />
    <inkscape:path-effect
       lpeversion="1"
       is_visible="true"
       id="path-effect1027"
       effect="spiro" />
    <inkscape:path-effect
       lpeversion="1"
       is_visible="true"
       id="path-effect999"
       effect="spiro" />
    <inkscape:path-effect
       effect="spiro"
       id="path-effect1266"
       is_visible="true"
       lpeversion="1" />
    <inkscape:path-effect
       effect="spiro"
       id="path-effect1247"
       is_visible="true"
       lpeversion="1" />
    <inkscape:path-effect
       lpeversion="1"
       is_visible="true"
       id="path-effect1791"
       effect="spiro" />
    <inkscape:path-effect
       lpeversion="1"
       is_visible="true"
       id="path-effect1787"
       effect="spiro" />
    <inkscape:path-effect
       lpeversion="1"
       is_visible="true"
       id="path-effect1783"
       effect="spiro" />
    <inkscape:path-effect
       lpeversion="1"
       is_visible="true"
       id="path-effect1769"
       effect="spiro" />
    <inkscape:path-effect
       lpeversion="1"
       is_visible="true"
       id="path-effect1765"
       effect="spiro" />
    <inkscape:path-effect
       lpeversion="1"
       is_visible="true"
       id="path-effect1725"
       effect="spiro" />
    <inkscape:path-effect
       lpeversion="1"
       is_visible="true"
       id="path-effect1709"
       effect="spiro" />
    <inkscape:path-effect
       lpeversion="1"
       is_visible="true"
       id="path-effect1703"
       effect="spiro" />
    <inkscape:path-effect
       lpeversion="1"
       is_visible="true"
       id="path-effect1683"
       effect="spiro" />
    <inkscape:path-effect
       lpeversion="1"
       is_visible="true"
       id="path-effect1661"
       effect="spiro" />
    <inkscape:path-effect
       lpeversion="1"
       is_visible="true"
       id="path-effect1638"
       effect="spiro" />
    <inkscape:path-effect
       lpeversion="1"
       is_visible="true"
       id="path-effect1622"
       effect="spiro" />
    <inkscape:path-effect
       lpeversion="1"
       is_visible="true"
       id="path-effect1618"
       effect="spiro" />
    <inkscape:path-effect
       lpeversion="1"
       is_visible="true"
       id="path-effect1614"
       effect="spiro" />
    <inkscape:path-effect
       lpeversion="1"
       is_visible="true"
       id="path-effect1557"
       effect="spiro" />
    <inkscape:path-effect
       lpeversion="1"
       is_visible="true"
       id="path-effect1553"
       effect="spiro" />
    <inkscape:path-effect
       lpeversion="1"
       is_visible="true"
       id="path-effect1539"
       effect="spiro" />
    <inkscape:path-effect
       lpeversion="1"
       is_visible="true"
       id="path-effect1525"
       effect="spiro" />
    <inkscape:path-effect
       lpeversion="1"
       is_visible="true"
       id="path-effect1511"
       effect="spiro" />
    <inkscape:path-effect
       lpeversion="1"
       is_visible="true"
       id="path-effect1485"
       effect="spiro" />
    <inkscape:path-effect
       lpeversion="1"
       is_visible="true"
       id="path-effect1481"
       effect="spiro" />
    <g
       id="g23">
      <symbol
         overflow="visible"
         id="glyph0-0"
         style="overflow:visible">
        <path
           style="stroke:none"
           d=""
           id="path2"
           inkscape:connector-curvature="0" />
      </symbol>
      <symbol
         overflow="visible"
         id="glyph0-1"
         style="overflow:visible">
        <path
           style="stroke:none"
           d="m 2.75,-7.234375 c -0.65625,0 -1.265625,0.296875 -1.625,0.796875 -0.46875,0.640625 -0.6875,1.59375 -0.6875,2.9375 0,2.4375 0.796875,3.734375 2.3125,3.734375 1.5,0 2.3125,-1.296875 2.3125,-3.671875 0,-1.40625 -0.21875,-2.34375 -0.6875,-3 -0.359375,-0.5 -0.953125,-0.796875 -1.625,-0.796875 z m 0,0.78125 c 0.953125,0 1.421875,0.96875 1.421875,2.9375 0,2.0625 -0.46875,3.015625 -1.4375,3.015625 -0.9375,0 -1.40625,-1 -1.40625,-2.984375 0,-2 0.46875,-2.96875 1.421875,-2.96875 z m 0,0"
           id="path5"
           inkscape:connector-curvature="0" />
      </symbol>
      <symbol
         overflow="visible"
         id="glyph0-2"
         style="overflow:visible">
        <path
           style="stroke:none"
           d="M 4.765625,-7.09375 H 1.09375 L 0.5625,-3.234375 H 1.375 c 0.421875,-0.484375 0.75,-0.65625 1.3125,-0.65625 0.953125,0 1.546875,0.65625 1.546875,1.703125 0,1.015625 -0.59375,1.640625 -1.546875,1.640625 -0.78125,0 -1.25,-0.390625 -1.453125,-1.1875 H 0.34375 C 0.46875,-1.15625 0.5625,-0.875 0.78125,-0.625 1.1875,-0.078125 1.90625,0.234375 2.703125,0.234375 4.125,0.234375 5.125,-0.8125 5.125,-2.3125 c 0,-1.390625 -0.921875,-2.359375 -2.28125,-2.359375 -0.5,0 -0.90625,0.125 -1.3125,0.4375 L 1.8125,-6.21875 h 2.953125 z m 0,0"
           id="path8"
           inkscape:connector-curvature="0" />
      </symbol>
      <symbol
         overflow="visible"
         id="glyph0-3"
         style="overflow:visible">
        <path
           style="stroke:none"
           d="M 2.59375,-5.15625 V 0 h 0.875 V -7.234375 H 2.890625 c -0.3125,1.109375 -0.515625,1.265625 -1.875,1.4375 v 0.640625 z m 0,0"
           id="path11"
           inkscape:connector-curvature="0" />
      </symbol>
      <symbol
         overflow="visible"
         id="glyph0-4"
         style="overflow:visible">
        <path
           style="stroke:none"
           d="M 5.0625,-0.875 H 1.328125 c 0.09375,-0.59375 0.40625,-0.96875 1.28125,-1.5 l 1,-0.5625 c 0.984375,-0.546875 1.5,-1.296875 1.5,-2.1875 0,-0.59375 -0.234375,-1.15625 -0.65625,-1.546875 -0.421875,-0.375 -0.9375,-0.5625 -1.609375,-0.5625 -0.90625,0 -1.578125,0.328125 -1.96875,0.9375 -0.25,0.390625 -0.359375,0.84375 -0.375,1.5625 H 1.375 C 1.40625,-5.21875 1.46875,-5.515625 1.59375,-5.75 1.8125,-6.1875 2.28125,-6.453125 2.8125,-6.453125 c 0.796875,0 1.390625,0.578125 1.390625,1.359375 0,0.578125 -0.328125,1.078125 -0.953125,1.4375 L 2.328125,-3.125 C 0.84375,-2.265625 0.421875,-1.59375 0.34375,-0.015625 H 5.0625 Z m 0,0"
           id="path14"
           inkscape:connector-curvature="0" />
      </symbol>
      <symbol
         overflow="visible"
         id="glyph0-5"
         style="overflow:visible">
        <path
           style="stroke:none"
           d="M 2.84375,-3.125 H 0.453125 v 0.71875 H 2.84375 Z m 0,0"
           id="path17"
           inkscape:connector-curvature="0" />
      </symbol>
      <symbol
         overflow="visible"
         id="glyph0-6"
         style="overflow:visible">
        <path
           style="stroke:none"
           d="M 1.90625,-1.046875 H 0.875 V 0 h 1.03125 z m 0,0"
           id="path20"
           inkscape:connector-curvature="0" />
      </symbol>
    </g>
    <g
       id="g23-3">
      <symbol
         overflow="visible"
         id="glyph0-0-6"
         style="overflow:visible">
        <path
           style="stroke:none"
           d=""
           id="path2-7"
           inkscape:connector-curvature="0" />
      </symbol>
      <symbol
         overflow="visible"
         id="glyph0-1-5"
         style="overflow:visible">
        <path
           style="stroke:none"
           d="m 2.75,-7.234375 c -0.65625,0 -1.265625,0.296875 -1.625,0.796875 -0.46875,0.640625 -0.6875,1.59375 -0.6875,2.9375 0,2.4375 0.796875,3.734375 2.3125,3.734375 1.5,0 2.3125,-1.296875 2.3125,-3.671875 0,-1.40625 -0.21875,-2.34375 -0.6875,-3 -0.359375,-0.5 -0.953125,-0.796875 -1.625,-0.796875 z m 0,0.78125 c 0.953125,0 1.421875,0.96875 1.421875,2.9375 0,2.0625 -0.46875,3.015625 -1.4375,3.015625 -0.9375,0 -1.40625,-1 -1.40625,-2.984375 0,-2 0.46875,-2.96875 1.421875,-2.96875 z m 0,0"
           id="path5-3"
           inkscape:connector-curvature="0" />
      </symbol>
      <symbol
         overflow="visible"
         id="glyph0-2-5"
         style="overflow:visible">
        <path
           style="stroke:none"
           d="M 4.765625,-7.09375 H 1.09375 L 0.5625,-3.234375 H 1.375 c 0.421875,-0.484375 0.75,-0.65625 1.3125,-0.65625 0.953125,0 1.546875,0.65625 1.546875,1.703125 0,1.015625 -0.59375,1.640625 -1.546875,1.640625 -0.78125,0 -1.25,-0.390625 -1.453125,-1.1875 H 0.34375 C 0.46875,-1.15625 0.5625,-0.875 0.78125,-0.625 1.1875,-0.078125 1.90625,0.234375 2.703125,0.234375 4.125,0.234375 5.125,-0.8125 5.125,-2.3125 c 0,-1.390625 -0.921875,-2.359375 -2.28125,-2.359375 -0.5,0 -0.90625,0.125 -1.3125,0.4375 L 1.8125,-6.21875 h 2.953125 z m 0,0"
           id="path8-6"
           inkscape:connector-curvature="0" />
      </symbol>
      <symbol
         overflow="visible"
         id="glyph0-3-2"
         style="overflow:visible">
        <path
           style="stroke:none"
           d="M 2.59375,-5.15625 V 0 h 0.875 V -7.234375 H 2.890625 c -0.3125,1.109375 -0.515625,1.265625 -1.875,1.4375 v 0.640625 z m 0,0"
           id="path11-9"
           inkscape:connector-curvature="0" />
      </symbol>
      <symbol
         overflow="visible"
         id="glyph0-4-1"
         style="overflow:visible">
        <path
           style="stroke:none"
           d="M 5.0625,-0.875 H 1.328125 c 0.09375,-0.59375 0.40625,-0.96875 1.28125,-1.5 l 1,-0.5625 c 0.984375,-0.546875 1.5,-1.296875 1.5,-2.1875 0,-0.59375 -0.234375,-1.15625 -0.65625,-1.546875 -0.421875,-0.375 -0.9375,-0.5625 -1.609375,-0.5625 -0.90625,0 -1.578125,0.328125 -1.96875,0.9375 -0.25,0.390625 -0.359375,0.84375 -0.375,1.5625 H 1.375 C 1.40625,-5.21875 1.46875,-5.515625 1.59375,-5.75 1.8125,-6.1875 2.28125,-6.453125 2.8125,-6.453125 c 0.796875,0 1.390625,0.578125 1.390625,1.359375 0,0.578125 -0.328125,1.078125 -0.953125,1.4375 L 2.328125,-3.125 C 0.84375,-2.265625 0.421875,-1.59375 0.34375,-0.015625 H 5.0625 Z m 0,0"
           id="path14-2"
           inkscape:connector-curvature="0" />
      </symbol>
      <symbol
         overflow="visible"
         id="glyph0-5-7"
         style="overflow:visible">
        <path
           style="stroke:none"
           d="M 2.84375,-3.125 H 0.453125 v 0.71875 H 2.84375 Z m 0,0"
           id="path17-0"
           inkscape:connector-curvature="0" />
      </symbol>
      <symbol
         overflow="visible"
         id="glyph0-6-9"
         style="overflow:visible">
        <path
           style="stroke:none"
           d="M 1.90625,-1.046875 H 0.875 V 0 h 1.03125 z m 0,0"
           id="path20-3"
           inkscape:connector-curvature="0" />
      </symbol>
    </g>
    <clipPath
       id="clipPath18"
       clipPathUnits="userSpaceOnUse">
      <path
         id="path16"
         d="M 0,112 H 304 V 0 H 0 Z" />
    </clipPath>
    <clipPath
       id="clip1">
      <path
         id="path1970"
         d="m 162,179 h 14 v 20.15234 h -14 z m 0,0" />
    </clipPath>
    <clipPath
       id="clip2">
      <path
         id="path1973"
         d="m 605,53 h 33.33984 V 91 H 605 Z m 0,0" />
    </clipPath>
    <clipPath
       clipPathUnits="userSpaceOnUse"
       id="clipPath22">
      <path
         d="M 0,150 H 612 V 0 H 0 Z"
         id="path20-36" />
    </clipPath>
    <clipPath
       clipPathUnits="userSpaceOnUse"
       id="clipPath58">
      <path
         d="M 438.043,126.482 H 603.301 V 52.8745 H 438.043 Z"
         id="path56" />
    </clipPath>
    <clipPath
       clipPathUnits="userSpaceOnUse"
       id="clipPath78">
      <path
         d="M 401.524,126.482 H 566.782 V 52.8745 H 401.524 Z"
         id="path76" />
    </clipPath>
    <g
       id="g23-7">
      <symbol
         style="overflow:visible"
         id="glyph0-0-5"
         overflow="visible">
        <path
           inkscape:connector-curvature="0"
           id="path2-3"
           d=""
           style="stroke:none" />
      </symbol>
      <symbol
         style="overflow:visible"
         id="glyph0-1-56"
         overflow="visible">
        <path
           inkscape:connector-curvature="0"
           id="path5-2"
           d="m 2.75,-7.234375 c -0.65625,0 -1.265625,0.296875 -1.625,0.796875 -0.46875,0.640625 -0.6875,1.59375 -0.6875,2.9375 0,2.4375 0.796875,3.734375 2.3125,3.734375 1.5,0 2.3125,-1.296875 2.3125,-3.671875 0,-1.40625 -0.21875,-2.34375 -0.6875,-3 -0.359375,-0.5 -0.953125,-0.796875 -1.625,-0.796875 z m 0,0.78125 c 0.953125,0 1.421875,0.96875 1.421875,2.9375 0,2.0625 -0.46875,3.015625 -1.4375,3.015625 -0.9375,0 -1.40625,-1 -1.40625,-2.984375 0,-2 0.46875,-2.96875 1.421875,-2.96875 z m 0,0"
           style="stroke:none" />
      </symbol>
      <symbol
         style="overflow:visible"
         id="glyph0-2-9"
         overflow="visible">
        <path
           inkscape:connector-curvature="0"
           id="path8-1"
           d="M 4.765625,-7.09375 H 1.09375 L 0.5625,-3.234375 H 1.375 c 0.421875,-0.484375 0.75,-0.65625 1.3125,-0.65625 0.953125,0 1.546875,0.65625 1.546875,1.703125 0,1.015625 -0.59375,1.640625 -1.546875,1.640625 -0.78125,0 -1.25,-0.390625 -1.453125,-1.1875 H 0.34375 C 0.46875,-1.15625 0.5625,-0.875 0.78125,-0.625 1.1875,-0.078125 1.90625,0.234375 2.703125,0.234375 4.125,0.234375 5.125,-0.8125 5.125,-2.3125 c 0,-1.390625 -0.921875,-2.359375 -2.28125,-2.359375 -0.5,0 -0.90625,0.125 -1.3125,0.4375 L 1.8125,-6.21875 h 2.953125 z m 0,0"
           style="stroke:none" />
      </symbol>
      <symbol
         style="overflow:visible"
         id="glyph0-3-27"
         overflow="visible">
        <path
           inkscape:connector-curvature="0"
           id="path11-0"
           d="M 2.59375,-5.15625 V 0 h 0.875 V -7.234375 H 2.890625 c -0.3125,1.109375 -0.515625,1.265625 -1.875,1.4375 v 0.640625 z m 0,0"
           style="stroke:none" />
      </symbol>
      <symbol
         style="overflow:visible"
         id="glyph0-4-9"
         overflow="visible">
        <path
           inkscape:connector-curvature="0"
           id="path14-3"
           d="M 5.0625,-0.875 H 1.328125 c 0.09375,-0.59375 0.40625,-0.96875 1.28125,-1.5 l 1,-0.5625 c 0.984375,-0.546875 1.5,-1.296875 1.5,-2.1875 0,-0.59375 -0.234375,-1.15625 -0.65625,-1.546875 -0.421875,-0.375 -0.9375,-0.5625 -1.609375,-0.5625 -0.90625,0 -1.578125,0.328125 -1.96875,0.9375 -0.25,0.390625 -0.359375,0.84375 -0.375,1.5625 H 1.375 C 1.40625,-5.21875 1.46875,-5.515625 1.59375,-5.75 1.8125,-6.1875 2.28125,-6.453125 2.8125,-6.453125 c 0.796875,0 1.390625,0.578125 1.390625,1.359375 0,0.578125 -0.328125,1.078125 -0.953125,1.4375 L 2.328125,-3.125 C 0.84375,-2.265625 0.421875,-1.59375 0.34375,-0.015625 H 5.0625 Z m 0,0"
           style="stroke:none" />
      </symbol>
      <symbol
         style="overflow:visible"
         id="glyph0-5-6"
         overflow="visible">
        <path
           inkscape:connector-curvature="0"
           id="path17-06"
           d="M 2.84375,-3.125 H 0.453125 v 0.71875 H 2.84375 Z m 0,0"
           style="stroke:none" />
      </symbol>
      <symbol
         style="overflow:visible"
         id="glyph0-6-2"
         overflow="visible">
        <path
           inkscape:connector-curvature="0"
           id="path20-6"
           d="M 1.90625,-1.046875 H 0.875 V 0 h 1.03125 z m 0,0"
           style="stroke:none" />
      </symbol>
    </g>
    <g
       id="g23-3-1">
      <symbol
         style="overflow:visible"
         id="glyph0-0-6-8"
         overflow="visible">
        <path
           inkscape:connector-curvature="0"
           id="path2-7-7"
           d=""
           style="stroke:none" />
      </symbol>
      <symbol
         style="overflow:visible"
         id="glyph0-1-5-9"
         overflow="visible">
        <path
           inkscape:connector-curvature="0"
           id="path5-3-2"
           d="m 2.75,-7.234375 c -0.65625,0 -1.265625,0.296875 -1.625,0.796875 -0.46875,0.640625 -0.6875,1.59375 -0.6875,2.9375 0,2.4375 0.796875,3.734375 2.3125,3.734375 1.5,0 2.3125,-1.296875 2.3125,-3.671875 0,-1.40625 -0.21875,-2.34375 -0.6875,-3 -0.359375,-0.5 -0.953125,-0.796875 -1.625,-0.796875 z m 0,0.78125 c 0.953125,0 1.421875,0.96875 1.421875,2.9375 0,2.0625 -0.46875,3.015625 -1.4375,3.015625 -0.9375,0 -1.40625,-1 -1.40625,-2.984375 0,-2 0.46875,-2.96875 1.421875,-2.96875 z m 0,0"
           style="stroke:none" />
      </symbol>
      <symbol
         style="overflow:visible"
         id="glyph0-2-5-0"
         overflow="visible">
        <path
           inkscape:connector-curvature="0"
           id="path8-6-2"
           d="M 4.765625,-7.09375 H 1.09375 L 0.5625,-3.234375 H 1.375 c 0.421875,-0.484375 0.75,-0.65625 1.3125,-0.65625 0.953125,0 1.546875,0.65625 1.546875,1.703125 0,1.015625 -0.59375,1.640625 -1.546875,1.640625 -0.78125,0 -1.25,-0.390625 -1.453125,-1.1875 H 0.34375 C 0.46875,-1.15625 0.5625,-0.875 0.78125,-0.625 1.1875,-0.078125 1.90625,0.234375 2.703125,0.234375 4.125,0.234375 5.125,-0.8125 5.125,-2.3125 c 0,-1.390625 -0.921875,-2.359375 -2.28125,-2.359375 -0.5,0 -0.90625,0.125 -1.3125,0.4375 L 1.8125,-6.21875 h 2.953125 z m 0,0"
           style="stroke:none" />
      </symbol>
      <symbol
         style="overflow:visible"
         id="glyph0-3-2-3"
         overflow="visible">
        <path
           inkscape:connector-curvature="0"
           id="path11-9-7"
           d="M 2.59375,-5.15625 V 0 h 0.875 V -7.234375 H 2.890625 c -0.3125,1.109375 -0.515625,1.265625 -1.875,1.4375 v 0.640625 z m 0,0"
           style="stroke:none" />
      </symbol>
      <symbol
         style="overflow:visible"
         id="glyph0-4-1-5"
         overflow="visible">
        <path
           inkscape:connector-curvature="0"
           id="path14-2-9"
           d="M 5.0625,-0.875 H 1.328125 c 0.09375,-0.59375 0.40625,-0.96875 1.28125,-1.5 l 1,-0.5625 c 0.984375,-0.546875 1.5,-1.296875 1.5,-2.1875 0,-0.59375 -0.234375,-1.15625 -0.65625,-1.546875 -0.421875,-0.375 -0.9375,-0.5625 -1.609375,-0.5625 -0.90625,0 -1.578125,0.328125 -1.96875,0.9375 -0.25,0.390625 -0.359375,0.84375 -0.375,1.5625 H 1.375 C 1.40625,-5.21875 1.46875,-5.515625 1.59375,-5.75 1.8125,-6.1875 2.28125,-6.453125 2.8125,-6.453125 c 0.796875,0 1.390625,0.578125 1.390625,1.359375 0,0.578125 -0.328125,1.078125 -0.953125,1.4375 L 2.328125,-3.125 C 0.84375,-2.265625 0.421875,-1.59375 0.34375,-0.015625 H 5.0625 Z m 0,0"
           style="stroke:none" />
      </symbol>
      <symbol
         style="overflow:visible"
         id="glyph0-5-7-2"
         overflow="visible">
        <path
           inkscape:connector-curvature="0"
           id="path17-0-2"
           d="M 2.84375,-3.125 H 0.453125 v 0.71875 H 2.84375 Z m 0,0"
           style="stroke:none" />
      </symbol>
      <symbol
         style="overflow:visible"
         id="glyph0-6-9-8"
         overflow="visible">
        <path
           inkscape:connector-curvature="0"
           id="path20-3-9"
           d="M 1.90625,-1.046875 H 0.875 V 0 h 1.03125 z m 0,0"
           style="stroke:none" />
      </symbol>
    </g>
    <clipPath
       clipPathUnits="userSpaceOnUse"
       id="clipPath18-7">
      <path
         d="M 0,112 H 304 V 0 H 0 Z"
         id="path16-3" />
    </clipPath>
    <clipPath
       id="clip1-6">
      <path
         d="m 162,179 h 14 v 20.15234 h -14 z m 0,0"
         id="path1970-1" />
    </clipPath>
    <clipPath
       id="clip2-2">
      <path
         d="m 605,53 h 33.33984 V 91 H 605 Z m 0,0"
         id="path1973-9" />
    </clipPath>
    <clipPath
       id="clipPath22-3"
       clipPathUnits="userSpaceOnUse">
      <path
         id="path20-36-1"
         d="M 0,150 H 612 V 0 H 0 Z" />
    </clipPath>
    <clipPath
       id="clipPath58-9"
       clipPathUnits="userSpaceOnUse">
      <path
         id="path56-4"
         d="M 438.043,126.482 H 603.301 V 52.8745 H 438.043 Z" />
    </clipPath>
    <clipPath
       id="clipPath78-7"
       clipPathUnits="userSpaceOnUse">
      <path
         id="path76-8"
         d="M 401.524,126.482 H 566.782 V 52.8745 H 401.524 Z" />
    </clipPath>
    <inkscape:path-effect
       lpeversion="1"
       is_visible="true"
       id="path-effect877"
       effect="spiro" />
    <inkscape:path-effect
       lpeversion="1"
       is_visible="true"
       id="path-effect875"
       effect="spiro" />
    <inkscape:path-effect
       effect="spiro"
       id="path-effect873"
       is_visible="true"
       lpeversion="1" />
    <inkscape:path-effect
       lpeversion="1"
       is_visible="true"
       id="path-effect871"
       effect="spiro" />
    <inkscape:path-effect
       effect="spiro"
       id="path-effect986"
       is_visible="true"
       lpeversion="1" />
    <inkscape:path-effect
       lpeversion="1"
       is_visible="true"
       id="path-effect973"
       effect="spiro" />
    <inkscape:path-effect
       effect="spiro"
       id="path-effect898"
       is_visible="true"
       lpeversion="1" />
    <inkscape:path-effect
       effect="spiro"
       id="path-effect856"
       is_visible="true"
       lpeversion="1" />
    <inkscape:path-effect
       effect="spiro"
       id="path-effect852"
       is_visible="true"
       lpeversion="1" />
    <inkscape:path-effect
       effect="spiro"
       id="path-effect848"
       is_visible="true"
       lpeversion="1" />
    <inkscape:path-effect
       lpeversion="1"
       is_visible="true"
       id="path-effect1027-3"
       effect="spiro" />
    <inkscape:path-effect
       lpeversion="1"
       is_visible="true"
       id="path-effect1027-3-1"
       effect="spiro" />
    <inkscape:path-effect
       lpeversion="1"
       is_visible="true"
       id="path-effect1027-3-1-0"
       effect="spiro" />
    <inkscape:path-effect
       lpeversion="1"
       is_visible="true"
       id="path-effect1027-3-1-0-8"
       effect="spiro" />
    <inkscape:path-effect
       lpeversion="1"
       is_visible="true"
       id="path-effect1027-3-1-5"
       effect="spiro" />
    <inkscape:path-effect
       lpeversion="1"
       is_visible="true"
       id="path-effect1027-3-1-5-7"
       effect="spiro" />
    <inkscape:path-effect
       lpeversion="1"
       is_visible="true"
       id="path-effect1027-3-1-5-7-2"
       effect="spiro" />
    <inkscape:path-effect
       lpeversion="1"
       is_visible="true"
       id="path-effect1027-3-1-5-9"
       effect="spiro" />
    <inkscape:path-effect
       lpeversion="1"
       is_visible="true"
       id="path-effect1027-3-1-5-9-7"
       effect="spiro" />
    <inkscape:path-effect
       lpeversion="1"
       is_visible="true"
       id="path-effect1027-3-1-5-9-7-5"
       effect="spiro" />
    <inkscape:path-effect
       lpeversion="1"
       is_visible="true"
       id="path-effect1027-3-1-5-9-7-5-6"
       effect="spiro" />
  </defs>
  <sodipodi:namedview
     fit-margin-bottom="0"
     fit-margin-right="0"
     fit-margin-left="0"
     fit-margin-top="0"
     id="base"
     pagecolor="#ffffff"
     bordercolor="#666666"
     borderopacity="1.0"
     inkscape:pageopacity="0.0"
     inkscape:pageshadow="2"
     inkscape:zoom="1.979899"
     inkscape:cx="682.01423"
     inkscape:cy="1196.2041"
     inkscape:document-units="mm"
     inkscape:current-layer="layer1"
     inkscape:document-rotation="0"
     showgrid="false"
     inkscape:window-width="1920"
     inkscape:window-height="1043"
     inkscape:window-x="1920"
     inkscape:window-y="0"
     inkscape:window-maximized="1"
     inkscape:pagecheckerboard="0" />
  <metadata
     id="metadata5">
    <rdf:RDF>
      <cc:Work
         rdf:about="">
        <dc:format>image/svg+xml</dc:format>
        <dc:type
           rdf:resource="http://purl.org/dc/dcmitype/StillImage" />
        <dc:title></dc:title>
      </cc:Work>
    </rdf:RDF>
  </metadata>
  <g
     transform="translate(48.398384,-14.167296)"
     inkscape:label="Layer 1"
     inkscape:groupmode="layer"
     id="layer1">
    <text
       xml:space="preserve"
       style="font-size:14.1111px;line-height:1.25;font-family:sans-serif;letter-spacing:0px;word-spacing:0px;stroke-width:0.264583"
       x="476.87009"
       y="87.248192"
       id="text1063"><tspan
         sodipodi:role="line"
         id="tspan1061"
         x="476.87009"
         y="87.248192"
         style="stroke-width:0.264583" /></text>
    <text
       id="text949-8"
       y="85.453438"
       x="3.4107494"
       style="font-size:7.05556px;line-height:1.25;font-family:sans-serif;letter-spacing:0px;word-spacing:0px;fill:#ffffff;stroke-width:0.264583"
       xml:space="preserve"><tspan
         id="tspan977-4"
         style="font-size:8.46667px;fill:#ffffff;stroke-width:0.264583"
         y="85.453438"
         x="3.4107494"
         sodipodi:role="line" /><tspan
         id="tspan955-3"
         style="font-size:7.05556px;fill:#ffffff;stroke-width:0.264583"
         y="94.788277"
         x="3.4107494"
         sodipodi:role="line" /></text>
    <text
       id="text864-7"
       y="289.07162"
       x="57.655037"
       style="font-size:0.517664px;line-height:1.25;font-family:sans-serif;letter-spacing:0px;word-spacing:0px;stroke-width:0.370417;stroke-miterlimit:4;stroke-dasharray:none"
       xml:space="preserve" />
    <text
       xml:space="preserve"
       style="font-size:0.517664px;line-height:1.25;font-family:sans-serif;letter-spacing:0px;word-spacing:0px;stroke-width:0.370417;stroke-miterlimit:4;stroke-dasharray:none"
       x="44.959167"
       y="289.45731"
       id="text866-3" />
    <text
       xml:space="preserve"
       style="font-size:0.517664px;line-height:1.25;font-family:sans-serif;letter-spacing:0px;word-spacing:0px;stroke-width:0.370417;stroke-miterlimit:4;stroke-dasharray:none"
       x="44.254913"
       y="288.78906"
       id="text870-6" />
    <text
       xml:space="preserve"
       style="font-size:0.517664px;line-height:1.25;font-family:sans-serif;letter-spacing:0px;word-spacing:0px;stroke-width:0.370417;stroke-miterlimit:4;stroke-dasharray:none"
       x="48.156528"
       y="296.39203"
       id="text874-1" />
    <text
       id="text1063-3"
       y="79.05777"
       x="414.93301"
       style="font-size:12.4049px;line-height:1.25;font-family:sans-serif;letter-spacing:0px;word-spacing:0px;stroke-width:0.232591"
       xml:space="preserve"><tspan
         style="stroke-width:0.232591"
         y="79.05777"
         x="414.93301"
         id="tspan1061-8"
         sodipodi:role="line" /></text>
    <text
       xml:space="preserve"
       style="font-size:6.20244px;line-height:1.25;font-family:sans-serif;letter-spacing:0px;word-spacing:0px;fill:#ffffff;stroke-width:0.232591"
       x="-1.278115"
       y="77.480034"
       id="text949-8-8"><tspan
         sodipodi:role="line"
         x="-1.278115"
         y="77.480034"
         style="font-size:7.44292px;fill:#ffffff;stroke-width:0.232591"
         id="tspan977-4-3" /><tspan
         sodipodi:role="line"
         x="-1.278115"
         y="85.68615"
         style="font-size:6.20244px;fill:#ffffff;stroke-width:0.232591"
         id="tspan955-3-1" /></text>
    <text
       xml:space="preserve"
       style="font-size:4.11252px;line-height:1.25;font-family:sans-serif;letter-spacing:0px;word-spacing:0px;stroke-width:0.0771096"
       x="-88.46418"
       y="201.41161"
       id="text864" />
    <text
       id="text866"
       y="204.47565"
       x="-189.32465"
       style="font-size:4.11252px;line-height:1.25;font-family:sans-serif;letter-spacing:0px;word-spacing:0px;stroke-width:0.0771096"
       xml:space="preserve" />
    <text
       id="text870"
       y="199.16681"
       x="-194.91949"
       style="font-size:4.11252px;line-height:1.25;font-family:sans-serif;letter-spacing:0px;word-spacing:0px;stroke-width:0.0771096"
       xml:space="preserve" />
    <text
       id="text874"
       y="259.5675"
       x="-163.92368"
       style="font-size:4.11252px;line-height:1.25;font-family:sans-serif;letter-spacing:0px;word-spacing:0px;stroke-width:0.0771096"
       xml:space="preserve" />
    <path
       sodipodi:nodetypes="cssssc"
       inkscape:original-d="m 196.99865,126.1981 c -1.13273,2.28464 -2.26561,4.56916 -3.39864,6.85355 -1.13304,2.28437 -1.07033,1.46673 -1.97978,2.6035 -0.90944,1.13678 10.10613,-0.91578 10.85827,0.0658 0.75504,0.98538 -1.03288,-1.03319 -1.97558,-2.70871 -0.97761,-1.73756 -2.26031,-4.48422 -3.50427,-6.81415"
       inkscape:path-effect="#path-effect856"
       id="path854"
       d="m 196.99865,126.1981 c -0.61813,2.49476 -1.78684,4.85154 -3.39864,6.85355 -0.68483,0.85062 -1.45407,1.64632 -1.97978,2.6035 -0.50849,0.92583 -0.77115,1.98519 -0.75449,3.04134 0.0166,1.05615 0.31253,2.10659 0.84921,3.01638 0.53667,0.90978 1.31283,1.6768 2.2287,2.20301 0.91588,0.52622 1.9693,0.81045 3.02556,0.81677 1.05626,0.006 2.11291,-0.26525 3.03544,-0.7797 0.92254,-0.51445 1.70885,-1.27057 2.25938,-2.17203 0.55053,-0.90147 0.86406,-1.9462 0.90127,-3.00183 0.0372,-1.05562 -0.20191,-2.11973 -0.6868,-3.05814 -0.51395,-0.99464 -1.28451,-1.82787 -1.97558,-2.70871 -1.58611,-2.02167 -2.78246,-4.348 -3.50427,-6.81415"
       style="fill:none;fill-opacity:1;stroke:#0000ff;stroke-width:1.05833333;stroke-linecap:round;stroke-linejoin:round;stroke-miterlimit:4;stroke-dasharray:none;stroke-opacity:1" />
    <circle
       transform="matrix(0,-1,-1,0,0,0)"
       style="fill:none;fill-opacity:1;stroke:#ff0000;stroke-width:1.05833333;stroke-linecap:round;stroke-linejoin:round;stroke-miterlimit:4;stroke-dasharray:none;stroke-dashoffset:0;stroke-opacity:1"
       id="path2985-5-7"
       cx="-138.55246"
       cy="-213.93243"
       r="6.1803155" />
    <path
       sodipodi:open="true"
       sodipodi:arc-type="arc"
       sodipodi:end="0.40728455"
       sodipodi:start="6.1617647"
       sodipodi:ry="0.015151694"
       sodipodi:rx="0.0039057585"
       sodipodi:cy="144.82745"
       sodipodi:cx="198.16779"
       sodipodi:type="arc"
       style="fill:#000000;stroke:none;stroke-width:1.05833333;stroke-miterlimit:4;stroke-dasharray:none"
       id="path1705"
       d="m 198.17166,144.82562 a 0.00390576,0.01515169 0 0 1 -2.9e-4,0.008" />
    <ellipse
       ry="3.9465718e-07"
       rx="2.7378178e-07"
       cy="144.83345"
       cx="198.90727"
       style="fill:#000000;stroke:none;stroke-width:0.529167;stroke-miterlimit:4;stroke-dasharray:none"
       id="path1711" />
    <rect
       style="opacity:0.994586;fill:none;fill-opacity:1;stroke:#00ff00;stroke-width:1.05833333;stroke-linecap:round;stroke-linejoin:round;stroke-miterlimit:4;stroke-dasharray:none;stroke-opacity:1"
       id="rect1034"
       width="12.375381"
       height="9.9003057"
       x="106.2841"
       y="40.243385"
       ry="0.9120639" />
    <path
       style="fill:none;fill-opacity:1;stroke:#0000ff;stroke-width:1.05833333;stroke-linecap:round;stroke-linejoin:round;stroke-miterlimit:4;stroke-dasharray:none;stroke-opacity:1"
       d="m 95.061226,33.054289 c -0.618126,2.494762 -1.78684,4.851539 -3.398637,6.853545 -0.684832,0.850627 -1.454075,1.646328 -1.979782,2.603508 -0.508489,0.92583 -0.771145,1.985185 -0.75449,3.041331 0.01666,1.056146 0.312537,2.106589 0.849207,3.016373 0.53667,0.909784 1.31283,1.676796 2.2287,2.203012 0.915871,0.526216 1.969294,0.810446 3.025552,0.816767 1.056259,0.0063 2.112904,-0.265238 3.035436,-0.779685 0.922532,-0.514448 1.708849,-1.270561 2.259378,-2.172025 0.55053,-0.901464 0.86406,-1.946194 0.90128,-3.001815 0.0372,-1.055622 -0.20191,-2.119734 -0.6868,-3.058138 -0.51395,-0.994641 -1.284503,-1.827865 -1.975571,-2.708706 -1.586113,-2.021671 -2.782461,-4.348001 -3.504273,-6.814151"
       id="path854-3"
       inkscape:path-effect="#path-effect999"
       inkscape:original-d="m 95.061226,33.054289 c -1.132724,2.284638 -2.265604,4.569154 -3.398637,6.853545 -1.133044,2.284376 -1.070331,1.466734 -1.979782,2.603508 -0.909441,1.136773 10.106126,-0.915785 10.858263,0.06582 0.75504,0.985375 -1.032877,-1.033186 -1.975571,-2.708706 -0.977612,-1.737559 -2.260314,-4.484224 -3.504273,-6.814151"
       sodipodi:nodetypes="cssssc" />
    <g
       style="stroke-width:8.3408815;stroke-miterlimit:4;stroke-dasharray:none"
       transform="matrix(0.12688507,0,0,0.12688507,22.999892,117.89397)"
       id="g1071">
      <path
         sodipodi:nodetypes="cssssc"
         inkscape:original-d="m -108.85742,65.446093 c -8.92717,18.00557 -17.85556,36.010177 -26.78516,54.013797 -8.92969,18.00351 -8.43544,11.55955 -15.60296,20.51863 -7.16744,8.95908 79.647927,-7.21743 85.575647,0.5187 5.95058,7.76589 -8.14031,-8.14269 -15.56984,-21.34771 -7.7047,-13.69396 -17.81386,-35.340817 -27.617687,-53.703317"
         inkscape:path-effect="#path-effect1027"
         id="path854-5"
         d="m -108.85742,65.446093 c -4.87154,19.661585 -14.08235,38.235697 -26.78516,54.013797 -5.39727,6.70392 -11.45978,12.97495 -15.60296,20.51863 -4.00749,7.29662 -6.07753,15.64557 -5.94628,23.96923 0.13126,8.32366 2.46316,16.60238 6.69274,23.77254 4.22959,7.17016 10.34663,13.21512 17.56476,17.36231 7.21812,4.14719 15.52033,6.38726 23.84488,6.43707 8.32455,0.0498 16.652147,-2.09039 23.922772,-6.14484 7.270625,-4.05446 13.467711,-10.01352 17.806525,-17.11811 4.338815,-7.1046 6.809736,-15.33829 7.103055,-23.65782 0.293319,-8.31953 -1.591278,-16.70597 -5.412805,-24.10168 -4.050541,-7.83891 -10.12341,-14.40567 -15.56984,-21.34771 -12.500414,-15.93307 -21.929007,-34.267219 -27.617687,-53.703317"
         style="fill:none;fill-opacity:1;stroke:#0000ff;stroke-width:8.3408815;stroke-linecap:round;stroke-linejoin:round;stroke-miterlimit:4;stroke-dasharray:none;stroke-opacity:1" />
      <circle
         transform="matrix(0,-1,-1,0,0,0)"
         style="opacity:1;fill:none;fill-opacity:1;stroke:#ff0000;stroke-width:8.3408815;stroke-linecap:round;stroke-linejoin:round;stroke-miterlimit:4;stroke-dasharray:none;stroke-dashoffset:0;stroke-opacity:1"
         id="path2985-5-7-62"
         cx="-162.81259"
         cy="101.49442"
         r="48.707981" />
      <path
         sodipodi:open="true"
         d="m -99.612641,212.25231 a 0.03078186,0.11941274 0 0 1 -0.0023,0.0618"
         sodipodi:arc-type="arc"
         sodipodi:end="0.40728455"
         sodipodi:start="6.1617647"
         sodipodi:ry="0.11941274"
         sodipodi:rx="0.030781861"
         sodipodi:cy="212.26677"
         sodipodi:cx="-99.643196"
         sodipodi:type="arc"
         style="fill:#000000;stroke:none;stroke-width:8.3408815;stroke-miterlimit:4;stroke-dasharray:none"
         id="path1705-9" />
      <ellipse
         ry="3.1103518e-06"
         rx="2.1577148e-06"
         cy="212.31407"
         cx="-93.815224"
         style="fill:#000000;stroke:none;stroke-width:8.3408815;stroke-miterlimit:4;stroke-dasharray:none"
         id="path1711-1" />
    </g>
    <g
       style="stroke-width:8.3408815;stroke-miterlimit:4;stroke-dasharray:none"
       transform="matrix(0.12688507,0,0,0.12688507,93.595809,187.91655)"
       id="g1065">
      <rect
         style="opacity:0.994586;fill:none;fill-opacity:1;stroke:#00ff00;stroke-width:8.3408815;stroke-linecap:round;stroke-linejoin:round;stroke-miterlimit:4;stroke-dasharray:none;stroke-opacity:1"
         id="rect1034-7"
         width="97.532204"
         height="78.02578"
         x="26.346102"
         y="368.62262"
         ry="7.1881104" />
      <path
         sodipodi:nodetypes="cssssc"
         inkscape:original-d="m 74.967312,311.98344 c -8.92717,18.00557 -17.85556,36.01018 -26.78516,54.0138 -8.92969,18.00351 -8.43544,11.55955 -15.60296,20.51863 -7.16744,8.95908 79.647928,-7.21743 85.575648,0.5187 5.95058,7.76589 -8.14031,-8.14269 -15.56984,-21.34771 C 94.880302,351.9929 84.771142,330.34604 74.967312,311.98353"
         inkscape:path-effect="#path-effect1046"
         id="path854-2"
         d="m 74.967312,311.98344 c -4.871544,19.66159 -14.082349,38.2357 -26.78516,54.0138 -5.397266,6.70392 -11.459781,12.97495 -15.60296,20.51863 -4.007488,7.29662 -6.077534,15.64557 -5.946275,23.96923 0.131259,8.32366 2.463152,16.60238 6.692737,23.77254 4.229585,7.17016 10.346626,13.21512 17.564754,17.36231 7.218129,4.14719 15.520335,6.38726 23.844883,6.43707 8.324549,0.0498 16.652149,-2.09039 23.922774,-6.14484 7.270625,-4.05446 13.467715,-10.01352 17.806525,-17.11811 4.33881,-7.1046 6.80974,-15.33829 7.10306,-23.65782 0.29331,-8.31953 -1.59128,-16.70597 -5.41281,-24.10168 C 114.1043,379.19566 108.03143,372.6289 102.585,365.68686 90.084583,349.75379 80.655987,331.41963 74.967312,311.98353"
         style="fill:none;fill-opacity:1;stroke:#0000ff;stroke-width:8.3408815;stroke-linecap:round;stroke-linejoin:round;stroke-miterlimit:4;stroke-dasharray:none;stroke-opacity:1" />
    </g>
    <g
       style="stroke-width:1.05833333;stroke-miterlimit:4;stroke-dasharray:none"
       id="g1588">
      <path
         style="fill:none;stroke:#000000;stroke-width:1.05833333;stroke-linecap:butt;stroke-linejoin:miter;stroke-miterlimit:4;stroke-dasharray:none;stroke-opacity:1;marker-end:url(#marker1388)"
         d="M 19.624461,139.25648 H 186.59162"
         id="path1079"
         inkscape:path-effect="#path-effect1081"
         inkscape:original-d="M 19.624461,139.25648 H 186.59162" />
      <path
         inkscape:original-d="M 103.10803,222.74006 V 55.772898"
         inkscape:path-effect="#path-effect1104"
         id="path1079-7"
         d="M 103.10803,222.74006 V 55.772898"
         style="fill:none;stroke:#000000;stroke-width:1.05833333;stroke-linecap:butt;stroke-linejoin:miter;stroke-miterlimit:4;stroke-dasharray:none;stroke-opacity:1;marker-end:url(#marker1378)" />
    </g>
    <text
       id="text1542"
       y="154.50192"
       x="-44.688675"
       style="font-size:8.46667px;line-height:1.25;font-family:sans-serif;letter-spacing:0px;word-spacing:0px;stroke-width:1.05833333;stroke-miterlimit:4;stroke-dasharray:none"
       xml:space="preserve"><tspan
         style="stroke-width:1.05833333;stroke-miterlimit:4;stroke-dasharray:none"
         y="154.50192"
         x="-44.688675"
         id="tspan1540"
         sodipodi:role="line">Water and user together</tspan><tspan
         id="tspan1544"
         style="stroke-width:1.05833333;stroke-miterlimit:4;stroke-dasharray:none"
         y="165.08527"
         x="-44.688675"
         sodipodi:role="line">(opportunity, affinity)</tspan></text>
    <text
       id="text1548"
       y="153.9005"
       x="160.6078"
       style="font-size:8.46667px;line-height:1.25;font-family:sans-serif;letter-spacing:0px;word-spacing:0px;stroke-width:1.05833333;stroke-miterlimit:4;stroke-dasharray:none"
       xml:space="preserve"><tspan
         style="stroke-width:1.05833333;stroke-miterlimit:4;stroke-dasharray:none"
         y="153.9005"
         x="160.6078"
         id="tspan1546"
         sodipodi:role="line">Water and user apart</tspan><tspan
         id="tspan1550"
         style="stroke-width:1.05833333;stroke-miterlimit:4;stroke-dasharray:none"
         y="164.48384"
         x="160.6078"
         sodipodi:role="line">(challenge, problem,</tspan><tspan
         id="tspan1936"
         style="stroke-width:1.05833333;stroke-miterlimit:4;stroke-dasharray:none"
         y="175.06717"
         x="160.6078"
         sodipodi:role="line">estranged)</tspan></text>
    <text
       id="text1554"
       y="20.599981"
       x="57.046383"
       style="font-size:8.46667px;line-height:1.25;font-family:sans-serif;letter-spacing:0px;word-spacing:0px;stroke-width:1.05833333;stroke-miterlimit:4;stroke-dasharray:none"
       xml:space="preserve"><tspan
         style="stroke-width:1.05833333;stroke-miterlimit:4;stroke-dasharray:none"
         y="20.599981"
         x="57.046383"
         id="tspan1552"
         sodipodi:role="line">Water and tech apart</tspan><tspan
         id="tspan1556"
         style="stroke-width:1.05833333;stroke-miterlimit:4;stroke-dasharray:none"
         y="31.183319"
         x="57.046383"
         sodipodi:role="line">(challenge, problem)</tspan></text>
    <text
       id="text1560"
       y="258.8371"
       x="64.772766"
       style="font-size:8.46667px;line-height:1.25;font-family:sans-serif;letter-spacing:0px;word-spacing:0px;stroke-width:1.05833333;stroke-miterlimit:4;stroke-dasharray:none"
       xml:space="preserve"><tspan
         style="stroke-width:1.05833333;stroke-miterlimit:4;stroke-dasharray:none"
         y="258.8371"
         x="64.772766"
         id="tspan1558"
         sodipodi:role="line">Water and tech together</tspan><tspan
         id="tspan1562"
         style="stroke-width:1.05833333;stroke-miterlimit:4;stroke-dasharray:none"
         y="269.42044"
         x="64.772766"
         sodipodi:role="line">(opportunity, affinity)</tspan></text>
    <path
       inkscape:original-d="M 36.186865,187.53102 170.0115,90.551111"
       inkscape:path-effect="#path-effect1566"
       id="path1564"
       d="M 36.186865,187.53102 170.0115,90.551111"
       style="fill:none;stroke:#000000;stroke-width:1.05833333;stroke-linecap:butt;stroke-linejoin:miter;stroke-miterlimit:4;stroke-dasharray:none;stroke-opacity:1;marker-end:url(#marker1628)" />
    <g
       style="stroke-width:1.05833333;stroke-miterlimit:4;stroke-dasharray:none"
       transform="translate(4.7625,-0.52916663)"
       id="g1912">
      <rect
         style="opacity:0.994586;fill:none;fill-opacity:1;stroke:#00ff00;stroke-width:1.05833333;stroke-linecap:round;stroke-linejoin:round;stroke-miterlimit:4;stroke-dasharray:none;stroke-opacity:1"
         id="rect1034-0"
         width="12.375381"
         height="9.9003057"
         x="175.83226"
         y="75.888298"
         ry="0.9120639" />
      <circle
         transform="matrix(0,-1,-1,0,0,0)"
         style="fill:none;fill-opacity:1;stroke:#ff0000;stroke-width:1.05833333;stroke-linecap:round;stroke-linejoin:round;stroke-miterlimit:4;stroke-dasharray:none;stroke-dashoffset:0;stroke-opacity:1"
         id="path2985-5-7-9"
         cx="-80.838448"
         cy="-164.4214"
         r="6.1803155" />
    </g>
    <rect
       style="opacity:0.994586;fill:none;fill-opacity:1;stroke:#00ff00;stroke-width:1.05833333;stroke-linecap:round;stroke-linejoin:round;stroke-miterlimit:4;stroke-dasharray:none;stroke-opacity:1"
       id="rect1034-0-3"
       width="12.375381"
       height="9.9003057"
       x="21.908857"
       y="187.03825"
       ry="0.9120639" />
    <circle
       transform="matrix(0,-1,-1,0,0,0)"
       style="fill:none;fill-opacity:1;stroke:#ff0000;stroke-width:1.05833333;stroke-linecap:round;stroke-linejoin:round;stroke-miterlimit:4;stroke-dasharray:none;stroke-dashoffset:0;stroke-opacity:1"
       id="path2985-5-7-9-6"
       cx="-191.9884"
       cy="-28.096556"
       r="6.1803155" />
    <text
       xml:space="preserve"
       style="font-size:8.46667px;line-height:1.25;font-family:sans-serif;letter-spacing:0px;word-spacing:0px;stroke-width:1.05833333;stroke-miterlimit:4;stroke-dasharray:none"
       x="-48.95649"
       y="208.47801"
       id="text1542-0"><tspan
         sodipodi:role="line"
         id="tspan1540-6"
         x="-48.95649"
         y="208.47801"
         style="stroke-width:1.05833333;stroke-miterlimit:4;stroke-dasharray:none">Sousveillance (&quot;cyborg&quot;):</tspan><tspan
         id="tspan1916"
         sodipodi:role="line"
         x="-48.95649"
         y="219.06136"
         style="stroke-width:1.05833333;stroke-miterlimit:4;stroke-dasharray:none">User and tech together</tspan><tspan
         sodipodi:role="line"
         x="-48.95649"
         y="229.64468"
         style="stroke-width:1.05833333;stroke-miterlimit:4;stroke-dasharray:none"
         id="tspan1544-2">(opportunity, affinity)</tspan></text>
    <text
       id="text1542-0-6"
       y="47.115757"
       x="160.71974"
       style="font-size:8.46667px;line-height:1.25;font-family:sans-serif;letter-spacing:0px;word-spacing:0px;stroke-width:1.05833333;stroke-miterlimit:4;stroke-dasharray:none"
       xml:space="preserve"><tspan
         id="tspan1544-2-8"
         style="stroke-width:1.05833333;stroke-miterlimit:4;stroke-dasharray:none"
         y="47.115757"
         x="160.71974"
         sodipodi:role="line">Surveillance:</tspan><tspan
         id="tspan1914"
         style="stroke-width:1.05833333;stroke-miterlimit:4;stroke-dasharray:none"
         y="57.699093"
         x="160.71974"
         sodipodi:role="line">User and tech apart</tspan><tspan
         id="tspan1908"
         style="stroke-width:1.05833333;stroke-miterlimit:4;stroke-dasharray:none"
         y="68.282433"
         x="160.71974"
         sodipodi:role="line">(challenge, problem)</tspan></text>
    <text
       id="text1920"
       y="148.0088"
       x="125.89462"
       style="font-size:8.46667px;line-height:1.25;font-family:sans-serif;letter-spacing:0px;word-spacing:0px;stroke-width:1.05833333;stroke-miterlimit:4;stroke-dasharray:none"
       xml:space="preserve"><tspan
         style="stroke-width:1.05833333;stroke-miterlimit:4;stroke-dasharray:none"
         y="148.0088"
         x="125.89462"
         id="tspan1918"
         sodipodi:role="line">X</tspan></text>
    <text
       id="text1924"
       y="116.51503"
       x="96.612213"
       style="font-size:8.46667px;line-height:1.25;font-family:sans-serif;letter-spacing:0px;word-spacing:0px;stroke-width:1.05833333;stroke-miterlimit:4;stroke-dasharray:none"
       xml:space="preserve"><tspan
         style="stroke-width:1.05833333;stroke-miterlimit:4;stroke-dasharray:none"
         y="116.51503"
         x="96.612213"
         id="tspan1922"
         sodipodi:role="line">Y</tspan></text>
    <text
       id="text1928"
       y="123.80293"
       x="116.79171"
       style="font-size:8.46667px;line-height:1.25;font-family:sans-serif;letter-spacing:0px;word-spacing:0px;stroke-width:1.05833333;stroke-miterlimit:4;stroke-dasharray:none"
       xml:space="preserve"><tspan
         style="stroke-width:1.05833333;stroke-miterlimit:4;stroke-dasharray:none"
         y="123.80293"
         x="116.79171"
         id="tspan1926"
         sodipodi:role="line">Z</tspan></text>
    <a
       id="a2760"
       xlink:href="https://www.cbc.ca/news/canada/windsor/university-of-windsor-researcher-beach-drowning-1.6373052"
       transform="translate(-2.1381562,2.6726953)">
      <text
         xml:space="preserve"
         style="font-style:normal;font-weight:normal;font-size:10.58329964px;line-height:1.25;font-family:sans-serif;fill:#000000;fill-opacity:1;stroke:none;stroke-width:0.26458299"
         x="-29.15498"
         y="241.07912"
         id="text1668"><tspan
           sodipodi:role="line"
           id="tspan1666"
           style="stroke-width:0.26458299;font-size:8.46666667px"
           x="-29.15498"
           y="241.07912">beach</tspan><tspan
           sodipodi:role="line"
           style="stroke-width:0.26458299"
           x="-29.15498"
           y="254.30824"
           id="tspan1670" /></text>
    </a>
    <a
       xlink:href="wearcam.org"
       transform="translate(-24.856066,3.7417734)"
       id="a1081">
      <text
         id="text1079"
         y="79.282059"
         x="-8.5752258"
         style="font-style:normal;font-weight:normal;font-size:4.23333311px;line-height:1.25;font-family:sans-serif;letter-spacing:0px;word-spacing:0px;fill:#000000;fill-opacity:1;stroke:none;stroke-width:0.26458332"
         xml:space="preserve"><tspan
           style="font-size:8.46666622px;fill:#0000ff;stroke-width:0.26458332"
           y="79.282059"
           x="-8.5752258"
           id="tspan1077"
           sodipodi:role="line">Toilet</tspan></text>
    </a>
    <text
       xml:space="preserve"
       style="font-style:normal;font-weight:normal;font-size:4.23333311px;line-height:1.25;font-family:sans-serif;letter-spacing:0px;word-spacing:0px;fill:#000000;fill-opacity:1;stroke:none;stroke-width:0.26458332"
       x="144.83748"
       y="212.64955"
       id="text4802"><tspan
         sodipodi:role="line"
         id="tspan4800"
         x="144.83748"
         y="212.64955"
         style="stroke-width:0.26458332;font-size:8.46666667px">Mersivity</tspan></text>
    <path
       style="fill:none;fill-opacity:1;stroke:#0000ff;stroke-width:6.25566113;stroke-linecap:round;stroke-linejoin:round;stroke-miterlimit:4;stroke-dasharray:none;stroke-opacity:1"
       d="m -108.85742,65.446093 c -4.87154,19.661585 -14.08235,38.235697 -26.78516,54.013797 -5.39727,6.70392 -11.45978,12.97495 -15.60296,20.51863 -4.00749,7.29662 -6.07753,15.64557 -5.94628,23.96923 0.13126,8.32366 2.46316,16.60238 6.69274,23.77254 4.22959,7.17016 10.34663,13.21512 17.56476,17.36231 7.21812,4.14719 15.52033,6.38726 23.84488,6.43707 8.32455,0.0498 16.652147,-2.09039 23.922772,-6.14484 7.270625,-4.05446 13.467711,-10.01352 17.806525,-17.11811 4.338815,-7.1046 6.809736,-15.33829 7.103055,-23.65782 0.293319,-8.31953 -1.591278,-16.70597 -5.412805,-24.10168 -4.050541,-7.83891 -10.12341,-14.40567 -15.56984,-21.34771 -12.500414,-15.93307 -21.929007,-34.267219 -27.617687,-53.703317"
       id="path854-5-7"
       inkscape:path-effect="#path-effect1027-3"
       inkscape:original-d="m -108.85742,65.446093 c -8.92717,18.00557 -17.85556,36.010177 -26.78516,54.013797 -8.92969,18.00351 -8.43544,11.55955 -15.60296,20.51863 -7.16744,8.95908 79.647927,-7.21743 85.575647,0.5187 5.95058,7.76589 -8.14031,-8.14269 -15.56984,-21.34771 -7.7047,-13.69396 -17.81386,-35.340817 -27.617687,-53.703317"
       sodipodi:nodetypes="cssssc"
       inkscape:connector-curvature="0"
       transform="matrix(0.12688507,0,0,0.12688507,29.732923,-45.49802)" />
    <path
       id="path1705-9-3"
       style="fill:#000000;stroke:none;stroke-width:0.79375;stroke-miterlimit:4;stroke-dasharray:none"
       sodipodi:type="arc"
       sodipodi:cx="15.935185"
       sodipodi:cy="-27.932297"
       sodipodi:rx="0.0039057587"
       sodipodi:ry="0.015151694"
       sodipodi:start="6.1617647"
       sodipodi:end="0.40728455"
       sodipodi:arc-type="arc"
       d="m 15.939062,-27.934132 a 0.00390576,0.01515169 0 0 1 -2.9e-4,0.0078"
       sodipodi:open="true" />
    <ellipse
       id="path1711-1-5"
       style="fill:#000000;stroke:none;stroke-width:1.05833328;stroke-miterlimit:4;stroke-dasharray:none"
       cx="-7.958858"
       cy="-100.03854"
       rx="2.7378178e-07"
       ry="3.9465721e-07" />
    <rect
       ry="0.521927"
       y="-27.750969"
       x="12.398036"
       height="5.6654329"
       width="7.0817904"
       id="rect1034-0-2"
       style="opacity:0.994586;fill:none;fill-opacity:1;stroke:#00ff00;stroke-width:0.79375;stroke-linecap:round;stroke-linejoin:round;stroke-miterlimit:4;stroke-dasharray:none;stroke-opacity:1" />
    <circle
       r="2.1278546"
       cy="-15.938931"
       cx="24.918253"
       id="path2985-5-7-9-9"
       style="fill:none;fill-opacity:1;stroke:#ff0000;stroke-width:0.79375;stroke-linecap:round;stroke-linejoin:round;stroke-miterlimit:4;stroke-dasharray:none;stroke-dashoffset:0;stroke-opacity:1"
       transform="matrix(0,-1,-1,0,0,0)" />
    <flowRoot
       xml:space="preserve"
       id="flowRoot4870"
       style="font-style:normal;font-weight:normal;font-size:16px;line-height:1.25;font-family:sans-serif;letter-spacing:0px;word-spacing:0px;fill:#000000;fill-opacity:1;stroke:none"
       transform="matrix(0.26458333,0,0,0.26458333,-48.398384,14.167296)"><flowRegion
         id="flowRegion4872"><rect
           id="rect4874"
           width="7.0710678"
           height="33.335033"
           x="209.10158"
           y="-271.09506" /></flowRegion><flowPara
         id="flowPara4876">XR</flowPara></flowRoot>    <text
       xml:space="preserve"
       style="font-style:normal;font-weight:normal;font-size:4.23333311px;line-height:1.25;font-family:sans-serif;letter-spacing:0px;word-spacing:0px;fill:#000000;fill-opacity:1;stroke:none;stroke-width:0.26458332"
       x="10.400913"
       y="-50.343658"
       id="text4880"><tspan
         sodipodi:role="line"
         id="tspan4878"
         x="10.400913"
         y="-46.598152"
         style="stroke-width:0.26458332" /></text>
    <text
       xml:space="preserve"
       style="font-style:normal;font-weight:normal;font-size:4.23333311px;line-height:1.25;font-family:sans-serif;letter-spacing:0px;word-spacing:0px;fill:#000000;fill-opacity:1;stroke:none;stroke-width:0.26458332"
       x="-14.722426"
       y="-13.193195"
       id="text4884"><tspan
         sodipodi:role="line"
         id="tspan4882"
         x="-14.722426"
         y="-13.193195"
         style="stroke-width:0.26458332">1991</tspan></text>
    <text
       xml:space="preserve"
       style="font-style:normal;font-weight:normal;font-size:4.23333311px;line-height:1.25;font-family:sans-serif;letter-spacing:0px;word-spacing:0px;fill:#000000;fill-opacity:1;stroke:none;stroke-width:0.26458332"
       x="38.533268"
       y="-8.0275736"
       id="text4888"
       transform="rotate(-90)"><tspan
         sodipodi:role="line"
         id="tspan4886"
         x="38.533268"
         y="-8.0275736"
         style="stroke-width:0.26458332">XR=Extended Reality [Mann and Wyckoff, 1991]</tspan></text>
    <path
       style="fill:none;fill-opacity:1;stroke:#0000ff;stroke-width:8.34088135;stroke-linecap:round;stroke-linejoin:round;stroke-miterlimit:4;stroke-dasharray:none;stroke-opacity:1"
       d="m -108.85742,65.446093 c -4.87154,19.661585 -14.08235,38.235697 -26.78516,54.013797 -5.39727,6.70392 -11.45978,12.97495 -15.60296,20.51863 -4.00749,7.29662 -6.07753,15.64557 -5.94628,23.96923 0.13126,8.32366 2.46316,16.60238 6.69274,23.77254 4.22959,7.17016 10.34663,13.21512 17.56476,17.36231 7.21812,4.14719 15.52033,6.38726 23.84488,6.43707 8.32455,0.0498 16.652147,-2.09039 23.922772,-6.14484 7.270625,-4.05446 13.467711,-10.01352 17.806525,-17.11811 4.338815,-7.1046 6.809736,-15.33829 7.103055,-23.65782 0.293319,-8.31953 -1.591278,-16.70597 -5.412805,-24.10168 -4.050541,-7.83891 -10.12341,-14.40567 -15.56984,-21.34771 -12.500414,-15.93307 -21.929007,-34.267219 -27.617687,-53.703317"
       id="path854-5-7-2"
       inkscape:path-effect="#path-effect1027-3-1"
       inkscape:original-d="m -108.85742,65.446093 c -8.92717,18.00557 -17.85556,36.010177 -26.78516,54.013797 -8.92969,18.00351 -8.43544,11.55955 -15.60296,20.51863 -7.16744,8.95908 79.647927,-7.21743 85.575647,0.5187 5.95058,7.76589 -8.14031,-8.14269 -15.56984,-21.34771 -7.7047,-13.69396 -17.81386,-35.340817 -27.617687,-53.703317"
       sodipodi:nodetypes="cssssc"
       inkscape:connector-curvature="0"
       transform="matrix(0.12688507,0,0,0.12688507,4.0160535,-45.193557)" />
    <path
       id="path1705-9-3-7"
       style="fill:#000000;stroke:none;stroke-width:1.05833328;stroke-miterlimit:4;stroke-dasharray:none"
       sodipodi:type="arc"
       sodipodi:cx="-9.7816839"
       sodipodi:cy="-27.627832"
       sodipodi:rx="0.0039057587"
       sodipodi:ry="0.015151694"
       sodipodi:start="6.1617647"
       sodipodi:end="0.40728455"
       sodipodi:arc-type="arc"
       d="m -9.7778069,-27.629668 a 0.00390576,0.01515169 0 0 1 -2.908e-4,0.0078"
       sodipodi:open="true" />
    <rect
       ry="0.9120639"
       y="-29.769573"
       x="-15.965629"
       height="9.9003057"
       width="12.375381"
       id="rect1034-0-2-0"
       style="opacity:0.994586;fill:none;fill-opacity:1;stroke:#00ff00;stroke-width:1.05833328;stroke-linecap:round;stroke-linejoin:round;stroke-miterlimit:4;stroke-dasharray:none;stroke-opacity:1" />
    <circle
       r="6.1803155"
       cy="9.7779379"
       cx="24.685787"
       id="path2985-5-7-9-9-9"
       style="fill:none;fill-opacity:1;stroke:#ff0000;stroke-width:1.05833328;stroke-linecap:round;stroke-linejoin:round;stroke-miterlimit:4;stroke-dasharray:none;stroke-dashoffset:0;stroke-opacity:1"
       transform="matrix(0,-1,-1,0,0,0)" />
    <text
       xml:space="preserve"
       style="font-style:normal;font-weight:normal;font-size:4.23333311px;line-height:1.25;font-family:sans-serif;letter-spacing:0px;word-spacing:0px;fill:#000000;fill-opacity:1;stroke:none;stroke-width:0.26458332"
       x="38.541397"
       y="17.429445"
       id="text4919"
       transform="rotate(-90)"><tspan
         sodipodi:role="line"
         id="tspan4917"
         x="38.541397"
         y="17.429445"
         style="stroke-width:0.26458332">Mersivity</tspan></text>
    <text
       xml:space="preserve"
       style="font-style:normal;font-weight:normal;font-size:4.23333311px;line-height:1.25;font-family:sans-serif;letter-spacing:0px;word-spacing:0px;fill:#000000;fill-opacity:1;stroke:none;stroke-width:0.26458332"
       x="10.856883"
       y="-14.057632"
       id="text4884-3"><tspan
         sodipodi:role="line"
         id="tspan4882-6"
         x="10.856883"
         y="-14.057632"
         style="stroke-width:0.26458332">????</tspan></text>
    <text
       xml:space="preserve"
       style="font-style:normal;font-weight:normal;font-size:4.23333311px;line-height:1.25;font-family:sans-serif;letter-spacing:0px;word-spacing:0px;fill:#000000;fill-opacity:1;stroke:none;stroke-width:0.26458332"
       x="33.119156"
       y="-11.455944"
       id="text4941"><tspan
         sodipodi:role="line"
         id="tspan4939"
         x="33.119156"
         y="-11.455944"
         style="stroke-width:0.26458332">????</tspan></text>
    <path
       style="fill:none;fill-opacity:1;stroke:#0000ff;stroke-width:8.34088135;stroke-linecap:round;stroke-linejoin:round;stroke-miterlimit:4;stroke-dasharray:none;stroke-opacity:1"
       d="m -108.85742,65.446093 c -4.87154,19.661585 -14.08235,38.235697 -26.78516,54.013797 -5.39727,6.70392 -11.45978,12.97495 -15.60296,20.51863 -4.00749,7.29662 -6.07753,15.64557 -5.94628,23.96923 0.13126,8.32366 2.46316,16.60238 6.69274,23.77254 4.22959,7.17016 10.34663,13.21512 17.56476,17.36231 7.21812,4.14719 15.52033,6.38726 23.84488,6.43707 8.32455,0.0498 16.652147,-2.09039 23.922772,-6.14484 7.270625,-4.05446 13.467711,-10.01352 17.806525,-17.11811 4.338815,-7.1046 6.809736,-15.33829 7.103055,-23.65782 0.293319,-8.31953 -1.591278,-16.70597 -5.412805,-24.10168 -4.050541,-7.83891 -10.12341,-14.40567 -15.56984,-21.34771 -12.500414,-15.93307 -21.929007,-34.267219 -27.617687,-53.703317"
       id="path854-5-7-2-6"
       inkscape:path-effect="#path-effect1027-3-1-0"
       inkscape:original-d="m -108.85742,65.446093 c -8.92717,18.00557 -17.85556,36.010177 -26.78516,54.013797 -8.92969,18.00351 -8.43544,11.55955 -15.60296,20.51863 -7.16744,8.95908 79.647927,-7.21743 85.575647,0.5187 5.95058,7.76589 -8.14031,-8.14269 -15.56984,-21.34771 -7.7047,-13.69396 -17.81386,-35.340817 -27.617687,-53.703317"
       sodipodi:nodetypes="cssssc"
       inkscape:connector-curvature="0"
       transform="matrix(0.12688507,0,0,0.12688507,51.411064,-46.93081)" />
    <path
       id="path1705-9-3-7-2"
       style="fill:#000000;stroke:none;stroke-width:1.05833328;stroke-miterlimit:4;stroke-dasharray:none"
       sodipodi:type="arc"
       sodipodi:cx="37.613327"
       sodipodi:cy="-29.365086"
       sodipodi:rx="0.0039057587"
       sodipodi:ry="0.015151694"
       sodipodi:start="6.1617647"
       sodipodi:end="0.40728455"
       sodipodi:arc-type="arc"
       d="m 37.617204,-29.366921 a 0.00390576,0.01515169 0 0 1 -2.91e-4,0.0078"
       sodipodi:open="true" />
    <rect
       ry="0.9120639"
       y="-18.009714"
       x="31.429382"
       height="9.9003057"
       width="12.375381"
       id="rect1034-0-2-0-6"
       style="opacity:0.994586;fill:none;fill-opacity:1;stroke:#00ff00;stroke-width:1.05833328;stroke-linecap:round;stroke-linejoin:round;stroke-miterlimit:4;stroke-dasharray:none;stroke-opacity:1" />
    <circle
       r="4.3954353"
       cy="-37.617073"
       cx="26.602005"
       id="path2985-5-7-9-9-9-1"
       style="fill:none;fill-opacity:1;stroke:#ff0000;stroke-width:0.75268573;stroke-linecap:round;stroke-linejoin:round;stroke-miterlimit:4;stroke-dasharray:none;stroke-dashoffset:0;stroke-opacity:1"
       transform="matrix(0,-1,-1,0,0,0)" />
    <text
       xml:space="preserve"
       style="font-style:normal;font-weight:normal;font-size:4.23333311px;line-height:1.25;font-family:sans-serif;letter-spacing:0px;word-spacing:0px;fill:#000000;fill-opacity:1;stroke:none;stroke-width:0.26458332"
       x="40.432808"
       y="38.950977"
       id="text4972"
       transform="rotate(-90)"><tspan
         sodipodi:role="line"
         id="tspan4970"
         x="40.432808"
         y="38.950977"
         style="stroke-width:0.26458332">Smart Beach Project</tspan></text>
    <text
       xml:space="preserve"
       style="font-style:normal;font-weight:normal;font-size:4.23333311px;line-height:1.25;font-family:sans-serif;letter-spacing:0px;word-spacing:0px;fill:#000000;fill-opacity:1;stroke:none;stroke-width:0.26458332"
       x="41.806385"
       y="59.686714"
       id="text4976"
       transform="rotate(-90)"><tspan
         sodipodi:role="line"
         id="tspan4974"
         x="41.806385"
         y="59.686714"
         style="stroke-width:0.26458332">Stanford Toilet</tspan></text>
    <text
       xml:space="preserve"
       style="font-style:normal;font-weight:normal;font-size:4.23333311px;line-height:1.25;font-family:sans-serif;letter-spacing:0px;word-spacing:0px;fill:#000000;fill-opacity:1;stroke:none;stroke-width:0.26458332"
       x="53.6106"
       y="-15.014955"
       id="text4941-7"><tspan
         sodipodi:role="line"
         id="tspan4939-9"
         x="53.6106"
         y="-15.014955"
         style="stroke-width:0.26458332">????</tspan></text>
    <path
       style="fill:none;fill-opacity:1;stroke:#0000ff;stroke-width:16.11641502;stroke-linecap:round;stroke-linejoin:round;stroke-miterlimit:4;stroke-dasharray:none;stroke-opacity:1"
       d="m -108.85742,65.446093 c -4.87154,19.661585 -14.08235,38.235697 -26.78516,54.013797 -5.39727,6.70392 -11.45978,12.97495 -15.60296,20.51863 -4.00749,7.29662 -6.07753,15.64557 -5.94628,23.96923 0.13126,8.32366 2.46316,16.60238 6.69274,23.77254 4.22959,7.17016 10.34663,13.21512 17.56476,17.36231 7.21812,4.14719 15.52033,6.38726 23.84488,6.43707 8.32455,0.0498 16.652147,-2.09039 23.922772,-6.14484 7.270625,-4.05446 13.467711,-10.01352 17.806525,-17.11811 4.338815,-7.1046 6.809736,-15.33829 7.103055,-23.65782 0.293319,-8.31953 -1.591278,-16.70597 -5.412805,-24.10168 -4.050541,-7.83891 -10.12341,-14.40567 -15.56984,-21.34771 -12.500414,-15.93307 -21.929007,-34.267219 -27.617687,-53.703317"
       id="path854-5-7-2-6-2"
       inkscape:path-effect="#path-effect1027-3-1-0-8"
       inkscape:original-d="m -108.85742,65.446093 c -8.92717,18.00557 -17.85556,36.010177 -26.78516,54.013797 -8.92969,18.00351 -8.43544,11.55955 -15.60296,20.51863 -7.16744,8.95908 79.647927,-7.21743 85.575647,0.5187 5.95058,7.76589 -8.14031,-8.14269 -15.56984,-21.34771 -7.7047,-13.69396 -17.81386,-35.340817 -27.617687,-53.703317"
       sodipodi:nodetypes="cssssc"
       inkscape:connector-curvature="0"
       transform="matrix(0.04925103,0,0,0.04925103,63.462716,-31.5912)" />
    <path
       id="path1705-9-3-7-2-0"
       style="fill:#000000;stroke:none;stroke-width:0.79374999;stroke-miterlimit:4;stroke-dasharray:none"
       sodipodi:type="arc"
       sodipodi:cx="58.107063"
       sodipodi:cy="-24.77298"
       sodipodi:rx="0.0015160386"
       sodipodi:ry="0.005881201"
       sodipodi:start="6.1617647"
       sodipodi:end="0.40728455"
       sodipodi:arc-type="arc"
       d="m 58.108568,-24.773692 a 0.00151604,0.0058812 0 0 1 -1.13e-4,0.003"
       sodipodi:open="true" />
    <rect
       ry="0.8576262"
       y="-29.320274"
       x="52.290146"
       height="9.3093929"
       width="11.636741"
       id="rect1034-0-2-0-6-2"
       style="opacity:0.994586;fill:none;fill-opacity:1;stroke:#00ff00;stroke-width:0.79374999;stroke-linecap:round;stroke-linejoin:round;stroke-miterlimit:4;stroke-dasharray:none;stroke-opacity:1" />
    <circle
       r="4.3954353"
       cy="-58.108517"
       cx="35.934174"
       id="path2985-5-7-9-9-9-1-3"
       style="fill:none;fill-opacity:1;stroke:#ff0000;stroke-width:0.75268573;stroke-linecap:round;stroke-linejoin:round;stroke-miterlimit:4;stroke-dasharray:none;stroke-dashoffset:0;stroke-opacity:1"
       transform="matrix(0,-1,-1,0,0,0)" />
    <path
       style="fill:none;stroke:#000000;stroke-width:0.26458332px;stroke-linecap:butt;stroke-linejoin:miter;stroke-opacity:1"
       d="M 85.303194,-40.855593 H 164.54861"
       id="path5011"
       inkscape:connector-curvature="0" />
    <path
       style="fill:none;stroke:#000000;stroke-width:0.26458332px;stroke-linecap:butt;stroke-linejoin:miter;stroke-opacity:1"
       d="M 124.9259,-1.232887 V -80.478299"
       id="path5011-7"
       inkscape:connector-curvature="0" />
    <path
       style="fill:none;fill-opacity:1;stroke:#0000ff;stroke-width:8.34088135;stroke-linecap:round;stroke-linejoin:round;stroke-miterlimit:4;stroke-dasharray:none;stroke-opacity:1"
       d="m -108.85742,65.446093 c -4.87154,19.661585 -14.08235,38.235697 -26.78516,54.013797 -5.39727,6.70392 -11.45978,12.97495 -15.60296,20.51863 -4.00749,7.29662 -6.07753,15.64557 -5.94628,23.96923 0.13126,8.32366 2.46316,16.60238 6.69274,23.77254 4.22959,7.17016 10.34663,13.21512 17.56476,17.36231 7.21812,4.14719 15.52033,6.38726 23.84488,6.43707 8.32455,0.0498 16.652147,-2.09039 23.922772,-6.14484 7.270625,-4.05446 13.467711,-10.01352 17.806525,-17.11811 4.338815,-7.1046 6.809736,-15.33829 7.103055,-23.65782 0.293319,-8.31953 -1.591278,-16.70597 -5.412805,-24.10168 -4.050541,-7.83891 -10.12341,-14.40567 -15.56984,-21.34771 -12.500414,-15.93307 -21.929007,-34.267219 -27.617687,-53.703317"
       id="path854-5-7-2-9"
       inkscape:path-effect="#path-effect1027-3-1-5"
       inkscape:original-d="m -108.85742,65.446093 c -8.92717,18.00557 -17.85556,36.010177 -26.78516,54.013797 -8.92969,18.00351 -8.43544,11.55955 -15.60296,20.51863 -7.16744,8.95908 79.647927,-7.21743 85.575647,0.5187 5.95058,7.76589 -8.14031,-8.14269 -15.56984,-21.34771 -7.7047,-13.69396 -17.81386,-35.340817 -27.617687,-53.703317"
       sodipodi:nodetypes="cssssc"
       inkscape:connector-curvature="0"
       transform="matrix(0.04082066,0,0,0.04082066,122.43561,-41.010728)" />
    <path
       id="path1705-9-3-7-22"
       style="fill:#000000;stroke:none;stroke-width:1.05833328;stroke-miterlimit:4;stroke-dasharray:none"
       sodipodi:type="arc"
       sodipodi:cx="157.29491"
       sodipodi:cy="-29.515499"
       sodipodi:rx="0.0039057587"
       sodipodi:ry="0.015151694"
       sodipodi:start="6.1617647"
       sodipodi:end="0.40728455"
       sodipodi:arc-type="arc"
       d="m 157.29878,-29.517334 a 0.00390576,0.01515169 0 0 1 -2.9e-4,0.0078"
       sodipodi:open="true" />
    <circle
       r="1.988292"
       cy="-117.86902"
       cx="29.812937"
       id="path2985-5-7-9-9-9-9"
       style="fill:none;fill-opacity:1;stroke:#ff0000;stroke-width:0.34048027;stroke-linecap:round;stroke-linejoin:round;stroke-miterlimit:4;stroke-dasharray:none;stroke-dashoffset:0;stroke-opacity:1"
       transform="matrix(0,-1,-1,0,0,0)" />
    <path
       id="path1705-9-3-7-22-6"
       style="fill:#000000;stroke:none;stroke-width:1.05833328;stroke-miterlimit:4;stroke-dasharray:none"
       sodipodi:type="arc"
       sodipodi:cx="123.80039"
       sodipodi:cy="-26.422615"
       sodipodi:rx="0.0039057587"
       sodipodi:ry="0.015151694"
       sodipodi:start="6.1617647"
       sodipodi:end="0.40728455"
       sodipodi:arc-type="arc"
       d="m 123.80427,-26.42445 a 0.00390576,0.01515169 0 0 1 -2.9e-4,0.0078"
       sodipodi:open="true" />
    <g
       id="g5232"
       transform="matrix(0.38783191,0,0,0.38783191,85.1546,-13.682207)">
      <path
         transform="matrix(0.12688507,0,0,0.12688507,204.4155,-62.029037)"
         inkscape:connector-curvature="0"
         sodipodi:nodetypes="cssssc"
         inkscape:original-d="m -108.85742,65.446093 c -8.92717,18.00557 -17.85556,36.010177 -26.78516,54.013797 -8.92969,18.00351 -8.43544,11.55955 -15.60296,20.51863 -7.16744,8.95908 79.647927,-7.21743 85.575647,0.5187 5.95058,7.76589 -8.14031,-8.14269 -15.56984,-21.34771 -7.7047,-13.69396 -17.81386,-35.340817 -27.617687,-53.703317"
         inkscape:path-effect="#path-effect1027-3-1-5-7"
         id="path854-5-7-2-9-3"
         d="m -108.85742,65.446093 c -4.87154,19.661585 -14.08235,38.235697 -26.78516,54.013797 -5.39727,6.70392 -11.45978,12.97495 -15.60296,20.51863 -4.00749,7.29662 -6.07753,15.64557 -5.94628,23.96923 0.13126,8.32366 2.46316,16.60238 6.69274,23.77254 4.22959,7.17016 10.34663,13.21512 17.56476,17.36231 7.21812,4.14719 15.52033,6.38726 23.84488,6.43707 8.32455,0.0498 16.652147,-2.09039 23.922772,-6.14484 7.270625,-4.05446 13.467711,-10.01352 17.806525,-17.11811 4.338815,-7.1046 6.809736,-15.33829 7.103055,-23.65782 0.293319,-8.31953 -1.591278,-16.70597 -5.412805,-24.10168 -4.050541,-7.83891 -10.12341,-14.40567 -15.56984,-21.34771 -12.500414,-15.93307 -21.929007,-34.267219 -27.617687,-53.703317"
         style="fill:none;fill-opacity:1;stroke:#0000ff;stroke-width:6.25566101;stroke-linecap:round;stroke-linejoin:round;stroke-miterlimit:4;stroke-dasharray:none;stroke-opacity:1" />
      <circle
         transform="matrix(0,-1,-1,0,0,0)"
         style="fill:none;fill-opacity:1;stroke:#ff0000;stroke-width:0.79374999;stroke-linecap:round;stroke-linejoin:round;stroke-miterlimit:4;stroke-dasharray:none;stroke-dashoffset:0;stroke-opacity:1"
         id="path2985-5-7-9-9-9-9-1"
         cx="41.37151"
         cy="-190.63768"
         r="4.7031732" />
    </g>
    <path
       style="fill:none;fill-opacity:1;stroke:#0000ff;stroke-width:13.76199245;stroke-linecap:round;stroke-linejoin:round;stroke-miterlimit:4;stroke-dasharray:none;stroke-opacity:1"
       d="m -108.85742,65.446093 c -4.87154,19.661585 -14.08235,38.235697 -26.78516,54.013797 -5.39727,6.70392 -11.45978,12.97495 -15.60296,20.51863 -4.00749,7.29662 -6.07753,15.64557 -5.94628,23.96923 0.13126,8.32366 2.46316,16.60238 6.69274,23.77254 4.22959,7.17016 10.34663,13.21512 17.56476,17.36231 7.21812,4.14719 15.52033,6.38726 23.84488,6.43707 8.32455,0.0498 16.652147,-2.09039 23.922772,-6.14484 7.270625,-4.05446 13.467711,-10.01352 17.806525,-17.11811 4.338815,-7.1046 6.809736,-15.33829 7.103055,-23.65782 0.293319,-8.31953 -1.591278,-16.70597 -5.412805,-24.10168 -4.050541,-7.83891 -10.12341,-14.40567 -15.56984,-21.34771 -12.500414,-15.93307 -21.929007,-34.267219 -27.617687,-53.703317"
       id="path854-5-7-2-9-3-9"
       inkscape:path-effect="#path-effect1027-3-1-5-7-2"
       inkscape:original-d="m -108.85742,65.446093 c -8.92717,18.00557 -17.85556,36.010177 -26.78516,54.013797 -8.92969,18.00351 -8.43544,11.55955 -15.60296,20.51863 -7.16744,8.95908 79.647927,-7.21743 85.575647,0.5187 5.95058,7.76589 -8.14031,-8.14269 -15.56984,-21.34771 -7.7047,-13.69396 -17.81386,-35.340817 -27.617687,-53.703317"
       sodipodi:nodetypes="cssssc"
       inkscape:connector-curvature="0"
       transform="matrix(0.02838008,0,0,0.02838008,93.243007,-34.766249)" />
    <path
       id="path1705-9-3-7-22-6-3"
       style="fill:#000000;stroke:none;stroke-width:0.39056647;stroke-miterlimit:4;stroke-dasharray:none"
       sodipodi:type="arc"
       sodipodi:cx="89.976379"
       sodipodi:cy="-28.404974"
       sodipodi:rx="0.0019218373"
       sodipodi:ry="0.0074554253"
       sodipodi:start="6.1617647"
       sodipodi:end="0.40728455"
       sodipodi:arc-type="arc"
       d="m 89.978287,-28.405877 a 0.00192184,0.00745543 0 0 1 -1.43e-4,0.0039"
       sodipodi:open="true" />
    <circle
       r="3.0410383"
       cy="-90.175499"
       cx="30.705387"
       id="path2985-5-7-9-9-9-9-1-1"
       style="fill:none;fill-opacity:1;stroke:#ff0000;stroke-width:0.39056647;stroke-linecap:round;stroke-linejoin:round;stroke-miterlimit:4;stroke-dasharray:none;stroke-dashoffset:0;stroke-opacity:1"
       transform="matrix(0,-1,-1,0,0,0)" />
    <g
       id="g5214"
       transform="matrix(0.50471197,0,0,0.50471197,61.933165,-4.5775934)">
      <rect
         style="opacity:0.994586;fill:none;fill-opacity:1;stroke:#00ff00;stroke-width:0.79374999;stroke-linecap:round;stroke-linejoin:round;stroke-miterlimit:4;stroke-dasharray:none;stroke-opacity:1"
         id="rect1034-0-2-0-8"
         width="7.5659928"
         height="6.0527949"
         x="95.762276"
         y="-82.58976"
         ry="0.55761266" />
      <path
         transform="matrix(0.0775743,0,0,0.0775743,116.63878,-92.421523)"
         inkscape:connector-curvature="0"
         sodipodi:nodetypes="cssssc"
         inkscape:original-d="m -108.85742,65.446093 c -8.92717,18.00557 -17.85556,36.010177 -26.78516,54.013797 -8.92969,18.00351 -8.43544,11.55955 -15.60296,20.51863 -7.16744,8.95908 79.647927,-7.21743 85.575647,0.5187 5.95058,7.76589 -8.14031,-8.14269 -15.56984,-21.34771 -7.7047,-13.69396 -17.81386,-35.340817 -27.617687,-53.703317"
         inkscape:path-effect="#path-effect1027-3-1-5-9"
         id="path854-5-7-2-9-4"
         d="m -108.85742,65.446093 c -4.87154,19.661585 -14.08235,38.235697 -26.78516,54.013797 -5.39727,6.70392 -11.45978,12.97495 -15.60296,20.51863 -4.00749,7.29662 -6.07753,15.64557 -5.94628,23.96923 0.13126,8.32366 2.46316,16.60238 6.69274,23.77254 4.22959,7.17016 10.34663,13.21512 17.56476,17.36231 7.21812,4.14719 15.52033,6.38726 23.84488,6.43707 8.32455,0.0498 16.652147,-2.09039 23.922772,-6.14484 7.270625,-4.05446 13.467711,-10.01352 17.806525,-17.11811 4.338815,-7.1046 6.809736,-15.33829 7.103055,-23.65782 0.293319,-8.31953 -1.591278,-16.70597 -5.412805,-24.10168 -4.050541,-7.83891 -10.12341,-14.40567 -15.56984,-21.34771 -12.500414,-15.93307 -21.929007,-34.267219 -27.617687,-53.703317"
         style="fill:none;fill-opacity:1;stroke:#0000ff;stroke-width:10.23212624;stroke-linecap:round;stroke-linejoin:round;stroke-miterlimit:4;stroke-dasharray:none;stroke-opacity:1" />
    </g>
    <rect
       ry="0.54007286"
       y="-68.338562"
       x="233.62947"
       height="5.8624034"
       width="7.3280039"
       id="rect1034-0-2-0-8-8"
       style="opacity:0.994586;fill:none;fill-opacity:1;stroke:#00ff00;stroke-width:0.62668538;stroke-linecap:round;stroke-linejoin:round;stroke-miterlimit:4;stroke-dasharray:none;stroke-opacity:1" />
    <g
       id="g5210"
       transform="matrix(0.45016842,0,0,0.45016842,67.538846,-1.9310305)">
      <rect
         style="opacity:0.994586;fill:none;fill-opacity:1;stroke:#00ff00;stroke-width:0.79374999;stroke-linecap:round;stroke-linejoin:round;stroke-miterlimit:4;stroke-dasharray:none;stroke-opacity:1"
         id="rect1034-0-2-0-8-8-0"
         width="12.375381"
         height="9.9003057"
         x="109.06956"
         y="-8.398756"
         ry="0.9120639" />
      <path
         transform="matrix(0.05709286,0,0,0.05709286,121.39694,-11.431142)"
         inkscape:connector-curvature="0"
         sodipodi:nodetypes="cssssc"
         inkscape:original-d="m -108.85742,65.446093 c -8.92717,18.00557 -17.85556,36.010177 -26.78516,54.013797 -8.92969,18.00351 -8.43544,11.55955 -15.60296,20.51863 -7.16744,8.95908 79.647927,-7.21743 85.575647,0.5187 5.95058,7.76589 -8.14031,-8.14269 -15.56984,-21.34771 -7.7047,-13.69396 -17.81386,-35.340817 -27.617687,-53.703317"
         inkscape:path-effect="#path-effect1027-3-1-5-9-7-5"
         id="path854-5-7-2-9-4-4-3"
         d="m -108.85742,65.446093 c -4.87154,19.661585 -14.08235,38.235697 -26.78516,54.013797 -5.39727,6.70392 -11.45978,12.97495 -15.60296,20.51863 -4.00749,7.29662 -6.07753,15.64557 -5.94628,23.96923 0.13126,8.32366 2.46316,16.60238 6.69274,23.77254 4.22959,7.17016 10.34663,13.21512 17.56476,17.36231 7.21812,4.14719 15.52033,6.38726 23.84488,6.43707 8.32455,0.0498 16.652147,-2.09039 23.922772,-6.14484 7.270625,-4.05446 13.467711,-10.01352 17.806525,-17.11811 4.338815,-7.1046 6.809736,-15.33829 7.103055,-23.65782 0.293319,-8.31953 -1.591278,-16.70597 -5.412805,-24.10168 -4.050541,-7.83891 -10.12341,-14.40567 -15.56984,-21.34771 -12.500414,-15.93307 -21.929007,-34.267219 -27.617687,-53.703317"
         style="fill:none;fill-opacity:1;stroke:#0000ff;stroke-width:13.90278912;stroke-linecap:round;stroke-linejoin:round;stroke-miterlimit:4;stroke-dasharray:none;stroke-opacity:1" />
    </g>
    <text
       xml:space="preserve"
       style="font-style:normal;font-weight:normal;font-size:4.23333311px;line-height:1.25;font-family:sans-serif;letter-spacing:0px;word-spacing:0px;fill:#000000;fill-opacity:1;stroke:none;stroke-width:0.26458332"
       x="88.042702"
       y="-35.77747"
       id="text5165"><tspan
         sodipodi:role="line"
         id="tspan5163"
         x="88.042702"
         y="-35.77747"
         style="stroke-width:0.26458332">-</tspan></text>
    <text
       xml:space="preserve"
       style="font-style:normal;font-weight:normal;font-size:4.23333311px;line-height:1.25;font-family:sans-serif;letter-spacing:0px;word-spacing:0px;fill:#000000;fill-opacity:1;stroke:none;stroke-width:0.26458332"
       x="121.45141"
       y="-36.178379"
       id="text5169"><tspan
         sodipodi:role="line"
         id="tspan5167"
         x="121.45141"
         y="-36.178379"
         style="stroke-width:0.26458332">0</tspan></text>
    <text
       xml:space="preserve"
       style="font-style:normal;font-weight:normal;font-size:4.23333311px;line-height:1.25;font-family:sans-serif;letter-spacing:0px;word-spacing:0px;fill:#000000;fill-opacity:1;stroke:none;stroke-width:0.26458332"
       x="156.06279"
       y="-35.643833"
       id="text5173"><tspan
         sodipodi:role="line"
         id="tspan5171"
         x="156.06279"
         y="-35.643833"
         style="stroke-width:0.26458332">+</tspan></text>
    <g
       id="g5206"
       transform="matrix(0.5487954,0,0,0.5487954,44.748847,-75.484514)">
      <rect
         style="opacity:0.994586;fill:none;fill-opacity:1;stroke:#00ff00;stroke-width:0.79374999;stroke-linecap:round;stroke-linejoin:round;stroke-miterlimit:4;stroke-dasharray:none;stroke-opacity:1"
         id="rect1034-0-2-0-8-8-0-1"
         width="5.1683803"
         height="4.1347041"
         x="127.97215"
         y="-5.4773965"
         ry="0.38090888" />
      <path
         transform="matrix(0.08374079,0,0,0.08374079,139.65997,-17.17886)"
         inkscape:connector-curvature="0"
         sodipodi:nodetypes="cssssc"
         inkscape:original-d="m -108.85742,65.446093 c -8.92717,18.00557 -17.85556,36.010177 -26.78516,54.013797 -8.92969,18.00351 -8.43544,11.55955 -15.60296,20.51863 -7.16744,8.95908 79.647927,-7.21743 85.575647,0.5187 5.95058,7.76589 -8.14031,-8.14269 -15.56984,-21.34771 -7.7047,-13.69396 -17.81386,-35.340817 -27.617687,-53.703317"
         inkscape:path-effect="#path-effect1027-3-1-5-9-7-5-6"
         id="path854-5-7-2-9-4-4-3-0"
         d="m -108.85742,65.446093 c -4.87154,19.661585 -14.08235,38.235697 -26.78516,54.013797 -5.39727,6.70392 -11.45978,12.97495 -15.60296,20.51863 -4.00749,7.29662 -6.07753,15.64557 -5.94628,23.96923 0.13126,8.32366 2.46316,16.60238 6.69274,23.77254 4.22959,7.17016 10.34663,13.21512 17.56476,17.36231 7.21812,4.14719 15.52033,6.38726 23.84488,6.43707 8.32455,0.0498 16.652147,-2.09039 23.922772,-6.14484 7.270625,-4.05446 13.467711,-10.01352 17.806525,-17.11811 4.338815,-7.1046 6.809736,-15.33829 7.103055,-23.65782 0.293319,-8.31953 -1.591278,-16.70597 -5.412805,-24.10168 -4.050541,-7.83891 -10.12341,-14.40567 -15.56984,-21.34771 -12.500414,-15.93307 -21.929007,-34.267219 -27.617687,-53.703317"
         style="fill:none;fill-opacity:1;stroke:#0000ff;stroke-width:9.47865391;stroke-linecap:round;stroke-linejoin:round;stroke-miterlimit:4;stroke-dasharray:none;stroke-opacity:1" />
    </g>
    <text
       xml:space="preserve"
       style="font-style:normal;font-weight:normal;font-size:4.23333311px;line-height:1.25;font-family:sans-serif;letter-spacing:0px;word-spacing:0px;fill:#000000;fill-opacity:1;stroke:none;stroke-width:0.26458332"
       x="84.701851"
       y="-23.600592"
       id="text5198"><tspan
         sodipodi:role="line"
         x="84.701851"
         y="-23.600592"
         style="stroke-width:0.26458332"
         id="tspan5202">Drink</tspan></text>
    <text
       xml:space="preserve"
       style="font-style:normal;font-weight:normal;font-size:4.23333311px;line-height:1.25;font-family:sans-serif;letter-spacing:0px;word-spacing:0px;fill:#000000;fill-opacity:1;stroke:none;stroke-width:0.26458332"
       x="153.93539"
       y="-23.568361"
       id="text5236"><tspan
         sodipodi:role="line"
         id="tspan5234"
         x="153.93539"
         y="-23.568361"
         style="stroke-width:0.26458332">Swim</tspan></text>
    <path
       style="fill:none;stroke:#000000;stroke-width:0.26458332px;stroke-linecap:butt;stroke-linejoin:miter;stroke-opacity:1"
       d="m 180.56569,-16.133162 54.9907,-54.990704"
       id="path5238"
       inkscape:connector-curvature="0" />
    <circle
       r="2.6027293"
       cy="-237.29347"
       cx="65.407372"
       id="path2985-5-7-9-9-9-1-3-6"
       style="fill:none;fill-opacity:1;stroke:#ff0000;stroke-width:0.44569811;stroke-linecap:round;stroke-linejoin:round;stroke-miterlimit:4;stroke-dasharray:none;stroke-dashoffset:0;stroke-opacity:1"
       transform="matrix(0,-1,-1,0,0,0)" />
    <rect
       ry="0.33686352"
       y="-15.756484"
       x="184.09326"
       height="3.656599"
       width="4.5707488"
       id="rect1034-0-2-0-8-8-3"
       style="opacity:0.994586;fill:none;fill-opacity:1;stroke:#00ff00;stroke-width:0.39088699;stroke-linecap:round;stroke-linejoin:round;stroke-miterlimit:4;stroke-dasharray:none;stroke-opacity:1" />
    <circle
       r="3.4722214"
       cy="-186.37865"
       cx="13.928185"
       id="path2985-5-7-9-9-9-1-3-6-2"
       style="fill:none;fill-opacity:1;stroke:#ff0000;stroke-width:0.59459215;stroke-linecap:round;stroke-linejoin:round;stroke-miterlimit:4;stroke-dasharray:none;stroke-dashoffset:0;stroke-opacity:1"
       transform="matrix(0,-1,-1,0,0,0)" />
    <circle
       r="2.5490074"
       cy="-214.50874"
       cx="42.325577"
       id="path2985-5-7-9-9-9-1-3-6-2-6"
       style="fill:none;fill-opacity:1;stroke:#ff0000;stroke-width:0.43649861;stroke-linecap:round;stroke-linejoin:round;stroke-miterlimit:4;stroke-dasharray:none;stroke-dashoffset:0;stroke-opacity:1"
       transform="matrix(0,-1,-1,0,0,0)" />
    <rect
       ry="0.42244852"
       y="-44.618382"
       x="217.89432"
       height="4.5856104"
       width="5.7320123"
       id="rect1034-0-2-0-8-8-1"
       style="opacity:0.994586;fill:none;fill-opacity:1;stroke:#00ff00;stroke-width:0.49019739;stroke-linecap:round;stroke-linejoin:round;stroke-miterlimit:4;stroke-dasharray:none;stroke-opacity:1" />
    <text
       xml:space="preserve"
       style="font-style:normal;font-weight:normal;font-size:4.23333311px;line-height:1.25;font-family:sans-serif;letter-spacing:0px;word-spacing:0px;fill:#000000;fill-opacity:1;stroke:none;stroke-width:0.26458332"
       x="228.22559"
       y="-58.228111"
       id="text5346"><tspan
         sodipodi:role="line"
         id="tspan5344"
         x="228.22559"
         y="-58.228111"
         style="stroke-width:0.26458332">Sousveillance</tspan></text>
    <text
       xml:space="preserve"
       style="font-style:normal;font-weight:normal;font-size:4.23333311px;line-height:1.25;font-family:sans-serif;letter-spacing:0px;word-spacing:0px;fill:#000000;fill-opacity:1;stroke:none;stroke-width:0.26458332"
       x="176.77618"
       y="-5.9769192"
       id="text5350"><tspan
         sodipodi:role="line"
         id="tspan5348"
         x="176.77618"
         y="-5.9769192"
         style="stroke-width:0.26458332">Uberveillance</tspan></text>
    <text
       xml:space="preserve"
       style="font-style:normal;font-weight:normal;font-size:4.23333311px;line-height:1.25;font-family:sans-serif;letter-spacing:0px;word-spacing:0px;fill:#000000;fill-opacity:1;stroke:none;stroke-width:0.26458332"
       x="206.59288"
       y="-35.114666"
       id="text5354"><tspan
         sodipodi:role="line"
         id="tspan5352"
         x="206.59288"
         y="-35.114666"
         style="stroke-width:0.26458332">Surveillance</tspan></text>
    <text
       xml:space="preserve"
       style="font-style:normal;font-weight:normal;font-size:4.23333311px;line-height:1.25;font-family:sans-serif;letter-spacing:0px;word-spacing:0px;fill:#000000;fill-opacity:1;stroke:none;stroke-width:0.26458332"
       x="102.07435"
       y="-7.7141728"
       id="text5358"><tspan
         sodipodi:role="line"
         id="tspan5356"
         x="102.07435"
         y="-7.7141728"
         style="stroke-width:0.26458332">Smart plumbing</tspan></text>
    <text
       xml:space="preserve"
       style="font-style:normal;font-weight:normal;font-size:4.23333311px;line-height:1.25;font-family:sans-serif;letter-spacing:0px;word-spacing:0px;fill:#000000;fill-opacity:1;stroke:none;stroke-width:0.26458332"
       x="128.93495"
       y="-42.860111"
       id="text5372"><tspan
         sodipodi:role="line"
         id="tspan5370"
         x="128.93495"
         y="-42.860111"
         style="stroke-width:0.26458332">Water-human closeness</tspan></text>
    <text
       xml:space="preserve"
       style="font-style:normal;font-weight:normal;font-size:4.23333311px;line-height:1.25;font-family:sans-serif;letter-spacing:0px;word-spacing:0px;fill:#000000;fill-opacity:1;stroke:none;stroke-width:0.26458332"
       x="44.425209"
       y="123.04269"
       id="text5376"
       transform="rotate(-90)"><tspan
         sodipodi:role="line"
         id="tspan5374"
         x="44.425209"
         y="123.04269"
         style="stroke-width:0.26458332">Water-tech closeness</tspan></text>
    <text
       xml:space="preserve"
       style="font-style:normal;font-weight:normal;font-size:4.23333311px;line-height:1.25;font-family:sans-serif;letter-spacing:0px;word-spacing:0px;fill:#000000;fill-opacity:1;stroke:none;stroke-width:0.26458332"
       x="158.71457"
       y="114.00124"
       id="text5380"
       transform="rotate(-45)"><tspan
         sodipodi:role="line"
         id="tspan5378"
         x="158.71457"
         y="114.00124"
         style="stroke-width:0.26458332">Human-tech closeness</tspan></text>
    <text
       xml:space="preserve"
       style="font-style:normal;font-weight:normal;font-size:4.23333311px;line-height:1.25;font-family:sans-serif;letter-spacing:0px;word-spacing:0px;fill:#000000;fill-opacity:1;stroke:none;stroke-width:0.26458332"
       x="103.81161"
       y="-83.084175"
       id="text5403"><tspan
         sodipodi:role="line"
         id="tspan5401"
         x="103.81161"
         y="-83.084175"
         style="stroke-width:0.26458332">Submersive tech.</tspan></text>
  </g>
</svg>
