<?xml version="1.0" encoding="UTF-8" standalone="no"?>
<!-- Created with Inkscape (http://www.inkscape.org/) -->

<svg
   width="16.630562mm"
   height="22.618338mm"
   viewBox="0 0 16.630562 22.618337"
   version="1.1"
   id="svg141641"
   inkscape:version="1.1.2 (1:1.1+202202050950+0a00cf5339)"
   sodipodi:docname="water.svg"
   xmlns:inkscape="http://www.inkscape.org/namespaces/inkscape"
   xmlns:sodipodi="http://sodipodi.sourceforge.net/DTD/sodipodi-0.dtd"
   xmlns="http://www.w3.org/2000/svg"
   xmlns:svg="http://www.w3.org/2000/svg">
  <sodipodi:namedview
     id="namedview141643"
     pagecolor="#ffffff"
     bordercolor="#666666"
     borderopacity="1.0"
     inkscape:pageshadow="2"
     inkscape:pageopacity="0.0"
     inkscape:pagecheckerboard="0"
     inkscape:document-units="mm"
     showgrid="false"
     fit-margin-top="0"
     fit-margin-left="0"
     fit-margin-right="0"
     fit-margin-bottom="0"
     inkscape:zoom="8.3956828"
     inkscape:cx="9.2309348"
     inkscape:cy="40.020569"
     inkscape:window-width="1920"
     inkscape:window-height="1005"
     inkscape:window-x="1920"
     inkscape:window-y="0"
     inkscape:window-maximized="1"
     inkscape:current-layer="layer1" />
  <defs
     id="defs141638" />
  <g
     inkscape:label="Layer 1"
     inkscape:groupmode="layer"
     id="layer1"
     transform="translate(-81.84366,-99.092963)">
    <path
       id="path28986-3"
       style="display:inline;fill:#0b5aa9;fill-opacity:0.804002;stroke:#0b5aa9;stroke-width:0.485242"
       d="m 98.231601,113.33517 c 0,6.08562 -5.685557,8.13351 -8.072663,8.13351 -2.600766,0 -8.072657,-2.04789 -8.072657,-8.13351 0,-6.0856 8.072657,-13.90444 8.072657,-13.90444 0,0 8.072663,7.81884 8.072663,13.90444 z"
       sodipodi:nodetypes="ssscs" />
    <path
       style="fill:#84a6c7;stroke:none;stroke-width:0.264583px;stroke-linecap:butt;stroke-linejoin:miter;stroke-opacity:1"
       d="m 86.559059,115.22953 c 1.362266,2.39829 -1.530217,1.38457 -1.530217,1.38457 -1.886798,-0.54614 -2.102566,-3.20671 -2.102566,-3.20671 -0.209074,-5.42183 5.854904,-11.32905 5.854904,-11.32905 0,0 -4.815157,8.33676 -2.222121,13.15119 z"
       id="path15364" />
  </g>
</svg>
